Graph D {
overlap = false;
0 [ pos = "8.95474,0.43611!"]
1 [ pos = "7.7517,1.38493!"]
2 [ pos = "0.757164,7.13034!"]
3 [ pos = "9.50926,8.32118!"]
4 [ pos = "3.52336,7.42332!"]
5 [ pos = "0.707419,1.00986!"]
6 [ pos = "5.11948,0.142521!"]
7 [ pos = "5.08713,0.851772!"]
8 [ pos = "8.40846,6.61061!"]
9 [ pos = "8.57692,5.5736!"]
10 [ pos = "0.319834,2.76986!"]
11 [ pos = "6.48122,5.60076!"]
12 [ pos = "1.92816,4.85214!"]
13 [ pos = "0.654317,3.2783!"]
14 [ pos = "4.78652,0.330515!"]
15 [ pos = "7.37327,0.305795!"]
16 [ pos = "6.84072,1.70354!"]
17 [ pos = "8.82534,2.13843!"]
18 [ pos = "1.64708,9.43052!"]
19 [ pos = "0.0567644,1.32359!"]
20 [ pos = "3.62621,3.31584!"]
21 [ pos = "0.119327,1.05594!"]
22 [ pos = "5.9331,0.109256!"]
23 [ pos = "2.26203,1.90405!"]
24 [ pos = "2.46467,0.256966!"]
25 [ pos = "4.60494,4.9031!"]
26 [ pos = "7.81274,9.88281!"]
27 [ pos = "1.03092,9.31455!"]
28 [ pos = "4.84115,6.44795!"]
29 [ pos = "3.29325,9.54527!"]
30 [ pos = "5.3029,9.36522!"]
31 [ pos = "0.832545,9.24558!"]
32 [ pos = "0.715964,1.39409!"]
33 [ pos = "5.75701,7.74407!"]
34 [ pos = "4.8851,4.16425!"]
35 [ pos = "8.10114,0.943632!"]
36 [ pos = "2.20283,2.91269!"]
37 [ pos = "2.14026,1.87445!"]
38 [ pos = "3.47392,2.73019!"]
39 [ pos = "9.38993,1.5009!"]
40 [ pos = "9.68291,2.52937!"]
41 [ pos = "9.25138,4.39833!"]
42 [ pos = "0.168462,4.85244!"]
43 [ pos = "5.32579,2.74392!"]
44 [ pos = "1.30253,0.7416!"]
45 [ pos = "5.42405,2.02795!"]
46 [ pos = "1.22623,0.483718!"]
47 [ pos = "7.55028,9.15708!"]
48 [ pos = "1.78533,4.3318!"]
49 [ pos = "3.83709,4.51796!"]
50 [ pos = "6.69759,3.58928!"]
51 [ pos = "0.838038,0.277718!"]
52 [ pos = "1.49754,2.91818!"]
53 [ pos = "8.97885,4.02539!"]
54 [ pos = "2.15766,0.697958!"]
55 [ pos = "7.57866,6.00604!"]
56 [ pos = "1.70629,6.93319!"]
57 [ pos = "5.94073,5.97247!"]
58 [ pos = "3.97565,8.85311!"]
59 [ pos = "6.80593,8.25434!"]
60 [ pos = "6.96585,4.21369!"]
61 [ pos = "7.23472,7.3513!"]
62 [ pos = "1.55217,2.63894!"]
63 [ pos = "4.97238,7.38975!"]
64 [ pos = "0.569781,7.39158!"]
65 [ pos = "6.81326,3.40617!"]
66 [ pos = "4.97116,4.98306!"]
67 [ pos = "0.641499,6.89566!"]
68 [ pos = "4.00952,9.27427!"]
69 [ pos = "5.98895,8.63521!"]
70 [ pos = "1.49663,1.4124!"]
71 [ pos = "0.299387,4.69192!"]
72 [ pos = "6.37104,8.39961!"]
73 [ pos = "0.930204,3.04147!"]
74 [ pos = "9.35667,2.45277!"]
75 [ pos = "7.46422,4.55641!"]
76 [ pos = "4.61196,1.95563!"]
77 [ pos = "6.43208,9.58098!"]
78 [ pos = "2.24799,3.86456!"]
79 [ pos = "2.28309,6.07868!"]
80 [ pos = "0.656148,8.24854!"]
81 [ pos = "5.63952,3.73363!"]
82 [ pos = "3.00272,9.39329!"]
83 [ pos = "3.80963,6.58864!"]
84 [ pos = "6.24073,5.91082!"]
85 [ pos = "0.418714,1.14628!"]
86 [ pos = "9.85107,5.72954!"]
87 [ pos = "2.13752,3.49254!"]
88 [ pos = "1.45299,2.03558!"]
89 [ pos = "2.05908,4.27564!"]
90 [ pos = "3.7196,4.36537!"]
91 [ pos = "2.59224,0.460219!"]
92 [ pos = "7.90216,6.42354!"]
93 [ pos = "6.99362,3.97382!"]
94 [ pos = "0.00396741,0.0274667!"]
95 [ pos = "9.15525,5.89373!"]
96 [ pos = "2.44881,4.12885!"]
97 [ pos = "7.22709,6.95364!"]
98 [ pos = "3.24931,0.385449!"]
99 [ pos = "9.31639,7.1218!"]
100 [ pos = "2.44697,3.49681!"]
101 [ pos = "0.161443,5.06851!"]
102 [ pos = "8.17866,6.71377!"]
103 [ pos = "7.54082,8.7521!"]
104 [ pos = "8.42128,1.87445!"]
105 [ pos = "7.4984,7.34977!"]
106 [ pos = "5.50798,0.19776!"]
107 [ pos = "9.53459,8.623!"]
108 [ pos = "5.12528,6.18671!"]
109 [ pos = "7.91498,0.729087!"]
110 [ pos = "5.98376,3.57616!"]
111 [ pos = "4.49904,9.78973!"]
112 [ pos = "6.91763,0.560015!"]
113 [ pos = "3.19437,0.398267!"]
114 [ pos = "1.07791,2.79672!"]
115 [ pos = "7.56188,1.98157!"]
116 [ pos = "8.38954,8.18934!"]
117 [ pos = "2.50374,5.72741!"]
118 [ pos = "3.78521,8.38527!"]
119 [ pos = "9.56999,0.973235!"]
120 [ pos = "6.18488,9.62493!"]
121 [ pos = "4.50087,2.69112!"]
122 [ pos = "7.95038,1.20243!"]
123 [ pos = "6.43483,9.2996!"]
124 [ pos = "2.95022,4.67696!"]
125 [ pos = "1.96203,8.73714!"]
126 [ pos = "9.57244,2.29072!"]
127 [ pos = "5.21439,6.7568!"]
128 [ pos = "9.34904,0.119633!"]
129 [ pos = "8.6169,1.02969!"]
130 [ pos = "8.51619,1.48228!"]
131 [ pos = "9.12259,4.12915!"]
132 [ pos = "5.08133,0.383007!"]
133 [ pos = "2.8779,4.01471!"]
134 [ pos = "4.07422,4.47157!"]
135 [ pos = "8.64986,8.57143!"]
136 [ pos = "4.84481,3.42051!"]
137 [ pos = "8.1521,7.23289!"]
138 [ pos = "2.81014,3.02591!"]
139 [ pos = "0.987884,4.09192!"]
140 [ pos = "0.173956,8.94009!"]
141 [ pos = "4.4203,9.3289!"]
142 [ pos = "2.12806,8.03369!"]
143 [ pos = "4.93789,5.57024!"]
144 [ pos = "3.0961,1.18656!"]
145 [ pos = "0.776696,9.18821!"]
146 [ pos = "8.00134,0.0674459!"]
147 [ pos = "3.49925,9.74609!"]
148 [ pos = "2.54128,3.46232!"]
149 [ pos = "3.61034,0.138859!"]
150 [ pos = "0.29603,7.15812!"]
151 [ pos = "1.31809,1.61962!"]
152 [ pos = "9.44395,6.57277!"]
153 [ pos = "0.119022,8.16004!"]
154 [ pos = "4.13617,4.45967!"]
155 [ pos = "9.19004,9.70122!"]
156 [ pos = "1.47282,8.38496!"]
157 [ pos = "1.84484,0.0268563!"]
158 [ pos = "0.732444,5.49974!"]
159 [ pos = "2.7958,8.54091!"]
160 [ pos = "3.32804,6.68996!"]
161 [ pos = "7.91375,2.34199!"]
162 [ pos = "6.13056,9.69695!"]
163 [ pos = "7.87011,1.98767!"]
164 [ pos = "3.54076,2.5483!"]
165 [ pos = "2.67129,7.37541!"]
166 [ pos = "1.30009,5.83605!"]
167 [ pos = "8.9761,5.60289!"]
168 [ pos = "3.71563,6.31672!"]
169 [ pos = "7.40104,6.6628!"]
170 [ pos = "2.01209,6.18915!"]
171 [ pos = "4.08704,1.67394!"]
172 [ pos = "1.15207,3.53374!"]
173 [ pos = "0.809656,8.29646!"]
174 [ pos = "1.93884,0.9653!"]
175 [ pos = "2.15155,5.26414!"]
176 [ pos = "0.780969,2.85958!"]
177 [ pos = "7.97418,8.83999!"]
178 [ pos = "7.41234,7.78466!"]
179 [ pos = "5.83758,4.7322!"]
180 [ pos = "7.35588,3.25083!"]
181 [ pos = "2.42683,5.81439!"]
182 [ pos = "7.28202,5.85467!"]
183 [ pos = "6.63778,5.16526!"]
184 [ pos = "3.83557,2.56447!"]
185 [ pos = "1.07883,1.68523!"]
186 [ pos = "6.30757,9.54466!"]
187 [ pos = "4.52712,8.15668!"]
188 [ pos = "6.89596,4.77218!"]
189 [ pos = "6.65914,5.29252!"]
190 [ pos = "5.52355,1.03916!"]
191 [ pos = "9.3582,6.37074!"]
192 [ pos = "5.50707,7.97723!"]
193 [ pos = "7.36137,1.65868!"]
194 [ pos = "8.01386,6.76473!"]
195 [ pos = "6.18152,6.32984!"]
196 [ pos = "3.51634,0.418714!"]
197 [ pos = "8.38679,6.11438!"]
198 [ pos = "3.53557,7.26981!"]
199 [ pos = "1.68096,7.86157!"]
200 [ pos = "2.16987,6.65395!"]
201 [ pos = "5.06638,3.67473!"]
202 [ pos = "0.426344,5.25071!"]
203 [ pos = "3.9082,3.64147!"]
204 [ pos = "3.51634,1.09836!"]
205 [ pos = "2.25623,9.61272!"]
206 [ pos = "8.23572,1.41179!"]
207 [ pos = "2.50526,7.27653!"]
208 [ pos = "0.624409,1.12369!"]
209 [ pos = "9.68627,2.15461!"]
210 [ pos = "9.51384,2.84036!"]
211 [ pos = "1.60619,3.35398!"]
212 [ pos = "5.55559,6.88864!"]
213 [ pos = "7.95526,3.249!"]
214 [ pos = "4.2027,3.59386!"]
215 [ pos = "2.59651,7.90643!"]
216 [ pos = "1.02695,0.0979644!"]
217 [ pos = "4.85855,8.33308!"]
218 [ pos = "5.05844,2.17719!"]
219 [ pos = "8.9288,2.72011!"]
220 [ pos = "6.70644,8.87509!"]
221 [ pos = "6.73421,1.04465!"]
222 [ pos = "7.54662,5.60564!"]
223 [ pos = "0.17243,1.93304!"]
224 [ pos = "6.06891,0.932035!"]
225 [ pos = "4.51582,3.81207!"]
226 [ pos = "2.64992,4.73434!"]
227 [ pos = "7.49229,4.35041!"]
228 [ pos = "4.76119,2.23518!"]
229 [ pos = "9.1818,0.258797!"]
230 [ pos = "6.02252,0.546892!"]
231 [ pos = "7.73888,9.92492!"]
232 [ pos = "6.40645,3.33628!"]
233 [ pos = "6.28285,0.365307!"]
234 [ pos = "1.92724,6.08783!"]
235 [ pos = "8.33888,3.83038!"]
236 [ pos = "6.7861,0.576495!"]
237 [ pos = "4.24574,4.31928!"]
238 [ pos = "5.40056,3.7257!"]
239 [ pos = "0.176092,6.57613!"]
240 [ pos = "2.34077,4.33576!"]
241 [ pos = "6.12537,5.99475!"]
242 [ pos = "1.07089,2.43934!"]
243 [ pos = "0.646077,3.58745!"]
244 [ pos = "3.92468,1.52135!"]
245 [ pos = "9.50926,2.00079!"]
246 [ pos = "2.08136,4.80636!"]
247 [ pos = "4.07514,2.7018!"]
248 [ pos = "1.74841,4.48347!"]
249 [ pos = "4.24879,7.23167!"]
250 [ pos = "7.54387,8.39076!"]
251 [ pos = "1.68889,3.00851!"]
252 [ pos = "2.45491,3.54228!"]
253 [ pos = "2.71249,2.85714!"]
254 [ pos = "1.96478,1.20853!"]
255 [ pos = "8.32209,3.47758!"]
256 [ pos = "4.25886,5.31877!"]
257 [ pos = "2.24616,7.69524!"]
258 [ pos = "5.0853,5.96698!"]
259 [ pos = "8.04987,4.80667!"]
260 [ pos = "1.09134,4.04889!"]
261 [ pos = "4.5262,8.89859!"]
262 [ pos = "5.56475,2.75582!"]
263 [ pos = "5.93616,2.93283!"]
264 [ pos = "1.68584,8.08008!"]
265 [ pos = "1.49724,2.89468!"]
266 [ pos = "6.95212,4.88907!"]
267 [ pos = "8.08039,7.63848!"]
268 [ pos = "4.54176,8.72402!"]
269 [ pos = "2.57637,2.52144!"]
270 [ pos = "9.37895,7.57317!"]
271 [ pos = "7.15384,4.69375!"]
272 [ pos = "4.70687,3.66527!"]
273 [ pos = "2.81655,1.28544!"]
274 [ pos = "5.41154,4.09833!"]
275 [ pos = "5.61144,4.97147!"]
276 [ pos = "3.31065,2.10761!"]
277 [ pos = "6.7156,0.690939!"]
278 [ pos = "3.50383,9.23643!"]
279 [ pos = "3.76598,8.97366!"]
280 [ pos = "5.79241,3.84289!"]
281 [ pos = "7.35221,1.57201!"]
282 [ pos = "7.48253,4.53017!"]
283 [ pos = "4.9147,0.201117!"]
284 [ pos = "9.75463,9.43632!"]
285 [ pos = "5.54827,5.36637!"]
286 [ pos = "5.50462,5.16984!"]
287 [ pos = "4.70321,5.81622!"]
288 [ pos = "8.38557,3.71166!"]
289 [ pos = "8.73318,6.26545!"]
290 [ pos = "6.92862,3.13517!"]
291 [ pos = "6.91427,8.01874!"]
292 [ pos = "0.385449,9.72564!"]
293 [ pos = "4.20362,0.184332!"]
294 [ pos = "0.528886,6.29566!"]
295 [ pos = "2.87179,4.58876!"]
296 [ pos = "2.33253,5.41398!"]
297 [ pos = "6.4687,1.48473!"]
298 [ pos = "2.49977,8.15607!"]
299 [ pos = "6.64541,2.02612!"]
300 [ pos = "4.42854,0.10773!"]
301 [ pos = "3.35887,3.38725!"]
302 [ pos = "7.67724,7.93176!"]
303 [ pos = "3.24046,9.72228!"]
304 [ pos = "5.562,3.09427!"]
305 [ pos = "0.597552,3.01462!"]
306 [ pos = "2.42531,5.64745!"]
307 [ pos = "1.96783,8.60683!"]
308 [ pos = "8.62331,1.4185!"]
309 [ pos = "9.51292,7.00217!"]
310 [ pos = "2.61757,1.93915!"]
311 [ pos = "2.17444,2.70455!"]
312 [ pos = "2.01331,9.11191!"]
313 [ pos = "7.58477,8.60805!"]
314 [ pos = "5.15488,7.25303!"]
315 [ pos = "3.5255,7.0397!"]
316 [ pos = "8.27998,5.03067!"]
317 [ pos = "6.50899,2.27088!"]
318 [ pos = "6.45436,0.123295!"]
319 [ pos = "8.02423,0.323496!"]
320 [ pos = "5.81927,1.49998!"]
321 [ pos = "7.47032,6.54164!"]
322 [ pos = "6.35121,9.22544!"]
323 [ pos = "5.95782,5.8681!"]
324 [ pos = "4.58449,0.941496!"]
325 [ pos = "8.30897,1.33183!"]
326 [ pos = "0.844752,8.87936!"]
327 [ pos = "2.95785,9.15738!"]
328 [ pos = "1.73254,2.67953!"]
329 [ pos = "2.26905,0.42024!"]
330 [ pos = "2.13263,2.70211!"]
331 [ pos = "0.359508,5.51653!"]
332 [ pos = "8.15271,7.10929!"]
333 [ pos = "3.01706,5.14634!"]
334 [ pos = "9.36644,5.09201!"]
335 [ pos = "6.0509,6.31764!"]
336 [ pos = "1.80761,9.4171!"]
337 [ pos = "5.61785,0.232856!"]
338 [ pos = "8.56532,5.22843!"]
339 [ pos = "7.99463,7.1572!"]
340 [ pos = "8.8345,0.0372326!"]
341 [ pos = "8.15302,7.67998!"]
342 [ pos = "5.13321,3.2844!"]
343 [ pos = "7.61895,6.44246!"]
344 [ pos = "8.32972,4.03729!"]
345 [ pos = "3.67382,9.65514!"]
346 [ pos = "7.4044,3.52947!"]
347 [ pos = "5.25315,7.8283!"]
348 [ pos = "1.76946,6.61214!"]
349 [ pos = "7.17368,6.33229!"]
350 [ pos = "4.66536,4.01624!"]
351 [ pos = "4.80575,4.93667!"]
352 [ pos = "2.99326,6.88406!"]
353 [ pos = "7.26402,9.60509!"]
354 [ pos = "8.08741,7.53594!"]
355 [ pos = "9.86572,1.80029!"]
356 [ pos = "9.69176,7.18711!"]
357 [ pos = "7.24967,8.61721!"]
358 [ pos = "8.00378,3.5313!"]
359 [ pos = "8.41823,7.46635!"]
360 [ pos = "2.33467,0.0302133!"]
361 [ pos = "5.28275,8.04865!"]
362 [ pos = "5.97552,5.65477!"]
363 [ pos = "8.36207,8.19483!"]
364 [ pos = "1.48259,9.92096!"]
365 [ pos = "8.287,5.09079!"]
366 [ pos = "5.07767,4.65712!"]
367 [ pos = "1.01199,5.69811!"]
368 [ pos = "9.40886,2.24036!"]
369 [ pos = "9.33988,6.05274!"]
370 [ pos = "6.84652,1.29582!"]
371 [ pos = "4.78317,4.84817!"]
372 [ pos = "6.97867,6.36036!"]
373 [ pos = "3.19926,8.53236!"]
374 [ pos = "8.32392,8.95291!"]
375 [ pos = "6.22944,9.29502!"]
376 [ pos = "1.72033,5.17991!"]
377 [ pos = "9.66094,0.0915555!"]
378 [ pos = "7.63695,0.64272!"]
379 [ pos = "0.642109,8.43348!"]
380 [ pos = "8.02332,8.27998!"]
381 [ pos = "9.4351,9.37407!"]
382 [ pos = "1.55095,0.107425!"]
383 [ pos = "9.382,4.15479!"]
384 [ pos = "5.4033,0.876492!"]
385 [ pos = "2.23304,0.599994!"]
386 [ pos = "3.43303,1.67699!"]
387 [ pos = "6.13544,0.822779!"]
388 [ pos = "5.77258,5.76464!"]
389 [ pos = "1.74627,7.37968!"]
390 [ pos = "5.05966,8.58913!"]
391 [ pos = "9.28953,6.90542!"]
392 [ pos = "5.6502,0.432447!"]
393 [ pos = "7.20603,6.77877!"]
394 [ pos = "0.714743,4.45235!"]
395 [ pos = "2.60201,1.70873!"]
396 [ pos = "4.25062,6.54775!"]
397 [ pos = "6.21601,9.5761!"]
398 [ pos = "7.00674,7.54265!"]
399 [ pos = "1.36448,5.6447!"]
400 [ pos = "3.39183,3.98389!"]
401 [ pos = "8.53877,7.64946!"]
402 [ pos = "6.84652,2.61696!"]
403 [ pos = "6.23676,7.46941!"]
404 [ pos = "0.153508,6.59566!"]
405 [ pos = "5.52904,4.43037!"]
406 [ pos = "1.02451,9.93805!"]
407 [ pos = "1.94861,6.93411!"]
408 [ pos = "8.22871,1.91168!"]
409 [ pos = "4.89822,9.35881!"]
410 [ pos = "5.82049,6.18763!"]
411 [ pos = "3.04971,6.28437!"]
412 [ pos = "8.90408,1.94525!"]
413 [ pos = "5.49699,2.28217!"]
414 [ pos = "0.0875881,6.96921!"]
415 [ pos = "3.89843,9.0405!"]
416 [ pos = "7.60704,7.30399!"]
417 [ pos = "1.80822,8.73318!"]
418 [ pos = "0.2472,5.57299!"]
419 [ pos = "5.07736,9.50529!"]
420 [ pos = "6.95608,1.78808!"]
421 [ pos = "2.8312,2.02124!"]
422 [ pos = "6.62954,7.70287!"]
423 [ pos = "3.42082,1.42766!"]
424 [ pos = "2.25227,9.66582!"]
425 [ pos = "5.04868,3.08359!"]
426 [ pos = "9.60051,6.84652!"]
427 [ pos = "7.84387,9.26969!"]
428 [ pos = "0.350352,2.8077!"]
429 [ pos = "4.16547,4.01929!"]
430 [ pos = "8.91049,9.9765!"]
431 [ pos = "8.16004,0.500198!"]
432 [ pos = "7.84661,9.87976!"]
433 [ pos = "5.30137,6.26087!"]
434 [ pos = "4.70565,8.27143!"]
435 [ pos = "9.07254,2.37068!"]
436 [ pos = "9.51872,4.76455!"]
437 [ pos = "6.33076,9.30692!"]
438 [ pos = "3.63353,2.54585!"]
439 [ pos = "6.53249,1.59337!"]
440 [ pos = "2.95907,6.41835!"]
441 [ pos = "4.05133,0.959502!"]
442 [ pos = "8.48598,8.07215!"]
443 [ pos = "8.64498,0.372631!"]
444 [ pos = "0.336924,7.33299!"]
445 [ pos = "7.87744,5.00565!"]
446 [ pos = "4.81368,8.48537!"]
447 [ pos = "8.31385,7.21763!"]
448 [ pos = "3.2255,2.80404!"]
449 [ pos = "0.733665,7.27287!"]
450 [ pos = "2.95175,3.45866!"]
451 [ pos = "9.81384,5.97949!"]
452 [ pos = "1.43284,8.18598!"]
453 [ pos = "1.84973,6.00665!"]
454 [ pos = "8.89279,9.83489!"]
455 [ pos = "6.47389,1.54851!"]
456 [ pos = "1.7777,6.32008!"]
457 [ pos = "1.13224,7.49748!"]
458 [ pos = "2.44392,0.900906!"]
459 [ pos = "1.66265,5.64959!"]
460 [ pos = "7.73888,2.33161!"]
461 [ pos = "9.80895,2.90078!"]
462 [ pos = "6.10889,3.49895!"]
463 [ pos = "0.262764,1.17069!"]
464 [ pos = "5.92456,7.97174!"]
465 [ pos = "7.02841,7.18741!"]
466 [ pos = "3.12632,7.65099!"]
467 [ pos = "2.81838,8.46675!"]
468 [ pos = "0.295724,2.70058!"]
469 [ pos = "7.10593,6.15741!"]
470 [ pos = "8.11151,8.39534!"]
471 [ pos = "9.54833,2.06977!"]
472 [ pos = "0.0790429,3.69701!"]
473 [ pos = "7.09891,2.4604!"]
474 [ pos = "8.72677,4.51582!"]
475 [ pos = "6.4095,1.25309!"]
476 [ pos = "2.31025,1.97882!"]
477 [ pos = "9.4055,6.55568!"]
478 [ pos = "1.82989,3.85266!"]
479 [ pos = "0.398877,2.87362!"]
480 [ pos = "4.94156,6.8276!"]
481 [ pos = "9.06552,3.55144!"]
482 [ pos = "2.52998,9.88342!"]
483 [ pos = "6.27979,9.94079!"]
484 [ pos = "1.45665,5.69658!"]
485 [ pos = "0.459609,1.86224!"]
486 [ pos = "9.59105,9.25993!"]
487 [ pos = "1.92236,4.34492!"]
488 [ pos = "2.9252,1.80029!"]
489 [ pos = "3.09122,4.61715!"]
490 [ pos = "5.62059,4.99283!"]
491 [ pos = "4.44716,7.18467!"]
492 [ pos = "8.43471,6.5624!"]
493 [ pos = "1.13163,9.76287!"]
494 [ pos = "5.48387,4.96353!"]
495 [ pos = "4.35102,5.12467!"]
496 [ pos = "9.84039,9.1174!"]
497 [ pos = "6.43178,9.79186!"]
498 [ pos = "1.37364,0.460219!"]
499 [ pos = "9.81628,6.2328!"]
500 [ pos = "1.77007,0.04944!"]
501 [ pos = "9.66826,7.04031!"]
502 [ pos = "7.98059,4.41755!"]
503 [ pos = "8.37672,3.72173!"]
504 [ pos = "2.8193,1.55766!"]
505 [ pos = "9.33103,5.48967!"]
506 [ pos = "6.19831,4.05225!"]
507 [ pos = "8.13837,1.0419!"]
508 [ pos = "8.87387,1.23264!"]
509 [ pos = "3.22306,5.00595!"]
510 [ pos = "8.80032,7.5808!"]
511 [ pos = "5.73748,6.75771!"]
512 [ pos = "4.50087,1.63762!"]
513 [ pos = "2.17139,8.96298!"]
514 [ pos = "6.52852,9.70733!"]
515 [ pos = "3.22275,2.64626!"]
516 [ pos = "3.3433,2.87332!"]
517 [ pos = "0.631428,1.1774!"]
518 [ pos = "8.02789,5.56536!"]
519 [ pos = "1.0535,3.45744!"]
520 [ pos = "3.45592,0.322275!"]
521 [ pos = "3.87219,3.10312!"]
522 [ pos = "2.06671,7.8103!"]
523 [ pos = "9.39756,1.7719!"]
524 [ pos = "8.51924,4.75478!"]
525 [ pos = "6.433,7.2103!"]
526 [ pos = "5.48082,6.53584!"]
527 [ pos = "4.91409,6.3921!"]
528 [ pos = "0.870083,6.98599!"]
529 [ pos = "1.536,7.49901!"]
530 [ pos = "5.27543,6.71712!"]
531 [ pos = "5.21958,7.70775!"]
532 [ pos = "7.28843,4.27015!"]
533 [ pos = "6.1446,3.07596!"]
534 [ pos = "8.32728,2.85623!"]
535 [ pos = "8.21039,8.47072!"]
536 [ pos = "3.47148,0.622883!"]
537 [ pos = "1.35044,5.73778!"]
538 [ pos = "7.11905,5.52629!"]
539 [ pos = "8.43837,3.41838!"]
540 [ pos = "8.14051,8.25617!"]
541 [ pos = "2.78512,7.4929!"]
542 [ pos = "4.95071,9.49156!"]
543 [ pos = "7.72546,6.18213!"]
544 [ pos = "2.71126,2.30995!"]
545 [ pos = "0.733665,8.96329!"]
546 [ pos = "9.05637,8.10358!"]
547 [ pos = "2.20313,6.9158!"]
548 [ pos = "7.47124,6.08051!"]
549 [ pos = "4.64736,4.60433!"]
550 [ pos = "5.07065,3.65123!"]
551 [ pos = "2.9664,9.08902!"]
552 [ pos = "0.193487,8.91507!"]
553 [ pos = "1.73437,5.67736!"]
554 [ pos = "1.28208,8.35505!"]
555 [ pos = "2.52663,8.87295!"]
556 [ pos = "8.13684,3.97717!"]
557 [ pos = "4.32264,6.91122!"]
558 [ pos = "6.10706,5.69323!"]
559 [ pos = "4.25398,5.56719!"]
560 [ pos = "9.35423,8.05933!"]
561 [ pos = "5.67949,7.79717!"]
562 [ pos = "7.2219,6.75008!"]
563 [ pos = "6.99515,6.49251!"]
564 [ pos = "4.26069,0.632954!"]
565 [ pos = "8.97397,4.44777!"]
566 [ pos = "5.79852,1.26774!"]
567 [ pos = "2.05481,4.80026!"]
568 [ pos = "3.39091,4.32844!"]
569 [ pos = "9.07346,2.95877!"]
570 [ pos = "4.26984,8.09565!"]
571 [ pos = "4.72854,3.62438!"]
572 [ pos = "2.28584,4.02264!"]
573 [ pos = "1.85858,0.214545!"]
574 [ pos = "1.06967,4.71847!"]
575 [ pos = "7.57103,5.02121!"]
576 [ pos = "9.44426,6.73299!"]
577 [ pos = "0.745567,3.07169!"]
578 [ pos = "0.784021,0.558489!"]
579 [ pos = "7.59331,7.13218!"]
580 [ pos = "8.28089,9.49522!"]
581 [ pos = "5.103,1.85705!"]
582 [ pos = "3.14829,3.72997!"]
583 [ pos = "4.57228,8.00378!"]
584 [ pos = "9.02432,7.41966!"]
585 [ pos = "0.249641,9.12412!"]
586 [ pos = "9.3292,5.94104!"]
587 [ pos = "2.66091,9.51018!"]
588 [ pos = "1.49388,9.10978!"]
589 [ pos = "3.72478,9.59502!"]
590 [ pos = "8.93185,5.2266!"]
591 [ pos = "2.48543,9.80499!"]
592 [ pos = "4.69375,1.63182!"]
593 [ pos = "7.51152,2.2364!"]
594 [ pos = "6.16535,1.20151!"]
595 [ pos = "5.9212,7.75109!"]
596 [ pos = "4.15876,2.22205!"]
597 [ pos = "0.907315,0.400708!"]
598 [ pos = "8.60561,2.52022!"]
599 [ pos = "0.728172,7.7575!"]
600 [ pos = "2.99509,8.92087!"]
601 [ pos = "3.72723,0.968047!"]
602 [ pos = "6.99362,1.2299!"]
603 [ pos = "7.24143,8.464!"]
604 [ pos = "7.54723,7.31956!"]
605 [ pos = "4.52315,8.43348!"]
606 [ pos = "9.50865,3.70922!"]
607 [ pos = "4.29548,3.71227!"]
608 [ pos = "3.6317,5.60686!"]
609 [ pos = "3.51329,4.87014!"]
610 [ pos = "8.94711,2.87057!"]
611 [ pos = "6.57826,9.23948!"]
612 [ pos = "4.27595,5.10727!"]
613 [ pos = "4.90555,1.7127!"]
614 [ pos = "6.25263,1.32664!"]
615 [ pos = "0.595416,3.53008!"]
616 [ pos = "4.897,8.49025!"]
617 [ pos = "8.30256,4.2906!"]
618 [ pos = "8.83175,0.195013!"]
619 [ pos = "1.43834,6.2685!"]
620 [ pos = "6.85995,2.84524!"]
621 [ pos = "3.87463,5.05387!"]
622 [ pos = "7.08792,3.23923!"]
623 [ pos = "7.53655,2.82388!"]
624 [ pos = "5.35356,9.81079!"]
625 [ pos = "0.994293,6.42994!"]
626 [ pos = "7.62108,1.02664!"]
627 [ pos = "5.58947,8.20948!"]
628 [ pos = "2.51747,9.93316!"]
629 [ pos = "5.00931,9.24375!"]
630 [ pos = "6.52089,4.79507!"]
631 [ pos = "2.8605,8.95077!"]
632 [ pos = "1.76397,3.4608!"]
633 [ pos = "1.85278,7.64458!"]
634 [ pos = "1.19663,4.71297!"]
635 [ pos = "9.02127,6.3036!"]
636 [ pos = "4.22529,4.74532!"]
637 [ pos = "5.17075,6.47206!"]
638 [ pos = "4.18073,2.22236!"]
639 [ pos = "4.73251,9.25474!"]
640 [ pos = "3.27006,2.44514!"]
641 [ pos = "5.65538,2.00232!"]
642 [ pos = "7.34031,1.15024!"]
643 [ pos = "9.15586,0.745262!"]
644 [ pos = "8.02271,2.7192!"]
645 [ pos = "7.27592,2.01056!"]
646 [ pos = "9.93805,7.27836!"]
647 [ pos = "3.5728,5.55803!"]
648 [ pos = "1.82257,7.5927!"]
649 [ pos = "0.089114,6.08692!"]
650 [ pos = "8.97732,1.05564!"]
651 [ pos = "3.30943,3.29661!"]
652 [ pos = "6.56606,5.68957!"]
653 [ pos = "4.32112,2.14362!"]
654 [ pos = "5.27024,3.14615!"]
655 [ pos = "5.14603,4.90493!"]
656 [ pos = "8.86013,7.51518!"]
657 [ pos = "5.4033,0.0524918!"]
658 [ pos = "3.6668,7.49199!"]
659 [ pos = "2.40333,6.15558!"]
660 [ pos = "8.93429,2.47444!"]
661 [ pos = "4.6559,8.34681!"]
662 [ pos = "0.879849,1.58574!"]
663 [ pos = "4.89486,6.55171!"]
664 [ pos = "8.24,9.82086!"]
665 [ pos = "5.30351,4.92874!"]
666 [ pos = "9.3469,8.63948!"]
667 [ pos = "5.92456,7.07297!"]
668 [ pos = "6.68294,0.711997!"]
669 [ pos = "8.50612,7.71722!"]
670 [ pos = "0.562151,1.3303!"]
671 [ pos = "3.52763,5.21012!"]
672 [ pos = "5.41734,3.57372!"]
673 [ pos = "9.10306,6.17481!"]
674 [ pos = "6.32344,1.82104!"]
675 [ pos = "8.13562,0.719626!"]
676 [ pos = "6.14917,9.94568!"]
677 [ pos = "5.74602,9.65239!"]
678 [ pos = "1.32054,7.73492!"]
679 [ pos = "3.85296,0.540178!"]
680 [ pos = "2.87515,3.00577!"]
681 [ pos = "5.11948,3.48491!"]
682 [ pos = "5.51469,8.77499!"]
683 [ pos = "5.53758,6.30512!"]
684 [ pos = "7.00613,5.95996!"]
685 [ pos = "4.92477,8.7814!"]
686 [ pos = "9.73571,3.67595!"]
687 [ pos = "8.86654,2.89102!"]
688 [ pos = "1.80303,2.47688!"]
689 [ pos = "5.32548,6.84225!"]
690 [ pos = "2.94259,2.17719!"]
691 [ pos = "5.5797,1.44108!"]
692 [ pos = "7.06839,6.36738!"]
693 [ pos = "3.53648,4.14319!"]
694 [ pos = "4.58113,1.69897!"]
695 [ pos = "1.08615,5.29374!"]
696 [ pos = "0.028077,2.68532!"]
697 [ pos = "1.24393,8.82443!"]
698 [ pos = "0.474868,3.41685!"]
699 [ pos = "6.62099,2.26325!"]
700 [ pos = "3.34483,7.44377!"]
701 [ pos = "9.54619,4.61745!"]
702 [ pos = "5.6917,7.41691!"]
703 [ pos = "3.13944,1.70354!"]
704 [ pos = "6.19404,8.13044!"]
705 [ pos = "1.09958,3.15653!"]
706 [ pos = "2.81747,1.6187!"]
707 [ pos = "9.14029,9.79522!"]
708 [ pos = "9.34629,2.21351!"]
709 [ pos = "4.16181,0.60213!"]
710 [ pos = "9.08048,4.15906!"]
711 [ pos = "9.59777,1.49174!"]
712 [ pos = "0.190435,5.82171!"]
713 [ pos = "8.21528,9.51933!"]
714 [ pos = "0.756554,3.91583!"]
715 [ pos = "8.19819,2.566!"]
716 [ pos = "8.63735,9.78729!"]
717 [ pos = "5.85894,1.94708!"]
718 [ pos = "8.30439,8.86898!"]
719 [ pos = "0.0625629,0.188299!"]
720 [ pos = "9.83428,5.24094!"]
721 [ pos = "0.660726,4.59914!"]
722 [ pos = "0.65096,6.97439!"]
723 [ pos = "7.14713,5.4796!"]
724 [ pos = "4.64187,5.94531!"]
725 [ pos = "5.65203,2.12867!"]
726 [ pos = "2.08441,9.25291!"]
727 [ pos = "3.50291,6.47389!"]
728 [ pos = "3.79589,9.5529!"]
729 [ pos = "2.15278,9.39695!"]
730 [ pos = "0.174261,9.76623!"]
731 [ pos = "2.59255,4.92904!"]
732 [ pos = "6.69942,4.97696!"]
733 [ pos = "3.62072,8.68404!"]
734 [ pos = "8.17042,2.17902!"]
735 [ pos = "3.83953,5.42192!"]
736 [ pos = "0.783105,8.06604!"]
737 [ pos = "4.20179,2.77963!"]
738 [ pos = "0.306711,7.59178!"]
739 [ pos = "0.605182,0.165716!"]
740 [ pos = "2.36763,2.76284!"]
741 [ pos = "6.68081,9.888!"]
742 [ pos = "3.45805,3.3253!"]
743 [ pos = "6.78121,7.99036!"]
744 [ pos = "4.96811,9.94324!"]
745 [ pos = "9.51018,1.28727!"]
746 [ pos = "3.57738,7.35588!"]
747 [ pos = "4.17951,0.915555!"]
748 [ pos = "5.97797,1.11362!"]
749 [ pos = "7.60918,7.68334!"]
750 [ pos = "0.358592,8.07764!"]
751 [ pos = "7.91192,6.76504!"]
752 [ pos = "7.66778,9.16379!"]
753 [ pos = "6.62191,5.18632!"]
754 [ pos = "8.5577,4.08826!"]
755 [ pos = "1.94647,1.24699!"]
756 [ pos = "3.43974,3.35429!"]
757 [ pos = "5.31663,6.86117!"]
758 [ pos = "9.41313,3.6787!"]
759 [ pos = "2.0249,7.95099!"]
760 [ pos = "5.27329,0.732749!"]
761 [ pos = "5.8208,0.774865!"]
762 [ pos = "0.600909,8.71914!"]
763 [ pos = "8.1341,9.68719!"]
764 [ pos = "3.29661,1.16062!"]
765 [ pos = "6.37165,0.490738!"]
766 [ pos = "8.16156,2.62612!"]
767 [ pos = "3.71044,9.61455!"]
768 [ pos = "3.43028,8.14356!"]
769 [ pos = "6.27796,8.93765!"]
770 [ pos = "8.83724,7.10074!"]
771 [ pos = "3.77758,5.58947!"]
772 [ pos = "4.02905,2.64595!"]
773 [ pos = "7.77306,1.59734!"]
774 [ pos = "6.25874,7.3217!"]
775 [ pos = "9.19034,6.17573!"]
776 [ pos = "7.46849,2.08716!"]
777 [ pos = "4.45112,9.94873!"]
778 [ pos = "9.41435,0.283212!"]
779 [ pos = "9.18241,1.75146!"]
780 [ pos = "7.6101,1.6953!"]
781 [ pos = "0.974151,1.09439!"]
782 [ pos = "6.84317,5.9682!"]
783 [ pos = "9.40397,9.15159!"]
784 [ pos = "9.08078,0.414747!"]
785 [ pos = "3.73333,4.52895!"]
786 [ pos = "4.98947,6.03595!"]
787 [ pos = "7.63207,3.28166!"]
788 [ pos = "9.30937,8.55281!"]
789 [ pos = "7.1572,1.96142!"]
790 [ pos = "4.15235,9.72015!"]
791 [ pos = "4.34553,4.14563!"]
792 [ pos = "9.25291,9.34812!"]
793 [ pos = "5.3502,1.14963!"]
794 [ pos = "0.472427,1.62114!"]
795 [ pos = "0.351573,2.71615!"]
796 [ pos = "3.7495,1.65685!"]
797 [ pos = "3.75347,9.67406!"]
798 [ pos = "7.39128,1.07974!"]
799 [ pos = "8.64925,4.09314!"]
800 [ pos = "7.44377,5.9389!"]
801 [ pos = "0.509049,9.58678!"]
802 [ pos = "5.01785,7.81945!"]
803 [ pos = "2.71798,1.38554!"]
804 [ pos = "7.20908,0.727256!"]
805 [ pos = "2.22114,8.88394!"]
806 [ pos = "0.84872,3.54717!"]
807 [ pos = "8.42372,8.75118!"]
808 [ pos = "7.0159,1.78228!"]
809 [ pos = "3.79803,0.72512!"]
810 [ pos = "0.266121,4.19965!"]
811 [ pos = "1.71972,7.03452!"]
812 [ pos = "6.17725,1.09958!"]
813 [ pos = "7.06503,6.34907!"]
814 [ pos = "0.265206,2.51839!"]
815 [ pos = "9.34111,0.441298!"]
816 [ pos = "6.91214,7.97662!"]
817 [ pos = "7.83319,2.61483!"]
818 [ pos = "4.83688,5.64653!"]
819 [ pos = "4.66994,7.68548!"]
820 [ pos = "2.15979,9.31181!"]
821 [ pos = "6.11194,0.112308!"]
822 [ pos = "5.4503,7.43339!"]
823 [ pos = "5.97003,6.04266!"]
824 [ pos = "9.58922,1.33335!"]
825 [ pos = "9.15738,2.77444!"]
826 [ pos = "5.07035,0.130314!"]
827 [ pos = "9.16562,1.75817!"]
828 [ pos = "2.73324,9.93988!"]
829 [ pos = "2.03375,4.9321!"]
830 [ pos = "9.14823,5.17411!"]
831 [ pos = "2.36335,5.23301!"]
832 [ pos = "5.19395,1.83996!"]
833 [ pos = "5.38926,6.74673!"]
834 [ pos = "2.02033,7.73309!"]
835 [ pos = "4.29853,4.43709!"]
836 [ pos = "8.84854,3.6845!"]
837 [ pos = "5.1207,3.961!"]
838 [ pos = "2.15705,4.71511!"]
839 [ pos = "3.89325,4.98123!"]
840 [ pos = "1.99591,1.36967!"]
841 [ pos = "3.62194,2.90201!"]
842 [ pos = "4.69558,0.919218!"]
843 [ pos = "3.11777,0.286874!"]
844 [ pos = "8.38679,6.70736!"]
845 [ pos = "7.30461,6.67623!"]
846 [ pos = "4.69497,3.01889!"]
847 [ pos = "0.337535,0.290231!"]
848 [ pos = "3.06436,3.64269!"]
849 [ pos = "0.0701926,3.49406!"]
850 [ pos = "9.5529,6.06281!"]
851 [ pos = "6.3393,2.12073!"]
852 [ pos = "5.96393,1.21433!"]
853 [ pos = "7.43309,3.05979!"]
854 [ pos = "4.01715,2.18665!"]
855 [ pos = "0.215766,1.18809!"]
856 [ pos = "9.20042,5.43657!"]
857 [ pos = "0.969268,1.96509!"]
858 [ pos = "6.23768,6.21723!"]
859 [ pos = "7.30705,6.11744!"]
860 [ pos = "8.98556,7.29545!"]
861 [ pos = "7.79168,4.02661!"]
862 [ pos = "8.28364,7.85638!"]
863 [ pos = "6.3744,5.97064!"]
864 [ pos = "8.11426,9.04813!"]
865 [ pos = "4.72457,6.49861!"]
866 [ pos = "9.57854,5.14023!"]
867 [ pos = "8.20429,3.18827!"]
868 [ pos = "9.95056,6.00726!"]
869 [ pos = "1.87902,8.10572!"]
870 [ pos = "6.67592,8.85006!"]
871 [ pos = "2.82296,0.693991!"]
872 [ pos = "9.85778,6.0036!"]
873 [ pos = "5.30778,9.82604!"]
874 [ pos = "7.82708,2.56844!"]
875 [ pos = "7.51427,6.59474!"]
876 [ pos = "5.00687,3.71075!"]
877 [ pos = "3.42875,4.36903!"]
878 [ pos = "5.76464,8.07276!"]
879 [ pos = "2.82144,4.91653!"]
880 [ pos = "8.50154,2.02063!"]
881 [ pos = "6.90786,5.28001!"]
882 [ pos = "7.15201,0.738853!"]
883 [ pos = "8.73104,5.81469!"]
884 [ pos = "8.75607,7.6574!"]
885 [ pos = "6.68386,1.61138!"]
886 [ pos = "2.12622,4.66201!"]
887 [ pos = "8.21406,3.6906!"]
888 [ pos = "0.0656148,3.21757!"]
889 [ pos = "9.82788,9.10001!"]
890 [ pos = "2.37953,2.16346!"]
891 [ pos = "0.32075,6.66066!"]
892 [ pos = "5.30656,2.82327!"]
893 [ pos = "7.91955,3.78094!"]
894 [ pos = "1.21097,7.38548!"]
895 [ pos = "0.0155644,5.80584!"]
896 [ pos = "6.70003,3.57585!"]
897 [ pos = "7.63329,8.98709!"]
898 [ pos = "3.98816,8.6523!"]
899 [ pos = "6.93289,7.64702!"]
900 [ pos = "5.58153,9.99756!"]
901 [ pos = "8.2168,1.65716!"]
902 [ pos = "2.45888,9.28892!"]
903 [ pos = "0.249641,8.27967!"]
904 [ pos = "7.11264,3.65001!"]
905 [ pos = "5.55193,8.90713!"]
906 [ pos = "1.34709,1.58605!"]
907 [ pos = "1.8598,2.60537!"]
908 [ pos = "0.869472,5.11582!"]
909 [ pos = "7.48619,0.781884!"]
910 [ pos = "0.668661,3.59508!"]
911 [ pos = "5.03189,7.10105!"]
912 [ pos = "3.25022,0.529496!"]
913 [ pos = "0.120548,0.147099!"]
914 [ pos = "2.21198,3.44218!"]
915 [ pos = "0.748924,9.55535!"]
916 [ pos = "2.63283,9.84863!"]
917 [ pos = "9.74151,5.6386!"]
918 [ pos = "3.61278,0.852382!"]
919 [ pos = "8.90683,4.22193!"]
920 [ pos = "3.22825,9.04904!"]
921 [ pos = "0.0848415,8.62026!"]
922 [ pos = "8.46522,0.565203!"]
923 [ pos = "6.56392,5.81683!"]
924 [ pos = "8.55983,3.43486!"]
925 [ pos = "9.62188,0.0817896!"]
926 [ pos = "5.90625,7.33329!"]
927 [ pos = "0.433363,0.79989!"]
928 [ pos = "0.509049,4.24909!"]
929 [ pos = "8.54701,8.41792!"]
930 [ pos = "8.10877,7.19169!"]
931 [ pos = "5.79455,9.38231!"]
932 [ pos = "4.86953,5.77013!"]
933 [ pos = "0.166021,4.01776!"]
934 [ pos = "9.12351,4.68215!"]
935 [ pos = "9.0228,6.69027!"]
936 [ pos = "9.33409,5.08774!"]
937 [ pos = "6.36372,1.61687!"]
938 [ pos = "3.50566,0.723594!"]
939 [ pos = "5.91784,6.53005!"]
940 [ pos = "4.86892,1.74017!"]
941 [ pos = "1.83752,6.3329!"]
942 [ pos = "8.16492,0.814234!"]
943 [ pos = "3.02133,6.18641!"]
944 [ pos = "6.40034,9.40184!"]
945 [ pos = "6.79586,4.33393!"]
946 [ pos = "5.87329,8.2522!"]
947 [ pos = "4.10962,5.69353!"]
948 [ pos = "3.75469,6.80929!"]
949 [ pos = "2.79427,4.07361!"]
950 [ pos = "3.87463,2.06427!"]
951 [ pos = "9.04996,0.0155644!"]
952 [ pos = "8.79299,0.115665!"]
953 [ pos = "1.40629,9.0289!"]
954 [ pos = "6.02496,4.32966!"]
955 [ pos = "7.20603,7.57805!"]
956 [ pos = "9.66948,3.85449!"]
957 [ pos = "0.415052,7.87774!"]
958 [ pos = "1.90802,6.58437!"]
959 [ pos = "2.58583,3.5783!"]
960 [ pos = "8.16309,2.70577!"]
961 [ pos = "7.20878,3.06009!"]
962 [ pos = "1.36143,9.99512!"]
963 [ pos = "2.91147,1.52684!"]
964 [ pos = "1.00558,1.25217!"]
965 [ pos = "4.0727,3.65154!"]
966 [ pos = "7.84814,8.99228!"]
967 [ pos = "9.80316,1.44108!"]
968 [ pos = "1.15848,3.9082!"]
969 [ pos = "5.06455,3.49071!"]
970 [ pos = "9.11466,3.04514!"]
971 [ pos = "2.26386,8.14112!"]
972 [ pos = "9.96155,2.21412!"]
973 [ pos = "9.15616,0.501114!"]
974 [ pos = "8.57265,6.27094!"]
975 [ pos = "0.654622,8.07947!"]
976 [ pos = "6.1034,1.68096!"]
977 [ pos = "9.33378,8.14051!"]
978 [ pos = "5.8385,9.56084!"]
979 [ pos = "3.34178,8.14356!"]
980 [ pos = "2.34352,5.37309!"]
981 [ pos = "2.34382,4.91287!"]
982 [ pos = "9.87243,4.91623!"]
983 [ pos = "3.21085,4.86862!"]
984 [ pos = "5.92669,6.41591!"]
985 [ pos = "8.77071,2.89193!"]
986 [ pos = "3.15165,6.67745!"]
987 [ pos = "6.22822,7.49779!"]
988 [ pos = "3.62407,6.61885!"]
989 [ pos = "8.13013,1.17954!"]
990 [ pos = "0.317392,9.335!"]
991 [ pos = "9.24436,3.32774!"]
992 [ pos = "7.34397,3.39702!"]
993 [ pos = "8.6755,5.24613!"]
994 [ pos = "9.73052,6.61!"]
995 [ pos = "9.21934,8.77621!"]
996 [ pos = "1.24332,2.1839!"]
997 [ pos = "6.59444,8.08527!"]
998 [ pos = "1.37455,1.49358!"]
999 [ pos = "1.06479,4.61043!"]
0--618;
0--784;
1--122;
1--773;
2--449;
2--528;
2--722;
3--107;
3--977;
4--658;
4--700;
4--746;
5--208;
5--781;
5--927;
6--132;
6--657;
6--826;
7--760;
7--842;
8--492;
8--844;
9--518;
9--883;
9--993;
10--428;
10--795;
11--189;
11--652;
12--248;
12--376;
12--829;
13--577;
13--698;
14--283;
14--300;
14--842;
15--378;
16--299;
16--420;
16--885;
17--412;
17--435;
17--880;
18--336;
18--364;
18--588;
19--855;
20--203;
20--521;
20--742;
21--855;
22--337;
22--821;
23--37;
23--476;
24--91;
24--329;
24--360;
25--371;
25--495;
26--231;
26--432;
27--31;
27--953;
28--527;
28--663;
28--865;
29--82;
29--278;
29--303;
30--419;
30--905;
30--931;
31--145;
31--915;
32--662;
32--670;
32--964;
33--561;
33--595;
33--702;
34--350;
34--549;
34--837;
35--507;
35--942;
36--311;
36--914;
37--840;
38--164;
38--516;
38--841;
39--508;
39--523;
39--711;
40--126;
40--210;
41--383;
41--565;
41--701;
41--710;
42--71;
42--101;
43--262;
43--892;
44--46;
44--174;
44--781;
45--641;
45--832;
46--498;
46--597;
47--353;
47--752;
48--248;
48--487;
49--134;
49--785;
50--896;
51--216;
51--597;
51--739;
52--251;
52--265;
53--710;
53--836;
54--174;
54--385;
54--458;
55--543;
55--548;
56--348;
56--407;
56--811;
57--323;
57--823;
58--261;
58--415;
58--898;
59--291;
59--603;
60--93;
60--532;
60--945;
61--105;
61--465;
61--955;
62--265;
62--328;
63--314;
63--531;
63--819;
64--444;
64--449;
64--599;
65--290;
65--896;
65--904;
66--143;
66--351;
66--655;
67--722;
67--891;
68--141;
68--415;
68--728;
69--72;
69--682;
69--769;
69--946;
70--755;
70--998;
71--721;
72--704;
72--870;
72--997;
73--114;
73--577;
73--705;
74--368;
74--435;
74--825;
75--271;
75--282;
75--575;
76--228;
76--653;
76--694;
77--186;
77--514;
78--252;
78--478;
78--572;
79--170;
79--181;
79--659;
80--173;
80--379;
80--975;
81--238;
81--280;
82--327;
82--587;
83--168;
83--396;
83--948;
83--988;
84--241;
84--558;
84--863;
85--208;
85--463;
85--927;
86--451;
86--917;
87--632;
87--914;
88--151;
88--688;
88--996;
89--240;
89--478;
89--487;
90--693;
90--785;
91--871;
92--343;
92--751;
93--904;
94--913;
95--167;
95--586;
96--240;
96--572;
96--949;
97--393;
97--465;
97--579;
98--113;
98--520;
99--309;
99--391;
99--860;
100--148;
100--252;
100--914;
101--202;
101--721;
102--194;
102--844;
103--313;
103--357;
103--897;
104--408;
104--880;
105--604;
105--749;
106--337;
106--657;
107--666;
108--433;
108--786;
109--378;
109--675;
110--280;
110--462;
111--141;
111--744;
111--777;
111--790;
112--236;
112--882;
113--843;
113--912;
114--176;
114--242;
114--265;
115--163;
115--776;
115--780;
116--363;
116--442;
116--929;
117--181;
117--306;
118--570;
118--733;
118--768;
118--898;
119--643;
119--745;
120--162;
120--397;
121--228;
121--737;
121--846;
122--626;
122--989;
123--437;
123--611;
123--944;
124--295;
124--489;
124--879;
125--307;
125--417;
125--805;
126--209;
126--368;
127--480;
127--530;
128--229;
128--778;
128--925;
129--508;
129--922;
130--308;
130--325;
131--383;
131--710;
132--283;
132--760;
133--582;
133--949;
134--154;
135--807;
135--929;
135--995;
136--571;
136--969;
137--354;
137--447;
137--930;
138--253;
138--450;
138--680;
139--260;
139--394;
139--714;
140--552;
140--585;
141--639;
142--759;
142--971;
143--285;
143--818;
144--273;
144--764;
144--871;
145--545;
146--319;
147--303;
147--345;
148--959;
149--520;
150--414;
150--444;
150--722;
151--185;
151--906;
152--477;
152--576;
152--994;
153--903;
154--636;
154--785;
154--835;
155--707;
155--792;
156--417;
156--452;
156--554;
157--360;
157--500;
158--331;
158--367;
158--908;
159--467;
159--631;
160--315;
160--727;
160--986;
161--460;
161--715;
161--734;
161--874;
162--676;
162--978;
163--460;
163--734;
164--438;
164--640;
165--207;
165--352;
165--541;
166--367;
166--537;
166--619;
167--856;
167--883;
168--608;
168--727;
169--579;
169--845;
169--875;
170--234;
170--941;
171--244;
171--512;
172--211;
172--519;
172--968;
173--554;
173--736;
174--254;
175--829;
175--831;
176--577;
177--864;
177--966;
178--749;
178--955;
179--275;
179--405;
179--954;
180--787;
180--853;
180--992;
182--538;
182--684;
182--800;
183--732;
183--753;
184--438;
184--772;
184--854;
185--662;
185--857;
186--397;
186--944;
187--434;
187--570;
187--583;
188--266;
188--271;
188--945;
189--753;
189--881;
190--384;
190--566;
190--761;
190--793;
191--477;
191--775;
192--361;
192--561;
192--627;
193--281;
193--645;
193--780;
194--332;
194--751;
195--335;
195--858;
196--520;
196--536;
196--679;
197--518;
197--543;
197--974;
198--315;
198--746;
199--264;
199--633;
199--678;
200--547;
200--659;
200--958;
201--238;
201--550;
201--876;
202--331;
202--908;
203--965;
204--601;
204--764;
205--424;
205--729;
206--325;
206--901;
207--257;
207--547;
208--517;
209--355;
209--471;
209--972;
210--461;
210--825;
211--251;
211--632;
212--511;
212--833;
213--358;
213--787;
213--867;
214--607;
214--965;
215--257;
215--298;
215--541;
217--361;
217--434;
217--446;
218--228;
218--413;
218--581;
219--610;
219--660;
220--357;
220--611;
220--870;
221--370;
221--475;
221--668;
222--518;
222--575;
222--723;
222--800;
223--485;
223--814;
224--387;
224--761;
224--812;
225--272;
225--350;
225--607;
226--295;
226--731;
227--282;
227--532;
227--861;
228--940;
229--784;
229--951;
230--233;
230--387;
230--761;
231--353;
232--462;
232--533;
232--896;
233--318;
233--765;
233--821;
234--453;
234--659;
235--344;
235--503;
236--277;
237--791;
237--835;
238--672;
239--404;
239--891;
240--886;
241--823;
241--858;
242--577;
242--996;
243--615;
243--910;
244--441;
244--796;
245--355;
245--471;
245--523;
246--567;
246--838;
247--521;
247--737;
247--772;
248--634;
249--491;
249--658;
250--302;
250--313;
250--603;
252--959;
253--740;
254--458;
254--755;
255--539;
255--867;
255--887;
256--559;
256--612;
257--522;
258--433;
258--786;
259--316;
259--445;
259--502;
260--968;
261--268;
261--639;
262--304;
262--413;
263--304;
263--533;
264--452;
264--869;
265--632;
265--705;
266--732;
267--341;
267--354;
267--749;
268--605;
268--898;
269--544;
269--740;
270--356;
270--560;
270--584;
271--732;
272--571;
273--458;
273--803;
274--280;
274--405;
274--837;
275--490;
275--494;
276--640;
276--690;
276--703;
277--668;
277--882;
278--279;
278--589;
278--920;
279--415;
279--733;
280--506;
280--672;
281--642;
281--808;
282--502;
283--826;
284--486;
285--286;
285--388;
286--494;
287--559;
287--724;
287--932;
288--503;
288--539;
289--635;
289--883;
289--974;
290--620;
290--622;
291--816;
292--730;
292--801;
293--300;
293--709;
294--625;
294--649;
294--891;
295--949;
296--306;
296--553;
296--980;
297--455;
297--475;
298--467;
298--971;
299--699;
300--564;
300--826;
301--651;
301--756;
301--848;
302--341;
302--380;
302--749;
303--828;
304--654;
305--479;
305--577;
305--698;
306--659;
307--869;
308--412;
308--508;
309--426;
309--501;
310--395;
310--421;
310--476;
311--330;
311--740;
311--890;
312--513;
312--726;
313--380;
314--822;
314--911;
315--948;
316--365;
316--524;
317--699;
317--851;
319--378;
319--431;
320--566;
320--691;
320--976;
321--343;
321--349;
321--845;
321--875;
322--437;
322--611;
322--769;
323--362;
323--388;
324--592;
324--747;
324--842;
325--508;
325--989;
326--545;
326--697;
327--551;
328--632;
328--907;
329--385;
329--573;
330--907;
331--418;
332--447;
332--844;
332--930;
333--509;
333--879;
334--436;
334--866;
334--936;
335--984;
336--726;
337--392;
338--365;
338--993;
339--579;
339--751;
339--930;
340--951;
340--952;
341--862;
342--425;
342--654;
342--681;
343--543;
344--556;
344--617;
344--754;
345--767;
346--893;
346--904;
346--992;
347--361;
347--531;
347--561;
348--958;
349--469;
349--813;
350--571;
350--791;
351--371;
351--495;
351--818;
352--547;
352--986;
353--432;
353--741;
354--359;
354--862;
355--967;
356--501;
356--646;
357--603;
358--887;
358--893;
359--401;
359--447;
360--573;
361--390;
362--490;
362--558;
363--540;
364--424;
364--962;
365--445;
365--518;
366--371;
366--405;
366--655;
367--695;
368--471;
368--708;
369--586;
369--775;
369--850;
370--602;
370--885;
371--549;
372--563;
372--813;
373--467;
373--600;
373--733;
373--979;
374--718;
374--864;
375--437;
375--769;
375--931;
376--459;
377--925;
378--909;
379--762;
379--903;
380--540;
380--603;
381--486;
381--792;
382--498;
382--500;
383--956;
384--760;
386--423;
386--703;
386--796;
387--765;
388--490;
388--558;
388--823;
389--529;
389--648;
389--811;
390--616;
390--682;
390--685;
391--576;
391--935;
392--657;
392--760;
392--761;
392--821;
393--562;
394--721;
394--928;
394--999;
395--706;
396--557;
396--865;
397--497;
397--978;
398--465;
398--899;
398--955;
399--484;
399--537;
399--695;
400--582;
400--693;
401--669;
401--884;
402--473;
402--620;
402--699;
403--774;
403--987;
404--414;
404--649;
405--494;
406--493;
407--547;
407--958;
408--734;
408--901;
409--542;
409--629;
409--639;
410--683;
410--823;
410--984;
411--440;
411--943;
412--827;
413--725;
413--892;
414--891;
416--579;
416--604;
416--930;
417--513;
417--588;
417--869;
418--712;
418--908;
419--542;
419--873;
420--699;
420--808;
421--488;
421--690;
422--743;
422--899;
422--987;
423--764;
424--591;
425--846;
426--576;
426--994;
427--713;
427--752;
428--479;
429--607;
429--693;
429--791;
430--454;
431--675;
431--922;
432--763;
433--637;
433--683;
434--661;
435--660;
435--708;
436--701;
436--934;
438--841;
439--455;
439--885;
440--659;
440--986;
441--601;
441--747;
442--540;
442--862;
443--618;
443--922;
444--738;
445--575;
446--616;
446--661;
447--669;
447--770;
448--515;
448--516;
448--680;
449--457;
450--651;
450--848;
450--959;
451--850;
451--872;
452--678;
453--456;
453--553;
454--707;
454--716;
455--937;
456--619;
456--941;
457--599;
457--678;
457--894;
458--573;
458--871;
459--484;
459--553;
460--593;
461--972;
462--506;
462--672;
463--670;
463--855;
464--595;
464--704;
464--878;
465--525;
465--562;
466--541;
466--700;
466--979;
468--696;
468--795;
468--814;
469--684;
469--859;
470--535;
470--540;
472--849;
472--933;
473--593;
473--623;
474--524;
474--565;
475--614;
476--706;
476--840;
476--890;
477--935;
478--632;
478--968;
479--795;
479--888;
480--663;
480--911;
481--758;
481--836;
481--991;
482--591;
482--628;
482--916;
483--497;
483--676;
485--794;
486--783;
486--889;
487--572;
487--634;
487--886;
488--703;
488--706;
489--568;
489--949;
489--983;
490--954;
491--557;
491--819;
491--911;
492--935;
492--974;
493--588;
493--915;
493--962;
494--558;
494--665;
494--954;
495--559;
495--612;
496--889;
497--514;
498--573;
499--872;
499--994;
500--573;
500--597;
501--576;
502--575;
502--617;
502--861;
503--754;
503--887;
504--706;
504--803;
504--963;
505--586;
505--856;
505--917;
506--896;
506--945;
506--954;
507--626;
507--989;
508--650;
508--827;
509--983;
510--656;
510--884;
511--526;
511--667;
511--939;
512--694;
513--805;
514--676;
514--741;
514--944;
515--640;
516--640;
516--651;
517--670;
517--781;
517--927;
519--632;
519--705;
519--806;
520--912;
521--841;
521--965;
522--541;
522--759;
522--834;
523--708;
523--779;
524--575;
524--617;
524--993;
525--563;
525--774;
525--899;
526--683;
526--833;
527--637;
527--786;
528--625;
528--894;
529--678;
529--894;
530--637;
530--833;
531--802;
531--822;
532--575;
532--904;
533--892;
534--867;
534--960;
535--807;
535--929;
536--912;
536--938;
537--553;
538--723;
539--924;
540--929;
541--547;
542--744;
543--875;
544--690;
544--890;
545--585;
545--762;
546--884;
546--929;
546--977;
548--800;
548--859;
549--655;
549--835;
550--969;
551--587;
551--600;
551--920;
552--762;
552--921;
553--619;
553--695;
554--678;
554--697;
554--869;
555--631;
555--805;
555--902;
556--887;
556--893;
557--948;
559--947;
560--977;
561--878;
562--563;
562--579;
562--845;
563--692;
564--709;
564--747;
565--919;
565--934;
566--852;
567--634;
567--829;
568--693;
568--877;
569--610;
569--825;
569--970;
570--605;
571--607;
571--876;
572--959;
574--634;
574--908;
574--999;
577--795;
578--597;
578--781;
578--927;
580--713;
580--864;
581--613;
581--832;
582--848;
583--661;
583--819;
584--646;
584--656;
584--860;
585--921;
585--990;
587--902;
587--916;
588--726;
588--953;
589--728;
589--767;
590--830;
590--993;
591--902;
592--694;
592--940;
593--776;
593--874;
594--614;
594--812;
594--852;
595--987;
596--638;
596--772;
596--854;
598--660;
598--715;
598--880;
598--985;
599--736;
600--631;
601--918;
602--642;
603--816;
603--870;
603--897;
605--661;
606--758;
606--956;
608--647;
608--771;
609--671;
609--785;
609--839;
609--983;
610--687;
612--636;
612--839;
613--940;
614--937;
615--698;
618--952;
619--625;
620--961;
621--735;
621--839;
622--961;
622--992;
623--817;
623--853;
624--873;
624--900;
625--722;
625--941;
626--798;
626--909;
627--682;
627--802;
627--878;
629--685;
629--873;
629--905;
630--732;
630--945;
630--954;
631--920;
633--648;
633--834;
635--673;
635--935;
636--655;
637--663;
638--653;
639--685;
639--744;
639--790;
640--680;
640--841;
640--950;
641--717;
641--725;
642--780;
642--798;
643--650;
643--973;
644--817;
644--960;
645--776;
645--789;
646--994;
647--671;
647--943;
648--678;
649--712;
650--745;
651--680;
652--753;
652--923;
653--854;
654--846;
654--892;
655--665;
655--818;
655--837;
658--768;
659--941;
659--943;
659--980;
660--825;
661--685;
661--802;
661--898;
662--906;
663--689;
663--786;
664--716;
664--763;
666--788;
666--995;
667--926;
668--765;
668--812;
669--862;
669--930;
670--794;
671--735;
672--681;
672--954;
673--775;
673--883;
674--851;
674--937;
674--976;
675--909;
675--942;
677--900;
677--978;
678--736;
679--709;
679--809;
680--740;
680--756;
680--959;
681--969;
682--905;
683--786;
684--723;
684--782;
686--956;
687--970;
687--985;
688--907;
689--757;
689--833;
691--793;
691--832;
691--852;
692--813;
692--845;
693--848;
693--965;
694--842;
694--854;
695--908;
696--888;
697--762;
697--953;
698--849;
698--910;
699--789;
699--961;
701--982;
702--822;
702--878;
702--926;
703--963;
704--946;
704--987;
705--795;
705--907;
708--825;
708--827;
708--972;
710--919;
711--779;
711--824;
711--967;
712--891;
712--895;
713--716;
713--763;
714--910;
714--928;
714--968;
715--766;
716--792;
717--976;
718--807;
719--913;
720--866;
720--917;
720--982;
722--738;
722--894;
723--881;
724--947;
725--832;
725--976;
726--805;
726--820;
727--771;
727--988;
728--790;
729--820;
731--879;
731--981;
733--920;
734--766;
734--880;
735--771;
736--894;
736--975;
738--891;
738--957;
739--847;
740--907;
740--914;
742--756;
742--841;
742--965;
743--816;
743--997;
744--873;
745--779;
745--824;
745--973;
746--768;
746--948;
747--809;
748--761;
748--812;
748--852;
749--862;
750--903;
750--957;
750--975;
751--844;
751--875;
752--897;
753--945;
754--799;
755--840;
757--911;
759--869;
760--793;
760--826;
761--765;
761--826;
762--990;
763--864;
764--796;
764--918;
764--963;
765--882;
766--817;
766--960;
767--797;
767--920;
768--979;
769--870;
769--944;
770--844;
770--860;
770--935;
771--839;
771--943;
771--947;
772--841;
772--846;
773--780;
773--798;
773--901;
774--926;
775--935;
777--873;
778--815;
779--827;
780--789;
780--874;
781--964;
782--813;
782--923;
783--792;
783--995;
784--973;
785--877;
786--865;
786--932;
787--893;
788--977;
789--808;
790--797;
791--876;
791--965;
792--889;
793--842;
794--855;
794--857;
794--964;
796--950;
798--808;
798--989;
799--836;
799--887;
799--919;
800--881;
801--915;
801--990;
802--819;
803--840;
803--871;
804--882;
804--909;
805--971;
806--910;
806--968;
807--864;
808--885;
809--842;
809--918;
810--928;
810--933;
811--834;
811--894;
811--958;
812--821;
812--937;
813--859;
814--857;
814--888;
815--824;
815--925;
815--973;
816--899;
817--874;
818--932;
818--947;
820--902;
820--953;
824--827;
826--842;
827--880;
827--967;
828--916;
829--838;
830--856;
830--936;
831--980;
831--981;
832--892;
832--940;
833--911;
833--926;
833--939;
834--869;
835--837;
835--839;
835--965;
836--924;
837--876;
837--954;
838--886;
838--981;
840--998;
841--848;
841--854;
842--940;
844--974;
845--955;
846--965;
846--969;
847--913;
847--927;
848--949;
849--888;
850--994;
852--976;
853--874;
853--961;
854--940;
854--950;
855--927;
856--993;
857--906;
857--996;
858--863;
858--984;
859--875;
859--923;
860--884;
861--893;
862--884;
862--929;
863--923;
864--929;
865--911;
867--924;
868--872;
869--894;
869--971;
871--912;
871--963;
872--917;
874--960;
875--930;
876--969;
877--949;
877--965;
877--983;
878--946;
878--987;
879--949;
879--983;
880--901;
880--960;
881--923;
881--945;
882--885;
884--930;
885--937;
886--949;
887--924;
888--910;
889--995;
890--907;
890--963;
892--969;
893--924;
897--966;
898--920;
898--979;
899--997;
901--989;
902--920;
903--921;
904--945;
905--946;
906--998;
907--996;
910--933;
914--959;
915--953;
916--920;
917--936;
917--994;
918--938;
919--924;
919--956;
921--975;
922--942;
922--952;
923--984;
924--985;
925--951;
926--987;
927--964;
929--966;
930--955;
931--978;
933--968;
934--936;
934--956;
935--994;
936--982;
936--993;
938--963;
939--984;
941--958;
942--989;
943--986;
944--978;
946--997;
949--959;
951--973;
952--973;
953--962;
955--997;
956--991;
960--985;
964--998;
967--972;
968--999;
970--991;
977--995;
981--983;
985--991;
986--988;
987--997;
996--998;
}
