Graph D {
overlap = false;
0 [ pos = "3.10221,8.12708!"]
1 [ pos = "8.84854,6.05731!"]
2 [ pos = "5.23026,1.41514!"]
3 [ pos = "5.86871,3.86242!"]
4 [ pos = "5.16739,1.93854!"]
5 [ pos = "4.23414,6.84317!"]
6 [ pos = "1.45604,2.76803!"]
7 [ pos = "6.27338,8.78964!"]
8 [ pos = "2.80099,4.97024!"]
9 [ pos = "3.94726,0.594501!"]
10 [ pos = "4.84481,1.76885!"]
11 [ pos = "7.14774,4.07208!"]
12 [ pos = "1.32817,9.87487!"]
13 [ pos = "2.16681,6.81814!"]
14 [ pos = "2.77718,6.03534!"]
15 [ pos = "7.74102,3.42143!"]
16 [ pos = "5.43016,8.18995!"]
17 [ pos = "8.19178,1.9303!"]
18 [ pos = "5.61571,3.06925!"]
19 [ pos = "5.17441,8.5754!"]
20 [ pos = "1.55461,1.85492!"]
21 [ pos = "7.59362,9.54192!"]
22 [ pos = "6.74123,8.89554!"]
23 [ pos = "9.66887,7.36229!"]
24 [ pos = "8.00409,1.70202!"]
25 [ pos = "6.12934,2.47597!"]
26 [ pos = "8.23572,9.76135!"]
27 [ pos = "7.37053,8.97519!"]
28 [ pos = "9.88403,1.35502!"]
29 [ pos = "2.34016,8.71639!"]
30 [ pos = "1.89734,7.84692!"]
31 [ pos = "9.21293,1.13651!"]
32 [ pos = "1.10355,9.97742!"]
33 [ pos = "9.78423,8.464!"]
34 [ pos = "0.273751,6.91031!"]
35 [ pos = "9.24924,8.84884!"]
36 [ pos = "0.617084,2.30537!"]
37 [ pos = "4.83047,4.49934!"]
38 [ pos = "7.40318,8.81741!"]
39 [ pos = "0.897855,9.41099!"]
40 [ pos = "5.08591,9.40489!"]
41 [ pos = "0.962249,3.03049!"]
42 [ pos = "3.9494,6.88314!"]
43 [ pos = "4.53322,3.39518!"]
44 [ pos = "5.15763,8.58455!"]
45 [ pos = "5.51622,7.21641!"]
46 [ pos = "6.42048,6.97043!"]
47 [ pos = "4.8616,6.26667!"]
48 [ pos = "7.54509,5.91174!"]
49 [ pos = "9.8059,0.554521!"]
50 [ pos = "5.15427,2.27729!"]
51 [ pos = "1.52165,0.334483!"]
52 [ pos = "0.0936918,9.76043!"]
53 [ pos = "8.55617,2.32063!"]
54 [ pos = "0.764183,2.75704!"]
55 [ pos = "1.34373,1.7246!"]
56 [ pos = "2.02429,8.83053!"]
57 [ pos = "9.59716,2.2425!"]
58 [ pos = "3.72662,5.10056!"]
59 [ pos = "5.70727,2.05634!"]
60 [ pos = "6.53859,3.08237!"]
61 [ pos = "9.74548,6.60482!"]
62 [ pos = "6.80227,4.22437!"]
63 [ pos = "1.43132,9.5172!"]
64 [ pos = "7.97662,1.01413!"]
65 [ pos = "7.81518,2.96335!"]
66 [ pos = "4.97543,2.20099!"]
67 [ pos = "8.64315,9.017!"]
68 [ pos = "0.711997,1.72521!"]
69 [ pos = "0.696738,5.66179!"]
70 [ pos = "2.60231,5.56688!"]
71 [ pos = "4.0492,6.11225!"]
72 [ pos = "1.97394,5.20524!"]
73 [ pos = "3.43852,9.33592!"]
74 [ pos = "2.45247,6.94662!"]
75 [ pos = "3.06101,4.38917!"]
76 [ pos = "5.7796,9.27915!"]
77 [ pos = "9.26939,2.59468!"]
78 [ pos = "6.33168,1.93213!"]
79 [ pos = "9.20225,0.987274!"]
80 [ pos = "0.170904,6.65242!"]
81 [ pos = "0.500809,9.064!"]
82 [ pos = "1.97638,7.15384!"]
83 [ pos = "4.2378,9.96063!"]
84 [ pos = "4.93698,0.491653!"]
85 [ pos = "6.24714,7.97937!"]
86 [ pos = "5.90381,0.477004!"]
87 [ pos = "7.46727,8.1521!"]
88 [ pos = "2.01392,1.97699!"]
89 [ pos = "7.89544,1.52196!"]
90 [ pos = "6.90634,9.26969!"]
91 [ pos = "7.61193,3.28135!"]
92 [ pos = "5.74664,8.2635!"]
93 [ pos = "8.27082,1.07395!"]
94 [ pos = "9.87884,7.67022!"]
95 [ pos = "5.73748,8.92209!"]
96 [ pos = "5.20249,4.29212!"]
97 [ pos = "5.42955,9.59288!"]
98 [ pos = "4.66475,8.7991!"]
99 [ pos = "2.65175,6.06342!"]
100 [ pos = "5.72283,6.88589!"]
101 [ pos = "7.01651,2.28126!"]
102 [ pos = "9.61058,2.84768!"]
103 [ pos = "9.2114,5.94195!"]
104 [ pos = "1.90008,4.56709!"]
105 [ pos = "6.12995,2.75094!"]
106 [ pos = "4.51186,6.98569!"]
107 [ pos = "2.97311,3.82824!"]
108 [ pos = "9.16868,1.536!"]
109 [ pos = "4.62477,6.85751!"]
110 [ pos = "2.64534,8.01843!"]
111 [ pos = "9.63713,8.46004!"]
112 [ pos = "6.19587,9.24711!"]
113 [ pos = "4.79659,1.40049!"]
114 [ pos = "6.56789,3.74126!"]
115 [ pos = "2.70486,6.80563!"]
116 [ pos = "5.26139,4.01837!"]
117 [ pos = "5.38133,9.87548!"]
118 [ pos = "7.37205,3.91766!"]
119 [ pos = "9.80438,8.84945!"]
120 [ pos = "2.81381,4.11847!"]
121 [ pos = "2.80831,2.4604!"]
122 [ pos = "2.08777,6.82608!"]
123 [ pos = "9.10733,2.08136!"]
124 [ pos = "7.38823,4.75692!"]
125 [ pos = "3.64635,2.43416!"]
126 [ pos = "8.9169,2.31178!"]
127 [ pos = "4.28571,0.383923!"]
128 [ pos = "7.07633,4.42763!"]
129 [ pos = "9.17722,6.20075!"]
130 [ pos = "4.98337,7.27744!"]
131 [ pos = "1.43864,6.9982!"]
132 [ pos = "3.73302,1.0361!"]
133 [ pos = "8.03461,9.12107!"]
134 [ pos = "6.29536,4.55428!"]
135 [ pos = "6.42994,6.26087!"]
136 [ pos = "6.11225,1.24729!"]
137 [ pos = "7.8518,4.32752!"]
138 [ pos = "4.59761,1.08982!"]
139 [ pos = "6.07349,3.80016!"]
140 [ pos = "9.1113,1.49571!"]
141 [ pos = "1.84362,6.72048!"]
142 [ pos = "0.808741,6.38874!"]
143 [ pos = "1.60344,9.87304!"]
144 [ pos = "1.31993,4.09345!"]
145 [ pos = "1.27415,9.32066!"]
146 [ pos = "9.72747,7.14499!"]
147 [ pos = "7.86798,5.53545!"]
148 [ pos = "8.05658,6.87094!"]
149 [ pos = "9.73571,4.17768!"]
150 [ pos = "5.69384,9.00449!"]
151 [ pos = "6.68233,6.33351!"]
152 [ pos = "2.0777,9.79308!"]
153 [ pos = "0.183416,5.01694!"]
154 [ pos = "3.89813,1.39103!"]
155 [ pos = "7.77917,3.20048!"]
156 [ pos = "9.15647,6.98386!"]
157 [ pos = "0.664693,3.80749!"]
158 [ pos = "7.02017,6.34083!"]
159 [ pos = "5.79516,5.24888!"]
160 [ pos = "0.704367,7.60033!"]
161 [ pos = "9.67071,8.44935!"]
162 [ pos = "1.88604,7.27287!"]
163 [ pos = "6.72994,4.14258!"]
164 [ pos = "0.638447,3.98877!"]
165 [ pos = "7.05985,3.75652!"]
166 [ pos = "5.8385,8.64315!"]
167 [ pos = "2.31452,4.74258!"]
168 [ pos = "8.67,0.565813!"]
169 [ pos = "1.48259,2.931!"]
170 [ pos = "7.49229,2.41096!"]
171 [ pos = "5.72863,1.70507!"]
172 [ pos = "7.20634,1.86102!"]
173 [ pos = "0.249947,1.7127!"]
174 [ pos = "1.58055,2.26478!"]
175 [ pos = "7.10074,6.72842!"]
176 [ pos = "4.05713,3.15226!"]
177 [ pos = "2.5779,2.39113!"]
178 [ pos = "2.56539,1.53203!"]
179 [ pos = "2.23426,6.12781!"]
180 [ pos = "8.12494,2.14179!"]
181 [ pos = "2.14881,9.86877!"]
182 [ pos = "6.70675,5.72466!"]
183 [ pos = "2.99142,3.43394!"]
184 [ pos = "0.27253,5.10147!"]
185 [ pos = "9.93072,6.96158!"]
186 [ pos = "7.27653,5.64745!"]
187 [ pos = "2.77505,6.69454!"]
188 [ pos = "6.5566,5.92853!"]
189 [ pos = "3.18094,1.12918!"]
190 [ pos = "2.60353,2.01025!"]
191 [ pos = "5.54613,5.1735!"]
192 [ pos = "6.00696,1.55156!"]
193 [ pos = "1.58574,9.81262!"]
194 [ pos = "1.64037,7.48405!"]
195 [ pos = "1.81402,5.13108!"]
196 [ pos = "0.148015,2.11737!"]
197 [ pos = "6.46229,6.57613!"]
198 [ pos = "6.7336,7.13279!"]
199 [ pos = "0.0366222,9.37254!"]
200 [ pos = "6.44612,9.4055!"]
201 [ pos = "3.96374,5.2382!"]
202 [ pos = "8.29157,3.16385!"]
203 [ pos = "6.86819,0.255135!"]
204 [ pos = "2.86569,1.89673!"]
205 [ pos = "8.23023,4.17585!"]
206 [ pos = "1.03305,4.93149!"]
207 [ pos = "4.69131,0.839869!"]
208 [ pos = "5.7329,9.9469!"]
209 [ pos = "5.41398,7.99341!"]
210 [ pos = "6.50563,0.13245!"]
211 [ pos = "9.87396,3.87371!"]
212 [ pos = "8.081,9.4879!"]
213 [ pos = "4.52376,8.74233!"]
214 [ pos = "1.56072,8.12952!"]
215 [ pos = "0.184637,3.29264!"]
216 [ pos = "0.67629,7.70775!"]
217 [ pos = "6.02161,3.8786!"]
218 [ pos = "7.47368,1.34068!"]
219 [ pos = "4.80575,7.93176!"]
220 [ pos = "2.90628,9.13724!"]
221 [ pos = "4.11206,3.14676!"]
222 [ pos = "9.39604,5.63646!"]
223 [ pos = "5.38194,2.12836!"]
224 [ pos = "5.7152,5.5855!"]
225 [ pos = "3.66039,1.57659!"]
226 [ pos = "0.82522,5.67217!"]
227 [ pos = "1.5421,2.91025!"]
228 [ pos = "3.78277,8.36024!"]
229 [ pos = "7.6751,0.780358!"]
230 [ pos = "2.78695,6.10553!"]
231 [ pos = "9.33012,8.44905!"]
232 [ pos = "9.12564,6.21021!"]
233 [ pos = "6.2981,5.7387!"]
234 [ pos = "2.40303,4.62477!"]
235 [ pos = "5.98346,7.4752!"]
236 [ pos = "3.31339,7.43095!"]
237 [ pos = "3.23252,9.26328!"]
238 [ pos = "0.550249,7.73644!"]
239 [ pos = "9.49919,4.33424!"]
240 [ pos = "0.484939,9.56206!"]
241 [ pos = "0.551469,1.31932!"]
242 [ pos = "3.28349,5.23911!"]
243 [ pos = "6.41896,9.3762!"]
244 [ pos = "8.352,5.1265!"]
245 [ pos = "7.82403,5.40544!"]
246 [ pos = "6.71804,4.33088!"]
247 [ pos = "6.27705,9.36491!"]
248 [ pos = "9.38108,6.83798!"]
249 [ pos = "6.49129,9.16349!"]
250 [ pos = "0.0540178,9.27946!"]
251 [ pos = "6.14399,7.59392!"]
252 [ pos = "9.33653,0.718711!"]
253 [ pos = "5.4384,1.42033!"]
254 [ pos = "6.43696,7.59728!"]
255 [ pos = "3.70861,8.39686!"]
256 [ pos = "5.374,0.568865!"]
257 [ pos = "8.69442,2.84127!"]
258 [ pos = "6.33351,8.66115!"]
259 [ pos = "2.32765,5.73962!"]
260 [ pos = "0.875576,2.21534!"]
261 [ pos = "1.19419,2.38258!"]
262 [ pos = "3.11686,5.70482!"]
263 [ pos = "6.49068,0.583209!"]
264 [ pos = "9.20621,0.987884!"]
265 [ pos = "3.55205,6.73544!"]
266 [ pos = "5.54674,7.1334!"]
267 [ pos = "1.12857,6.70278!"]
268 [ pos = "3.58623,0.852687!"]
269 [ pos = "1.76855,4.94095!"]
270 [ pos = "6.82882,8.08863!"]
271 [ pos = "3.21146,9.65026!"]
272 [ pos = "5.26444,8.6462!"]
273 [ pos = "2.82266,5.37523!"]
274 [ pos = "4.94797,8.20673!"]
275 [ pos = "9.0643,8.55037!"]
276 [ pos = "7.17826,1.83905!"]
277 [ pos = "2.07648,7.27836!"]
278 [ pos = "3.95367,6.50472!"]
279 [ pos = "5.84582,5.41704!"]
280 [ pos = "5.29008,3.28043!"]
281 [ pos = "3.43638,4.02509!"]
282 [ pos = "0.894192,9.33348!"]
283 [ pos = "0.625324,1.67425!"]
284 [ pos = "4.78927,1.34465!"]
285 [ pos = "8.20246,0.322275!"]
286 [ pos = "8.08039,2.33406!"]
287 [ pos = "5.49425,6.57308!"]
288 [ pos = "3.33995,8.93124!"]
289 [ pos = "3.55052,0.517594!"]
290 [ pos = "5.36912,2.3368!"]
291 [ pos = "2.14667,7.19077!"]
292 [ pos = "8.57295,9.74609!"]
293 [ pos = "6.57796,0.208441!"]
294 [ pos = "2.15491,0.137333!"]
295 [ pos = "4.37757,4.69832!"]
296 [ pos = "1.99774,5.30808!"]
297 [ pos = "4.85366,8.34223!"]
298 [ pos = "3.7553,0.0912503!"]
299 [ pos = "1.92083,6.58773!"]
300 [ pos = "6.5334,1.11606!"]
301 [ pos = "9.41191,1.98828!"]
302 [ pos = "1.87811,7.46086!"]
303 [ pos = "4.07788,9.53917!"]
304 [ pos = "9.83489,5.40941!"]
305 [ pos = "1.12064,0.978423!"]
306 [ pos = "3.85907,9.4528!"]
307 [ pos = "6.56697,2.62429!"]
308 [ pos = "0.611286,8.96878!"]
309 [ pos = "6.37104,4.59212!"]
310 [ pos = "0.354625,0.888394!"]
311 [ pos = "0.0311289,5.52904!"]
312 [ pos = "0.119938,9.38658!"]
313 [ pos = "3.01706,7.48436!"]
314 [ pos = "6.18274,0.43611!"]
315 [ pos = "3.64818,1.47923!"]
316 [ pos = "6.02069,8.24885!"]
317 [ pos = "2.50893,7.03818!"]
318 [ pos = "3.99121,8.35017!"]
319 [ pos = "2.26936,9.56572!"]
320 [ pos = "0.7828,4.66353!"]
321 [ pos = "9.15464,9.33042!"]
322 [ pos = "5.44908,1.648!"]
323 [ pos = "0.538041,6.14795!"]
324 [ pos = "1.83294,3.57585!"]
325 [ pos = "2.44606,5.89648!"]
326 [ pos = "9.64446,7.67266!"]
327 [ pos = "2.41249,0.0302133!"]
328 [ pos = "5.62304,2.30323!"]
329 [ pos = "3.39396,8.4872!"]
330 [ pos = "3.37413,1.96326!"]
331 [ pos = "9.53887,1.09226!"]
332 [ pos = "2.81594,3.73516!"]
333 [ pos = "0.798364,3.9967!"]
334 [ pos = "3.02011,1.38707!"]
335 [ pos = "6.91061,7.06503!"]
336 [ pos = "6.77084,9.62493!"]
337 [ pos = "8.40236,6.75954!"]
338 [ pos = "2.69051,8.45729!"]
339 [ pos = "9.24711,8.13929!"]
340 [ pos = "2.51625,2.42073!"]
341 [ pos = "8.85922,0.391247!"]
342 [ pos = "8.32179,7.78283!"]
343 [ pos = "6.53645,4.09284!"]
344 [ pos = "8.39961,9.0698!"]
345 [ pos = "5.45549,6.3744!"]
346 [ pos = "2.42134,0.583819!"]
347 [ pos = "2.172,3.62743!"]
348 [ pos = "7.59819,5.22752!"]
349 [ pos = "7.52586,1.56499!"]
350 [ pos = "9.14792,8.21131!"]
351 [ pos = "2.12775,0.59389!"]
352 [ pos = "1.68462,3.32072!"]
353 [ pos = "0.493484,1.81555!"]
354 [ pos = "4.40352,0.606098!"]
355 [ pos = "8.60286,6.80807!"]
356 [ pos = "3.42723,2.89224!"]
357 [ pos = "6.48244,3.8966!"]
358 [ pos = "0.641499,0.641194!"]
359 [ pos = "6.57888,6.12751!"]
360 [ pos = "1.01688,6.6686!"]
361 [ pos = "6.42659,2.90902!"]
362 [ pos = "1.06082,0.275887!"]
363 [ pos = "6.72475,9.49187!"]
364 [ pos = "0.908231,0.787988!"]
365 [ pos = "9.62767,7.36991!"]
366 [ pos = "2.88888,9.46532!"]
367 [ pos = "3.08329,5.60442!"]
368 [ pos = "1.46153,2.62764!"]
369 [ pos = "1.68676,9.16135!"]
370 [ pos = "4.42824,3.76263!"]
371 [ pos = "8.98709,6.94723!"]
372 [ pos = "4.57045,4.66414!"]
373 [ pos = "6.75497,0.533158!"]
374 [ pos = "5.56627,1.54973!"]
375 [ pos = "9.62615,5.81347!"]
376 [ pos = "7.46971,7.80602!"]
377 [ pos = "5.03616,5.34165!"]
378 [ pos = "6.42415,6.83401!"]
379 [ pos = "4.7206,0.0497452!"]
380 [ pos = "1.90222,2.63955!"]
381 [ pos = "1.48228,6.71316!"]
382 [ pos = "3.84045,8.54579!"]
383 [ pos = "9.72503,3.19163!"]
384 [ pos = "2.83944,2.0191!"]
385 [ pos = "6.61885,8.3227!"]
386 [ pos = "0.374157,2.28492!"]
387 [ pos = "9.00449,8.68038!"]
388 [ pos = "3.93872,3.44493!"]
389 [ pos = "5.43229,1.47252!"]
390 [ pos = "5.515,5.4384!"]
391 [ pos = "9.42381,2.85012!"]
392 [ pos = "1.92694,4.66048!"]
393 [ pos = "5.26719,5.16129!"]
394 [ pos = "3.78613,1.6184!"]
395 [ pos = "7.78222,6.37318!"]
396 [ pos = "7.09769,0.91464!"]
397 [ pos = "8.66024,1.32328!"]
398 [ pos = "9.43144,5.35417!"]
399 [ pos = "0.534074,8.8464!"]
400 [ pos = "2.1073,7.31651!"]
401 [ pos = "2.05542,2.43873!"]
402 [ pos = "2.37068,2.97372!"]
403 [ pos = "9.23154,6.21418!"]
404 [ pos = "6.26362,4.72884!"]
405 [ pos = "6.33595,3.68694!"]
406 [ pos = "5.11399,0.615558!"]
407 [ pos = "0.127873,5.70727!"]
408 [ pos = "7.48466,2.63375!"]
409 [ pos = "0.105899,6.84469!"]
410 [ pos = "5.31724,5.30686!"]
411 [ pos = "1.37883,7.99036!"]
412 [ pos = "9.12595,7.40654!"]
413 [ pos = "1.6718,8.10511!"]
414 [ pos = "3.67229,0.0448622!"]
415 [ pos = "6.27888,1.20334!"]
416 [ pos = "3.85449,9.43846!"]
417 [ pos = "0.642109,7.01285!"]
418 [ pos = "1.81585,8.82076!"]
419 [ pos = "5.9685,6.58681!"]
420 [ pos = "1.76366,7.5457!"]
421 [ pos = "5.10392,8.69991!"]
422 [ pos = "9.94629,2.51961!"]
423 [ pos = "0.0549333,0.372326!"]
424 [ pos = "4.91348,4.09955!"]
425 [ pos = "5.29405,6.60787!"]
426 [ pos = "8.83206,1.64281!"]
427 [ pos = "8.57845,1.6364!"]
428 [ pos = "5.48204,9.31791!"]
429 [ pos = "9.72015,7.8872!"]
430 [ pos = "5.90655,6.77694!"]
431 [ pos = "3.76171,0.792261!"]
432 [ pos = "9.72137,8.15119!"]
433 [ pos = "4.65285,8.66054!"]
434 [ pos = "0.128178,2.75826!"]
435 [ pos = "4.98795,8.41823!"]
436 [ pos = "4.89761,8.20917!"]
437 [ pos = "2.94076,1.33488!"]
438 [ pos = "5.30198,7.46757!"]
439 [ pos = "5.43199,9.10428!"]
440 [ pos = "1.41057,2.15461!"]
441 [ pos = "3.07535,1.1539!"]
442 [ pos = "6.53981,1.18625!"]
443 [ pos = "3.79528,0.00457778!"]
444 [ pos = "7.27439,3.01187!"]
445 [ pos = "4.44868,4.17554!"]
446 [ pos = "9.55901,7.46208!"]
447 [ pos = "9.57091,8.78719!"]
448 [ pos = "7.14896,5.81927!"]
449 [ pos = "9.73968,3.86059!"]
450 [ pos = "7.49565,1.41148!"]
451 [ pos = "5.28428,0.661031!"]
452 [ pos = "3.11075,4.06873!"]
453 [ pos = "0.367443,8.46675!"]
454 [ pos = "4.92843,6.40461!"]
455 [ pos = "4.14502,9.17997!"]
456 [ pos = "9.34874,4.36811!"]
457 [ pos = "5.94867,6.42598!"]
458 [ pos = "3.79406,5.06363!"]
459 [ pos = "6.54225,0.494095!"]
460 [ pos = "7.97418,7.76238!"]
461 [ pos = "3.69304,1.90161!"]
462 [ pos = "0.886258,5.51744!"]
463 [ pos = "3.82855,5.7561!"]
464 [ pos = "8.12922,1.15452!"]
465 [ pos = "8.68496,7.70623!"]
466 [ pos = "1.62481,8.8464!"]
467 [ pos = "2.82571,1.34983!"]
468 [ pos = "5.58733,7.25974!"]
469 [ pos = "0.971709,7.77093!"]
470 [ pos = "9.78027,8.65596!"]
471 [ pos = "9.49126,1.64617!"]
472 [ pos = "5.0264,6.53188!"]
473 [ pos = "0.415662,6.35365!"]
474 [ pos = "7.84326,8.71761!"]
475 [ pos = "5.1796,3.96191!"]
476 [ pos = "2.16559,9.50285!"]
477 [ pos = "5.23057,6.17267!"]
478 [ pos = "7.7282,9.61333!"]
479 [ pos = "3.9433,0.412305!"]
480 [ pos = "7.95495,2.9667!"]
481 [ pos = "5.14847,2.65267!"]
482 [ pos = "6.49281,0.319529!"]
483 [ pos = "4.3028,6.3509!"]
484 [ pos = "2.00049,8.4518!"]
485 [ pos = "5.15702,6.47389!"]
486 [ pos = "6.76809,5.67461!"]
487 [ pos = "3.92712,0.0704978!"]
488 [ pos = "7.41783,6.41041!"]
489 [ pos = "0.733665,1.60558!"]
490 [ pos = "6.57979,5.65752!"]
491 [ pos = "0.665304,3.47118!"]
492 [ pos = "4.29731,4.57625!"]
493 [ pos = "0.528581,1.02084!"]
494 [ pos = "8.25526,7.42332!"]
495 [ pos = "8.35902,8.36421!"]
496 [ pos = "3.96924,3.91278!"]
497 [ pos = "7.42088,7.2692!"]
498 [ pos = "1.09561,6.03015!"]
499 [ pos = "0.877712,8.11213!"]
500 [ pos = "1.26041,0.599384!"]
501 [ pos = "3.89325,0.101932!"]
502 [ pos = "7.51091,4.79354!"]
503 [ pos = "2.82052,9.28861!"]
504 [ pos = "6.92343,7.49138!"]
505 [ pos = "2.66213,8.33918!"]
506 [ pos = "7.29148,1.20884!"]
507 [ pos = "0.305185,3.043!"]
508 [ pos = "7.43004,3.48735!"]
509 [ pos = "8.49727,8.15607!"]
510 [ pos = "9.72076,9.37651!"]
511 [ pos = "0.303049,0.862758!"]
512 [ pos = "4.31654,4.24726!"]
513 [ pos = "2.16926,4.98795!"]
514 [ pos = "8.19971,4.86801!"]
515 [ pos = "1.93701,4.4145!"]
516 [ pos = "0.266427,2.69326!"]
517 [ pos = "2.46712,1.23417!"]
518 [ pos = "7.08365,2.97372!"]
519 [ pos = "8.19819,4.15571!"]
520 [ pos = "4.11847,2.73415!"]
521 [ pos = "7.2158,6.94937!"]
522 [ pos = "5.40971,6.26392!"]
523 [ pos = "1.50243,6.40522!"]
524 [ pos = "1.98828,4.6498!"]
525 [ pos = "9.23765,5.71184!"]
526 [ pos = "7.20969,2.40394!"]
527 [ pos = "1.53966,3.55571!"]
528 [ pos = "6.6921,5.57329!"]
529 [ pos = "8.19208,2.8547!"]
530 [ pos = "3.08969,8.16462!"]
531 [ pos = "8.83908,7.12058!"]
532 [ pos = "2.65633,3.50902!"]
533 [ pos = "4.2317,8.24824!"]
534 [ pos = "2.76864,0.555742!"]
535 [ pos = "2.49733,8.29737!"]
536 [ pos = "8.5052,8.32179!"]
537 [ pos = "4.41176,0.819117!"]
538 [ pos = "3.2609,1.03061!"]
539 [ pos = "5.50798,5.74206!"]
540 [ pos = "4.51033,8.13746!"]
541 [ pos = "7.79168,6.9985!"]
542 [ pos = "2.38929,3.69274!"]
543 [ pos = "6.11774,5.23331!"]
544 [ pos = "7.09128,4.59029!"]
545 [ pos = "0.1648,0.278024!"]
546 [ pos = "2.32063,3.4431!"]
547 [ pos = "8.6639,0.924406!"]
548 [ pos = "7.55516,5.35661!"]
549 [ pos = "4.35652,4.07361!"]
0--313;
0--530;
1--232;
1--355;
2--113;
2--253;
2--451;
3--116;
3--217;
4--10;
4--66;
4--223;
4--322;
5--42;
5--106;
6--169;
6--368;
7--166;
7--249;
7--258;
8--75;
8--234;
8--273;
9--431;
9--479;
10--113;
11--118;
11--128;
11--165;
12--32;
12--193;
13--74;
13--122;
14--99;
14--230;
14--262;
15--91;
16--19;
16--92;
16--209;
17--24;
17--180;
17--427;
18--105;
18--139;
18--280;
18--481;
19--44;
19--272;
20--55;
20--88;
20--440;
21--27;
21--478;
22--90;
22--249;
22--258;
23--146;
23--365;
24--89;
25--78;
25--105;
25--328;
26--212;
26--292;
27--38;
27--90;
28--331;
28--471;
29--56;
29--220;
29--338;
30--413;
30--420;
31--140;
31--264;
31--331;
33--161;
33--470;
34--409;
34--417;
35--321;
35--387;
35--447;
36--54;
36--260;
36--386;
37--372;
37--393;
37--424;
38--87;
38--474;
39--240;
39--282;
40--97;
41--54;
41--169;
41--491;
42--265;
42--278;
43--221;
43--280;
43--370;
44--421;
44--435;
45--266;
45--438;
45--468;
46--198;
46--378;
47--454;
47--483;
48--147;
48--186;
48--488;
49--252;
50--66;
50--290;
50--481;
51--351;
51--500;
52--312;
53--126;
53--180;
53--257;
54--516;
55--489;
56--418;
56--484;
57--77;
57--301;
57--422;
58--242;
58--458;
59--171;
59--328;
60--361;
60--405;
60--518;
61--185;
61--248;
62--128;
62--163;
62--246;
63--145;
63--193;
63--369;
64--229;
64--464;
65--155;
65--408;
65--480;
67--321;
67--344;
67--387;
68--260;
68--283;
68--489;
69--226;
69--323;
69--407;
70--259;
70--273;
71--463;
71--483;
72--195;
72--296;
72--513;
73--237;
73--416;
74--115;
74--317;
75--242;
75--452;
76--112;
76--150;
76--428;
77--126;
77--391;
78--192;
78--307;
79--140;
79--264;
79--547;
80--409;
80--473;
81--250;
81--308;
82--122;
82--162;
82--277;
83--303;
84--207;
84--379;
84--406;
85--251;
85--316;
85--385;
86--256;
86--314;
87--270;
87--376;
88--190;
88--401;
89--180;
89--349;
89--464;
90--363;
90--478;
91--155;
91--444;
91--508;
92--166;
92--316;
93--464;
93--547;
94--326;
95--150;
95--166;
96--116;
97--117;
97--428;
98--213;
98--421;
98--433;
99--325;
100--266;
100--287;
100--430;
101--172;
101--307;
101--526;
102--383;
102--391;
102--422;
103--129;
103--525;
104--392;
104--515;
105--361;
106--109;
107--332;
107--452;
108--140;
108--471;
109--130;
109--472;
109--483;
110--313;
110--400;
110--535;
111--161;
111--231;
112--247;
113--284;
113--389;
114--165;
114--357;
114--405;
115--187;
116--475;
117--208;
118--137;
118--508;
119--447;
119--470;
119--510;
120--234;
120--332;
120--452;
121--177;
121--356;
121--384;
122--141;
122--291;
123--126;
123--301;
123--426;
124--502;
124--544;
125--356;
125--461;
125--520;
127--354;
127--379;
127--479;
128--544;
129--232;
129--403;
130--219;
130--438;
131--162;
131--381;
132--154;
132--268;
133--212;
133--344;
133--474;
134--309;
135--197;
135--359;
135--457;
136--192;
136--415;
137--502;
137--514;
137--519;
138--154;
138--207;
138--284;
139--217;
139--405;
140--426;
141--162;
141--299;
141--381;
142--323;
142--360;
142--498;
143--152;
143--193;
144--333;
144--515;
144--527;
145--282;
146--185;
146--248;
147--245;
148--337;
148--395;
148--494;
148--541;
149--239;
149--449;
150--247;
150--439;
151--158;
151--197;
151--359;
152--181;
152--319;
153--184;
154--394;
154--431;
156--248;
156--371;
157--164;
157--491;
158--175;
158--448;
158--488;
159--191;
159--279;
159--543;
160--216;
160--417;
161--432;
162--302;
163--165;
163--343;
164--333;
165--508;
166--272;
167--234;
167--513;
167--524;
168--285;
168--341;
168--547;
169--227;
170--286;
170--408;
170--526;
171--192;
171--374;
172--276;
172--349;
173--196;
173--353;
174--368;
174--440;
175--521;
176--221;
176--356;
176--388;
177--190;
177--340;
178--204;
178--467;
178--517;
179--299;
179--325;
180--286;
181--193;
182--188;
182--486;
182--490;
183--356;
183--532;
184--311;
184--320;
184--462;
185--365;
186--448;
186--548;
187--230;
187--265;
187--317;
188--359;
189--315;
189--441;
189--538;
190--384;
191--410;
193--476;
194--381;
194--411;
194--420;
195--269;
196--386;
197--378;
197--419;
198--335;
198--504;
199--250;
199--312;
200--243;
200--363;
201--295;
201--458;
201--463;
202--519;
202--529;
203--293;
203--373;
204--330;
204--334;
204--384;
205--514;
205--519;
206--269;
206--320;
206--462;
207--537;
208--428;
209--274;
209--316;
209--438;
210--293;
211--449;
212--478;
213--455;
213--533;
214--411;
214--413;
215--491;
215--507;
216--238;
216--469;
217--475;
218--450;
218--506;
219--436;
219--540;
220--237;
220--503;
221--520;
222--375;
222--398;
222--525;
223--290;
224--279;
224--390;
224--539;
225--315;
225--394;
226--462;
226--498;
227--352;
227--368;
228--255;
228--318;
228--382;
229--285;
229--506;
230--325;
231--275;
231--350;
231--447;
233--490;
233--543;
235--251;
235--468;
236--265;
236--313;
237--271;
237--288;
238--417;
239--456;
240--312;
241--489;
241--493;
242--367;
243--247;
243--249;
244--245;
244--514;
245--548;
246--309;
246--343;
246--544;
247--428;
248--365;
248--403;
249--363;
251--254;
252--264;
252--341;
253--284;
253--389;
254--468;
254--504;
255--329;
256--451;
257--391;
257--529;
258--316;
258--363;
258--385;
259--296;
259--325;
260--261;
261--368;
261--386;
261--440;
262--367;
262--463;
263--300;
263--459;
267--360;
267--381;
268--289;
268--431;
268--538;
269--392;
270--385;
270--504;
271--366;
271--416;
272--316;
272--421;
272--439;
273--325;
273--367;
273--513;
274--436;
275--387;
275--536;
276--526;
277--291;
277--302;
277--400;
278--463;
278--483;
280--475;
281--452;
281--496;
282--308;
282--369;
283--353;
284--537;
286--427;
286--529;
287--345;
287--425;
288--329;
288--416;
288--503;
289--479;
290--328;
291--299;
291--317;
292--321;
292--344;
292--478;
293--482;
294--327;
294--351;
295--372;
295--492;
297--433;
297--435;
297--436;
298--414;
298--443;
300--396;
300--442;
301--471;
302--381;
302--420;
303--306;
303--455;
304--375;
304--398;
305--364;
306--416;
307--328;
307--361;
307--518;
308--312;
308--399;
309--404;
310--358;
310--493;
310--511;
311--407;
313--317;
314--451;
314--482;
317--400;
318--533;
319--476;
319--503;
320--333;
321--510;
322--328;
322--374;
323--473;
324--347;
324--527;
326--429;
326--446;
327--346;
328--481;
329--382;
329--530;
330--356;
330--461;
331--547;
332--532;
333--491;
334--437;
335--378;
335--521;
336--363;
336--478;
337--355;
338--503;
338--505;
339--350;
339--432;
340--384;
340--401;
340--402;
342--460;
342--465;
342--494;
342--509;
343--357;
343--404;
345--457;
345--522;
346--351;
346--517;
346--534;
347--352;
347--515;
347--542;
347--546;
348--502;
348--548;
349--450;
349--526;
350--387;
352--380;
352--527;
353--386;
353--489;
354--537;
355--531;
358--364;
358--545;
359--490;
360--417;
360--473;
362--500;
362--545;
364--493;
364--500;
365--446;
366--503;
368--380;
368--527;
369--466;
369--476;
370--549;
371--403;
371--531;
372--377;
373--396;
373--459;
374--389;
374--415;
376--460;
376--497;
377--410;
379--487;
380--401;
380--402;
380--440;
381--400;
381--417;
381--523;
382--455;
382--533;
383--449;
384--461;
384--467;
386--516;
388--496;
388--520;
389--451;
390--410;
390--543;
392--524;
393--410;
394--461;
394--538;
395--488;
396--506;
397--427;
397--464;
397--547;
398--456;
399--453;
400--420;
402--546;
403--525;
404--543;
404--544;
406--451;
406--537;
407--462;
407--473;
408--444;
410--539;
411--469;
412--446;
412--465;
412--531;
413--469;
413--484;
415--442;
416--455;
417--469;
418--466;
418--476;
419--430;
419--457;
420--469;
420--484;
422--471;
423--511;
423--545;
424--445;
424--475;
425--430;
425--485;
426--427;
426--471;
428--439;
429--432;
430--468;
432--446;
432--470;
433--455;
434--507;
434--516;
435--439;
436--438;
437--441;
437--461;
437--467;
440--489;
441--534;
442--459;
442--506;
443--501;
444--480;
444--518;
445--512;
445--549;
448--486;
449--456;
450--464;
452--532;
453--499;
454--472;
457--490;
458--492;
459--482;
464--506;
466--484;
467--538;
468--485;
469--499;
472--485;
473--498;
474--478;
474--495;
475--549;
477--485;
477--522;
477--539;
479--501;
479--537;
479--538;
480--508;
480--529;
483--485;
484--535;
486--488;
486--528;
486--548;
487--501;
488--521;
490--528;
491--527;
492--512;
494--531;
495--536;
496--549;
497--504;
497--521;
497--541;
498--523;
500--511;
505--530;
505--535;
508--518;
509--536;
514--548;
515--524;
518--526;
527--546;
528--543;
532--542;
533--540;
534--538;
539--543;
544--548;
}
