Graph D {
overlap = false;
0 [ pos = "3.10221,8.12708!"]
1 [ pos = "8.84854,6.05731!"]
2 [ pos = "5.23026,1.41514!"]
3 [ pos = "5.86871,3.86242!"]
4 [ pos = "5.16739,1.93854!"]
5 [ pos = "4.23414,6.84317!"]
6 [ pos = "1.45604,2.76803!"]
7 [ pos = "6.27338,8.78964!"]
8 [ pos = "2.80099,4.97024!"]
9 [ pos = "3.94726,0.594501!"]
10 [ pos = "4.84481,1.76885!"]
11 [ pos = "7.14774,4.07208!"]
12 [ pos = "1.32817,9.87487!"]
13 [ pos = "2.16681,6.81814!"]
14 [ pos = "2.77718,6.03534!"]
15 [ pos = "7.74102,3.42143!"]
16 [ pos = "5.43016,8.18995!"]
17 [ pos = "8.19178,1.9303!"]
18 [ pos = "5.61571,3.06925!"]
19 [ pos = "5.17441,8.5754!"]
20 [ pos = "1.55461,1.85492!"]
21 [ pos = "7.59362,9.54192!"]
22 [ pos = "6.74123,8.89554!"]
23 [ pos = "9.66887,7.36229!"]
24 [ pos = "8.00409,1.70202!"]
25 [ pos = "6.12934,2.47597!"]
26 [ pos = "8.23572,9.76135!"]
27 [ pos = "7.37053,8.97519!"]
28 [ pos = "9.88403,1.35502!"]
29 [ pos = "2.34016,8.71639!"]
30 [ pos = "1.89734,7.84692!"]
31 [ pos = "9.21293,1.13651!"]
32 [ pos = "1.10355,9.97742!"]
33 [ pos = "9.78423,8.464!"]
34 [ pos = "0.273751,6.91031!"]
35 [ pos = "9.24924,8.84884!"]
36 [ pos = "0.617084,2.30537!"]
37 [ pos = "4.83047,4.49934!"]
38 [ pos = "7.40318,8.81741!"]
39 [ pos = "0.897855,9.41099!"]
40 [ pos = "5.08591,9.40489!"]
41 [ pos = "0.962249,3.03049!"]
42 [ pos = "3.9494,6.88314!"]
43 [ pos = "4.53322,3.39518!"]
44 [ pos = "5.15763,8.58455!"]
45 [ pos = "5.51622,7.21641!"]
46 [ pos = "6.42048,6.97043!"]
47 [ pos = "4.8616,6.26667!"]
48 [ pos = "7.54509,5.91174!"]
49 [ pos = "9.8059,0.554521!"]
50 [ pos = "5.15427,2.27729!"]
51 [ pos = "1.52165,0.334483!"]
52 [ pos = "0.0936918,9.76043!"]
53 [ pos = "8.55617,2.32063!"]
54 [ pos = "0.764183,2.75704!"]
55 [ pos = "1.34373,1.7246!"]
56 [ pos = "2.02429,8.83053!"]
57 [ pos = "9.59716,2.2425!"]
58 [ pos = "3.72662,5.10056!"]
59 [ pos = "5.70727,2.05634!"]
60 [ pos = "6.53859,3.08237!"]
61 [ pos = "9.74548,6.60482!"]
62 [ pos = "6.80227,4.22437!"]
63 [ pos = "1.43132,9.5172!"]
64 [ pos = "7.97662,1.01413!"]
65 [ pos = "7.81518,2.96335!"]
66 [ pos = "4.97543,2.20099!"]
67 [ pos = "8.64315,9.017!"]
68 [ pos = "0.711997,1.72521!"]
69 [ pos = "0.696738,5.66179!"]
70 [ pos = "2.60231,5.56688!"]
71 [ pos = "4.0492,6.11225!"]
72 [ pos = "1.97394,5.20524!"]
73 [ pos = "3.43852,9.33592!"]
74 [ pos = "2.45247,6.94662!"]
75 [ pos = "3.06101,4.38917!"]
76 [ pos = "5.7796,9.27915!"]
77 [ pos = "9.26939,2.59468!"]
78 [ pos = "6.33168,1.93213!"]
79 [ pos = "9.20225,0.987274!"]
80 [ pos = "0.170904,6.65242!"]
81 [ pos = "0.500809,9.064!"]
82 [ pos = "1.97638,7.15384!"]
83 [ pos = "4.2378,9.96063!"]
84 [ pos = "4.93698,0.491653!"]
85 [ pos = "6.24714,7.97937!"]
86 [ pos = "5.90381,0.477004!"]
87 [ pos = "7.46727,8.1521!"]
88 [ pos = "2.01392,1.97699!"]
89 [ pos = "7.89544,1.52196!"]
90 [ pos = "6.90634,9.26969!"]
91 [ pos = "7.61193,3.28135!"]
92 [ pos = "5.74664,8.2635!"]
93 [ pos = "8.27082,1.07395!"]
94 [ pos = "9.87884,7.67022!"]
95 [ pos = "5.73748,8.92209!"]
96 [ pos = "5.20249,4.29212!"]
97 [ pos = "5.42955,9.59288!"]
98 [ pos = "4.66475,8.7991!"]
99 [ pos = "2.65175,6.06342!"]
100 [ pos = "5.72283,6.88589!"]
101 [ pos = "7.01651,2.28126!"]
102 [ pos = "9.61058,2.84768!"]
103 [ pos = "9.2114,5.94195!"]
104 [ pos = "1.90008,4.56709!"]
105 [ pos = "6.12995,2.75094!"]
106 [ pos = "4.51186,6.98569!"]
107 [ pos = "2.97311,3.82824!"]
108 [ pos = "9.16868,1.536!"]
109 [ pos = "4.62477,6.85751!"]
110 [ pos = "2.64534,8.01843!"]
111 [ pos = "9.63713,8.46004!"]
112 [ pos = "6.19587,9.24711!"]
113 [ pos = "4.79659,1.40049!"]
114 [ pos = "6.56789,3.74126!"]
115 [ pos = "2.70486,6.80563!"]
116 [ pos = "5.26139,4.01837!"]
117 [ pos = "5.38133,9.87548!"]
118 [ pos = "7.37205,3.91766!"]
119 [ pos = "9.80438,8.84945!"]
120 [ pos = "2.81381,4.11847!"]
121 [ pos = "2.80831,2.4604!"]
122 [ pos = "2.08777,6.82608!"]
123 [ pos = "9.10733,2.08136!"]
124 [ pos = "7.38823,4.75692!"]
125 [ pos = "3.64635,2.43416!"]
126 [ pos = "8.9169,2.31178!"]
127 [ pos = "4.28571,0.383923!"]
128 [ pos = "7.07633,4.42763!"]
129 [ pos = "9.17722,6.20075!"]
130 [ pos = "4.98337,7.27744!"]
131 [ pos = "1.43864,6.9982!"]
132 [ pos = "3.73302,1.0361!"]
133 [ pos = "8.03461,9.12107!"]
134 [ pos = "6.29536,4.55428!"]
135 [ pos = "6.42994,6.26087!"]
136 [ pos = "6.11225,1.24729!"]
137 [ pos = "7.8518,4.32752!"]
138 [ pos = "4.59761,1.08982!"]
139 [ pos = "6.07349,3.80016!"]
140 [ pos = "9.1113,1.49571!"]
141 [ pos = "1.84362,6.72048!"]
142 [ pos = "0.808741,6.38874!"]
143 [ pos = "1.60344,9.87304!"]
144 [ pos = "1.31993,4.09345!"]
145 [ pos = "1.27415,9.32066!"]
146 [ pos = "9.72747,7.14499!"]
147 [ pos = "7.86798,5.53545!"]
148 [ pos = "8.05658,6.87094!"]
149 [ pos = "9.73571,4.17768!"]
150 [ pos = "5.69384,9.00449!"]
151 [ pos = "6.68233,6.33351!"]
152 [ pos = "2.0777,9.79308!"]
153 [ pos = "0.183416,5.01694!"]
154 [ pos = "3.89813,1.39103!"]
155 [ pos = "7.77917,3.20048!"]
156 [ pos = "9.15647,6.98386!"]
157 [ pos = "0.664693,3.80749!"]
158 [ pos = "7.02017,6.34083!"]
159 [ pos = "5.79516,5.24888!"]
160 [ pos = "0.704367,7.60033!"]
161 [ pos = "9.67071,8.44935!"]
162 [ pos = "1.88604,7.27287!"]
163 [ pos = "6.72994,4.14258!"]
164 [ pos = "0.638447,3.98877!"]
165 [ pos = "7.05985,3.75652!"]
166 [ pos = "5.8385,8.64315!"]
167 [ pos = "2.31452,4.74258!"]
168 [ pos = "8.67,0.565813!"]
169 [ pos = "1.48259,2.931!"]
170 [ pos = "7.49229,2.41096!"]
171 [ pos = "5.72863,1.70507!"]
172 [ pos = "7.20634,1.86102!"]
173 [ pos = "0.249947,1.7127!"]
174 [ pos = "1.58055,2.26478!"]
175 [ pos = "7.10074,6.72842!"]
176 [ pos = "4.05713,3.15226!"]
177 [ pos = "2.5779,2.39113!"]
178 [ pos = "2.56539,1.53203!"]
179 [ pos = "2.23426,6.12781!"]
180 [ pos = "8.12494,2.14179!"]
181 [ pos = "2.14881,9.86877!"]
182 [ pos = "6.70675,5.72466!"]
183 [ pos = "2.99142,3.43394!"]
184 [ pos = "0.27253,5.10147!"]
185 [ pos = "9.93072,6.96158!"]
186 [ pos = "7.27653,5.64745!"]
187 [ pos = "2.77505,6.69454!"]
188 [ pos = "6.5566,5.92853!"]
189 [ pos = "3.18094,1.12918!"]
190 [ pos = "2.60353,2.01025!"]
191 [ pos = "5.54613,5.1735!"]
192 [ pos = "6.00696,1.55156!"]
193 [ pos = "1.58574,9.81262!"]
194 [ pos = "1.64037,7.48405!"]
195 [ pos = "1.81402,5.13108!"]
196 [ pos = "0.148015,2.11737!"]
197 [ pos = "6.46229,6.57613!"]
198 [ pos = "6.7336,7.13279!"]
199 [ pos = "0.0366222,9.37254!"]
200 [ pos = "6.44612,9.4055!"]
201 [ pos = "3.96374,5.2382!"]
202 [ pos = "8.29157,3.16385!"]
203 [ pos = "6.86819,0.255135!"]
204 [ pos = "2.86569,1.89673!"]
205 [ pos = "8.23023,4.17585!"]
206 [ pos = "1.03305,4.93149!"]
207 [ pos = "4.69131,0.839869!"]
208 [ pos = "5.7329,9.9469!"]
209 [ pos = "5.41398,7.99341!"]
210 [ pos = "6.50563,0.13245!"]
211 [ pos = "9.87396,3.87371!"]
212 [ pos = "8.081,9.4879!"]
213 [ pos = "4.52376,8.74233!"]
214 [ pos = "1.56072,8.12952!"]
215 [ pos = "0.184637,3.29264!"]
216 [ pos = "0.67629,7.70775!"]
217 [ pos = "6.02161,3.8786!"]
218 [ pos = "7.47368,1.34068!"]
219 [ pos = "4.80575,7.93176!"]
220 [ pos = "2.90628,9.13724!"]
221 [ pos = "4.11206,3.14676!"]
222 [ pos = "9.39604,5.63646!"]
223 [ pos = "5.38194,2.12836!"]
224 [ pos = "5.7152,5.5855!"]
225 [ pos = "3.66039,1.57659!"]
226 [ pos = "0.82522,5.67217!"]
227 [ pos = "1.5421,2.91025!"]
228 [ pos = "3.78277,8.36024!"]
229 [ pos = "7.6751,0.780358!"]
230 [ pos = "2.78695,6.10553!"]
231 [ pos = "9.33012,8.44905!"]
232 [ pos = "9.12564,6.21021!"]
233 [ pos = "6.2981,5.7387!"]
234 [ pos = "2.40303,4.62477!"]
235 [ pos = "5.98346,7.4752!"]
236 [ pos = "3.31339,7.43095!"]
237 [ pos = "3.23252,9.26328!"]
238 [ pos = "0.550249,7.73644!"]
239 [ pos = "9.49919,4.33424!"]
240 [ pos = "0.484939,9.56206!"]
241 [ pos = "0.551469,1.31932!"]
242 [ pos = "3.28349,5.23911!"]
243 [ pos = "6.41896,9.3762!"]
244 [ pos = "8.352,5.1265!"]
245 [ pos = "7.82403,5.40544!"]
246 [ pos = "6.71804,4.33088!"]
247 [ pos = "6.27705,9.36491!"]
248 [ pos = "9.38108,6.83798!"]
249 [ pos = "6.49129,9.16349!"]
250 [ pos = "0.0540178,9.27946!"]
251 [ pos = "6.14399,7.59392!"]
252 [ pos = "9.33653,0.718711!"]
253 [ pos = "5.4384,1.42033!"]
254 [ pos = "6.43696,7.59728!"]
255 [ pos = "3.70861,8.39686!"]
256 [ pos = "5.374,0.568865!"]
257 [ pos = "8.69442,2.84127!"]
258 [ pos = "6.33351,8.66115!"]
259 [ pos = "2.32765,5.73962!"]
260 [ pos = "0.875576,2.21534!"]
261 [ pos = "1.19419,2.38258!"]
262 [ pos = "3.11686,5.70482!"]
263 [ pos = "6.49068,0.583209!"]
264 [ pos = "9.20621,0.987884!"]
265 [ pos = "3.55205,6.73544!"]
266 [ pos = "5.54674,7.1334!"]
267 [ pos = "1.12857,6.70278!"]
268 [ pos = "3.58623,0.852687!"]
269 [ pos = "1.76855,4.94095!"]
270 [ pos = "6.82882,8.08863!"]
271 [ pos = "3.21146,9.65026!"]
272 [ pos = "5.26444,8.6462!"]
273 [ pos = "2.82266,5.37523!"]
274 [ pos = "4.94797,8.20673!"]
275 [ pos = "9.0643,8.55037!"]
276 [ pos = "7.17826,1.83905!"]
277 [ pos = "2.07648,7.27836!"]
278 [ pos = "3.95367,6.50472!"]
279 [ pos = "5.84582,5.41704!"]
280 [ pos = "5.29008,3.28043!"]
281 [ pos = "3.43638,4.02509!"]
282 [ pos = "0.894192,9.33348!"]
283 [ pos = "0.625324,1.67425!"]
284 [ pos = "4.78927,1.34465!"]
285 [ pos = "8.20246,0.322275!"]
286 [ pos = "8.08039,2.33406!"]
287 [ pos = "5.49425,6.57308!"]
288 [ pos = "3.33995,8.93124!"]
289 [ pos = "3.55052,0.517594!"]
290 [ pos = "5.36912,2.3368!"]
291 [ pos = "2.14667,7.19077!"]
292 [ pos = "8.57295,9.74609!"]
293 [ pos = "6.57796,0.208441!"]
294 [ pos = "2.15491,0.137333!"]
295 [ pos = "4.37757,4.69832!"]
296 [ pos = "1.99774,5.30808!"]
297 [ pos = "4.85366,8.34223!"]
298 [ pos = "3.7553,0.0912503!"]
299 [ pos = "1.92083,6.58773!"]
300 [ pos = "6.5334,1.11606!"]
301 [ pos = "9.41191,1.98828!"]
302 [ pos = "1.87811,7.46086!"]
303 [ pos = "4.07788,9.53917!"]
304 [ pos = "9.83489,5.40941!"]
305 [ pos = "1.12064,0.978423!"]
306 [ pos = "3.85907,9.4528!"]
307 [ pos = "6.56697,2.62429!"]
308 [ pos = "0.611286,8.96878!"]
309 [ pos = "6.37104,4.59212!"]
310 [ pos = "0.354625,0.888394!"]
311 [ pos = "0.0311289,5.52904!"]
312 [ pos = "0.119938,9.38658!"]
313 [ pos = "3.01706,7.48436!"]
314 [ pos = "6.18274,0.43611!"]
315 [ pos = "3.64818,1.47923!"]
316 [ pos = "6.02069,8.24885!"]
317 [ pos = "2.50893,7.03818!"]
318 [ pos = "3.99121,8.35017!"]
319 [ pos = "2.26936,9.56572!"]
320 [ pos = "0.7828,4.66353!"]
321 [ pos = "9.15464,9.33042!"]
322 [ pos = "5.44908,1.648!"]
323 [ pos = "0.538041,6.14795!"]
324 [ pos = "1.83294,3.57585!"]
325 [ pos = "2.44606,5.89648!"]
326 [ pos = "9.64446,7.67266!"]
327 [ pos = "2.41249,0.0302133!"]
328 [ pos = "5.62304,2.30323!"]
329 [ pos = "3.39396,8.4872!"]
330 [ pos = "3.37413,1.96326!"]
331 [ pos = "9.53887,1.09226!"]
332 [ pos = "2.81594,3.73516!"]
333 [ pos = "0.798364,3.9967!"]
334 [ pos = "3.02011,1.38707!"]
335 [ pos = "6.91061,7.06503!"]
336 [ pos = "6.77084,9.62493!"]
337 [ pos = "8.40236,6.75954!"]
338 [ pos = "2.69051,8.45729!"]
339 [ pos = "9.24711,8.13929!"]
340 [ pos = "2.51625,2.42073!"]
341 [ pos = "8.85922,0.391247!"]
342 [ pos = "8.32179,7.78283!"]
343 [ pos = "6.53645,4.09284!"]
344 [ pos = "8.39961,9.0698!"]
345 [ pos = "5.45549,6.3744!"]
346 [ pos = "2.42134,0.583819!"]
347 [ pos = "2.172,3.62743!"]
348 [ pos = "7.59819,5.22752!"]
349 [ pos = "7.52586,1.56499!"]
350 [ pos = "9.14792,8.21131!"]
351 [ pos = "2.12775,0.59389!"]
352 [ pos = "1.68462,3.32072!"]
353 [ pos = "0.493484,1.81555!"]
354 [ pos = "4.40352,0.606098!"]
355 [ pos = "8.60286,6.80807!"]
356 [ pos = "3.42723,2.89224!"]
357 [ pos = "6.48244,3.8966!"]
358 [ pos = "0.641499,0.641194!"]
359 [ pos = "6.57888,6.12751!"]
360 [ pos = "1.01688,6.6686!"]
361 [ pos = "6.42659,2.90902!"]
362 [ pos = "1.06082,0.275887!"]
363 [ pos = "6.72475,9.49187!"]
364 [ pos = "0.908231,0.787988!"]
365 [ pos = "9.62767,7.36991!"]
366 [ pos = "2.88888,9.46532!"]
367 [ pos = "3.08329,5.60442!"]
368 [ pos = "1.46153,2.62764!"]
369 [ pos = "1.68676,9.16135!"]
370 [ pos = "4.42824,3.76263!"]
371 [ pos = "8.98709,6.94723!"]
372 [ pos = "4.57045,4.66414!"]
373 [ pos = "6.75497,0.533158!"]
374 [ pos = "5.56627,1.54973!"]
375 [ pos = "9.62615,5.81347!"]
376 [ pos = "7.46971,7.80602!"]
377 [ pos = "5.03616,5.34165!"]
378 [ pos = "6.42415,6.83401!"]
379 [ pos = "4.7206,0.0497452!"]
380 [ pos = "1.90222,2.63955!"]
381 [ pos = "1.48228,6.71316!"]
382 [ pos = "3.84045,8.54579!"]
383 [ pos = "9.72503,3.19163!"]
384 [ pos = "2.83944,2.0191!"]
385 [ pos = "6.61885,8.3227!"]
386 [ pos = "0.374157,2.28492!"]
387 [ pos = "9.00449,8.68038!"]
388 [ pos = "3.93872,3.44493!"]
389 [ pos = "5.43229,1.47252!"]
390 [ pos = "5.515,5.4384!"]
391 [ pos = "9.42381,2.85012!"]
392 [ pos = "1.92694,4.66048!"]
393 [ pos = "5.26719,5.16129!"]
394 [ pos = "3.78613,1.6184!"]
395 [ pos = "7.78222,6.37318!"]
396 [ pos = "7.09769,0.91464!"]
397 [ pos = "8.66024,1.32328!"]
398 [ pos = "9.43144,5.35417!"]
399 [ pos = "0.534074,8.8464!"]
400 [ pos = "2.1073,7.31651!"]
401 [ pos = "2.05542,2.43873!"]
402 [ pos = "2.37068,2.97372!"]
403 [ pos = "9.23154,6.21418!"]
404 [ pos = "6.26362,4.72884!"]
405 [ pos = "6.33595,3.68694!"]
406 [ pos = "5.11399,0.615558!"]
407 [ pos = "0.127873,5.70727!"]
408 [ pos = "7.48466,2.63375!"]
409 [ pos = "0.105899,6.84469!"]
410 [ pos = "5.31724,5.30686!"]
411 [ pos = "1.37883,7.99036!"]
412 [ pos = "9.12595,7.40654!"]
413 [ pos = "1.6718,8.10511!"]
414 [ pos = "3.67229,0.0448622!"]
415 [ pos = "6.27888,1.20334!"]
416 [ pos = "3.85449,9.43846!"]
417 [ pos = "0.642109,7.01285!"]
418 [ pos = "1.81585,8.82076!"]
419 [ pos = "5.9685,6.58681!"]
420 [ pos = "1.76366,7.5457!"]
421 [ pos = "5.10392,8.69991!"]
422 [ pos = "9.94629,2.51961!"]
423 [ pos = "0.0549333,0.372326!"]
424 [ pos = "4.91348,4.09955!"]
425 [ pos = "5.29405,6.60787!"]
426 [ pos = "8.83206,1.64281!"]
427 [ pos = "8.57845,1.6364!"]
428 [ pos = "5.48204,9.31791!"]
429 [ pos = "9.72015,7.8872!"]
430 [ pos = "5.90655,6.77694!"]
431 [ pos = "3.76171,0.792261!"]
432 [ pos = "9.72137,8.15119!"]
433 [ pos = "4.65285,8.66054!"]
434 [ pos = "0.128178,2.75826!"]
435 [ pos = "4.98795,8.41823!"]
436 [ pos = "4.89761,8.20917!"]
437 [ pos = "2.94076,1.33488!"]
438 [ pos = "5.30198,7.46757!"]
439 [ pos = "5.43199,9.10428!"]
440 [ pos = "1.41057,2.15461!"]
441 [ pos = "3.07535,1.1539!"]
442 [ pos = "6.53981,1.18625!"]
443 [ pos = "3.79528,0.00457778!"]
444 [ pos = "7.27439,3.01187!"]
445 [ pos = "4.44868,4.17554!"]
446 [ pos = "9.55901,7.46208!"]
447 [ pos = "9.57091,8.78719!"]
448 [ pos = "7.14896,5.81927!"]
449 [ pos = "9.73968,3.86059!"]
450 [ pos = "7.49565,1.41148!"]
451 [ pos = "5.28428,0.661031!"]
452 [ pos = "3.11075,4.06873!"]
453 [ pos = "0.367443,8.46675!"]
454 [ pos = "4.92843,6.40461!"]
455 [ pos = "4.14502,9.17997!"]
456 [ pos = "9.34874,4.36811!"]
457 [ pos = "5.94867,6.42598!"]
458 [ pos = "3.79406,5.06363!"]
459 [ pos = "6.54225,0.494095!"]
460 [ pos = "7.97418,7.76238!"]
461 [ pos = "3.69304,1.90161!"]
462 [ pos = "0.886258,5.51744!"]
463 [ pos = "3.82855,5.7561!"]
464 [ pos = "8.12922,1.15452!"]
465 [ pos = "8.68496,7.70623!"]
466 [ pos = "1.62481,8.8464!"]
467 [ pos = "2.82571,1.34983!"]
468 [ pos = "5.58733,7.25974!"]
469 [ pos = "0.971709,7.77093!"]
470 [ pos = "9.78027,8.65596!"]
471 [ pos = "9.49126,1.64617!"]
472 [ pos = "5.0264,6.53188!"]
473 [ pos = "0.415662,6.35365!"]
474 [ pos = "7.84326,8.71761!"]
475 [ pos = "5.1796,3.96191!"]
476 [ pos = "2.16559,9.50285!"]
477 [ pos = "5.23057,6.17267!"]
478 [ pos = "7.7282,9.61333!"]
479 [ pos = "3.9433,0.412305!"]
480 [ pos = "7.95495,2.9667!"]
481 [ pos = "5.14847,2.65267!"]
482 [ pos = "6.49281,0.319529!"]
483 [ pos = "4.3028,6.3509!"]
484 [ pos = "2.00049,8.4518!"]
485 [ pos = "5.15702,6.47389!"]
486 [ pos = "6.76809,5.67461!"]
487 [ pos = "3.92712,0.0704978!"]
488 [ pos = "7.41783,6.41041!"]
489 [ pos = "0.733665,1.60558!"]
490 [ pos = "6.57979,5.65752!"]
491 [ pos = "0.665304,3.47118!"]
492 [ pos = "4.29731,4.57625!"]
493 [ pos = "0.528581,1.02084!"]
494 [ pos = "8.25526,7.42332!"]
495 [ pos = "8.35902,8.36421!"]
496 [ pos = "3.96924,3.91278!"]
497 [ pos = "7.42088,7.2692!"]
498 [ pos = "1.09561,6.03015!"]
499 [ pos = "0.877712,8.11213!"]
500 [ pos = "1.26041,0.599384!"]
501 [ pos = "3.89325,0.101932!"]
502 [ pos = "7.51091,4.79354!"]
503 [ pos = "2.82052,9.28861!"]
504 [ pos = "6.92343,7.49138!"]
505 [ pos = "2.66213,8.33918!"]
506 [ pos = "7.29148,1.20884!"]
507 [ pos = "0.305185,3.043!"]
508 [ pos = "7.43004,3.48735!"]
509 [ pos = "8.49727,8.15607!"]
510 [ pos = "9.72076,9.37651!"]
511 [ pos = "0.303049,0.862758!"]
512 [ pos = "4.31654,4.24726!"]
513 [ pos = "2.16926,4.98795!"]
514 [ pos = "8.19971,4.86801!"]
515 [ pos = "1.93701,4.4145!"]
516 [ pos = "0.266427,2.69326!"]
517 [ pos = "2.46712,1.23417!"]
518 [ pos = "7.08365,2.97372!"]
519 [ pos = "8.19819,4.15571!"]
520 [ pos = "4.11847,2.73415!"]
521 [ pos = "7.2158,6.94937!"]
522 [ pos = "5.40971,6.26392!"]
523 [ pos = "1.50243,6.40522!"]
524 [ pos = "1.98828,4.6498!"]
525 [ pos = "9.23765,5.71184!"]
526 [ pos = "7.20969,2.40394!"]
527 [ pos = "1.53966,3.55571!"]
528 [ pos = "6.6921,5.57329!"]
529 [ pos = "8.19208,2.8547!"]
530 [ pos = "3.08969,8.16462!"]
531 [ pos = "8.83908,7.12058!"]
532 [ pos = "2.65633,3.50902!"]
533 [ pos = "4.2317,8.24824!"]
534 [ pos = "2.76864,0.555742!"]
535 [ pos = "2.49733,8.29737!"]
536 [ pos = "8.5052,8.32179!"]
537 [ pos = "4.41176,0.819117!"]
538 [ pos = "3.2609,1.03061!"]
539 [ pos = "5.50798,5.74206!"]
540 [ pos = "4.51033,8.13746!"]
541 [ pos = "7.79168,6.9985!"]
542 [ pos = "2.38929,3.69274!"]
543 [ pos = "6.11774,5.23331!"]
544 [ pos = "7.09128,4.59029!"]
545 [ pos = "0.1648,0.278024!"]
546 [ pos = "2.32063,3.4431!"]
547 [ pos = "8.6639,0.924406!"]
548 [ pos = "7.55516,5.35661!"]
549 [ pos = "4.35652,4.07361!"]
550 [ pos = "2.80618,5.0087!"]
551 [ pos = "2.31635,2.85836!"]
552 [ pos = "7.26066,7.40928!"]
553 [ pos = "7.02261,5.07126!"]
554 [ pos = "8.81649,8.78445!"]
555 [ pos = "1.16977,0.445265!"]
556 [ pos = "6.39668,9.4351!"]
557 [ pos = "7.89361,9.2523!"]
558 [ pos = "2.25898,4.4319!"]
559 [ pos = "4.12091,6.58193!"]
560 [ pos = "8.56105,6.84652!"]
561 [ pos = "2.39296,7.78069!"]
562 [ pos = "2.46742,8.16767!"]
563 [ pos = "7.96594,2.10273!"]
564 [ pos = "8.32728,7.83166!"]
565 [ pos = "3.57677,4.94064!"]
566 [ pos = "5.14176,4.68032!"]
567 [ pos = "2.16224,5.25285!"]
568 [ pos = "3.98816,3.87432!"]
569 [ pos = "4.32417,5.3151!"]
570 [ pos = "4.44075,9.61638!"]
571 [ pos = "8.68526,5.86444!"]
572 [ pos = "2.66182,3.18674!"]
573 [ pos = "5.71825,2.38472!"]
574 [ pos = "7.90002,3.56548!"]
575 [ pos = "5.41826,8.93155!"]
576 [ pos = "9.94842,0.487075!"]
577 [ pos = "2.5602,5.74725!"]
578 [ pos = "8.87356,3.49376!"]
579 [ pos = "6.5215,7.26463!"]
580 [ pos = "1.3245,1.56499!"]
581 [ pos = "1.94525,9.13053!"]
582 [ pos = "6.17969,2.54799!"]
583 [ pos = "8.20368,7.91467!"]
584 [ pos = "7.46696,6.068!"]
585 [ pos = "5.84582,6.39912!"]
586 [ pos = "5.6447,4.18348!"]
587 [ pos = "3.34696,2.05451!"]
588 [ pos = "0.683309,6.94754!"]
589 [ pos = "3.63262,7.73431!"]
590 [ pos = "3.2255,1.54118!"]
591 [ pos = "3.41411,3.00699!"]
592 [ pos = "4.65133,0.00549333!"]
593 [ pos = "5.4799,3.17698!"]
594 [ pos = "4.40199,8.01874!"]
595 [ pos = "1.07883,2.09998!"]
596 [ pos = "4.6379,1.97302!"]
597 [ pos = "2.58065,5.72436!"]
598 [ pos = "9.53001,9.96765!"]
599 [ pos = "2.01788,7.04703!"]
600 [ pos = "0.401013,0.562456!"]
601 [ pos = "5.12131,1.1597!"]
602 [ pos = "9.83276,7.46086!"]
603 [ pos = "9.29746,2.52907!"]
604 [ pos = "8.95291,4.93179!"]
605 [ pos = "3.94482,6.81326!"]
606 [ pos = "3.73058,4.0611!"]
607 [ pos = "8.79788,7.67785!"]
608 [ pos = "9.36949,9.99237!"]
609 [ pos = "6.84347,6.43208!"]
610 [ pos = "8.1869,1.53081!"]
611 [ pos = "9.11069,0.13184!"]
612 [ pos = "6.84591,3.00638!"]
613 [ pos = "5.41734,3.3552!"]
614 [ pos = "4.75997,0.423597!"]
615 [ pos = "4.34339,1.37242!"]
616 [ pos = "8.17225,5.90503!"]
617 [ pos = "3.43822,9.17234!"]
618 [ pos = "5.05295,2.48817!"]
619 [ pos = "3.27494,3.0079!"]
620 [ pos = "5.82354,1.76458!"]
621 [ pos = "2.65419,0.0607318!"]
622 [ pos = "5.24277,5.82995!"]
623 [ pos = "3.29386,8.70754!"]
624 [ pos = "2.85165,8.88607!"]
625 [ pos = "6.97195,7.98761!"]
626 [ pos = "4.37971,8.76064!"]
627 [ pos = "2.5602,1.46489!"]
628 [ pos = "5.76556,0.901517!"]
629 [ pos = "0.95706,8.95627!"]
630 [ pos = "6.1449,3.28013!"]
631 [ pos = "8.829,0.883816!"]
632 [ pos = "7.58568,6.3628!"]
633 [ pos = "3.58837,5.49944!"]
634 [ pos = "8.74996,4.12305!"]
635 [ pos = "8.36756,0.167547!"]
636 [ pos = "8.26319,6.23127!"]
637 [ pos = "3.20139,5.59282!"]
638 [ pos = "2.67129,4.30738!"]
639 [ pos = "3.41197,7.5045!"]
640 [ pos = "4.64888,2.72225!"]
641 [ pos = "4.56465,5.18174!"]
642 [ pos = "0.903043,3.12876!"]
643 [ pos = "1.5952,1.53569!"]
644 [ pos = "7.20267,7.92993!"]
645 [ pos = "4.01746,6.51112!"]
646 [ pos = "1.41575,7.52983!"]
647 [ pos = "5.78265,5.59313!"]
648 [ pos = "5.62426,5.67766!"]
649 [ pos = "3.61644,9.44334!"]
0--29;
0--110;
0--228;
0--236;
0--255;
0--288;
0--313;
0--318;
0--329;
0--338;
0--382;
0--505;
0--530;
0--535;
0--561;
0--562;
0--589;
0--623;
0--624;
0--639;
1--103;
1--129;
1--156;
1--222;
1--232;
1--248;
1--337;
1--355;
1--371;
1--375;
1--398;
1--403;
1--525;
1--560;
1--571;
1--616;
1--636;
2--4;
2--10;
2--50;
2--59;
2--66;
2--84;
2--113;
2--136;
2--138;
2--171;
2--192;
2--207;
2--223;
2--253;
2--256;
2--284;
2--290;
2--322;
2--328;
2--374;
2--389;
2--406;
2--451;
2--596;
2--601;
2--615;
2--620;
2--628;
3--18;
3--96;
3--114;
3--116;
3--134;
3--139;
3--163;
3--217;
3--246;
3--280;
3--309;
3--343;
3--357;
3--404;
3--405;
3--424;
3--475;
3--586;
3--593;
3--613;
3--630;
4--10;
4--50;
4--59;
4--66;
4--113;
4--171;
4--192;
4--223;
4--253;
4--284;
4--290;
4--322;
4--328;
4--374;
4--389;
4--481;
4--573;
4--596;
4--601;
4--615;
4--618;
4--620;
4--640;
5--42;
5--47;
5--71;
5--106;
5--109;
5--130;
5--265;
5--278;
5--454;
5--472;
5--483;
5--485;
5--559;
5--605;
5--645;
6--20;
6--36;
6--41;
6--54;
6--88;
6--169;
6--174;
6--227;
6--260;
6--261;
6--324;
6--352;
6--368;
6--380;
6--401;
6--402;
6--440;
6--527;
6--551;
6--595;
6--642;
7--22;
7--76;
7--85;
7--90;
7--92;
7--95;
7--112;
7--150;
7--166;
7--200;
7--243;
7--247;
7--249;
7--258;
7--270;
7--316;
7--336;
7--363;
7--385;
7--428;
7--439;
7--556;
7--575;
8--58;
8--70;
8--72;
8--75;
8--104;
8--120;
8--167;
8--195;
8--234;
8--242;
8--259;
8--262;
8--273;
8--296;
8--325;
8--367;
8--392;
8--452;
8--458;
8--513;
8--524;
8--550;
8--558;
8--565;
8--567;
8--577;
8--597;
8--633;
8--637;
8--638;
9--84;
9--127;
9--132;
9--138;
9--154;
9--189;
9--207;
9--268;
9--289;
9--298;
9--315;
9--354;
9--379;
9--414;
9--431;
9--443;
9--479;
9--487;
9--501;
9--537;
9--538;
9--592;
9--614;
9--615;
10--50;
10--59;
10--66;
10--113;
10--138;
10--171;
10--207;
10--223;
10--253;
10--284;
10--290;
10--322;
10--328;
10--374;
10--389;
10--481;
10--596;
10--601;
10--615;
10--618;
10--620;
10--640;
11--15;
11--62;
11--91;
11--114;
11--118;
11--124;
11--128;
11--134;
11--137;
11--163;
11--165;
11--246;
11--309;
11--343;
11--357;
11--405;
11--502;
11--508;
11--544;
11--574;
12--32;
12--39;
12--63;
12--143;
12--145;
12--152;
12--181;
12--193;
12--240;
12--282;
12--319;
12--369;
12--476;
12--581;
12--629;
13--14;
13--74;
13--82;
13--99;
13--115;
13--122;
13--131;
13--141;
13--162;
13--179;
13--187;
13--194;
13--230;
13--277;
13--291;
13--299;
13--302;
13--317;
13--325;
13--381;
13--400;
13--420;
13--523;
13--561;
13--599;
14--70;
14--74;
14--99;
14--115;
14--179;
14--187;
14--230;
14--242;
14--259;
14--262;
14--273;
14--325;
14--367;
14--567;
14--577;
14--597;
14--633;
14--637;
15--65;
15--91;
15--118;
15--137;
15--155;
15--165;
15--202;
15--205;
15--408;
15--444;
15--480;
15--508;
15--518;
15--519;
15--529;
15--574;
15--612;
16--19;
16--44;
16--45;
16--85;
16--92;
16--95;
16--98;
16--150;
16--166;
16--209;
16--219;
16--235;
16--251;
16--272;
16--274;
16--297;
16--316;
16--421;
16--433;
16--435;
16--436;
16--438;
16--439;
16--468;
16--540;
16--575;
17--24;
17--53;
17--64;
17--89;
17--93;
17--123;
17--126;
17--170;
17--172;
17--180;
17--218;
17--286;
17--349;
17--397;
17--408;
17--426;
17--427;
17--450;
17--464;
17--529;
17--563;
17--610;
18--25;
18--50;
18--60;
18--105;
18--139;
18--217;
18--223;
18--280;
18--290;
18--328;
18--361;
18--405;
18--475;
18--481;
18--573;
18--582;
18--593;
18--613;
18--618;
18--630;
19--40;
19--44;
19--76;
19--92;
19--95;
19--98;
19--150;
19--166;
19--209;
19--213;
19--219;
19--272;
19--274;
19--297;
19--316;
19--421;
19--428;
19--433;
19--435;
19--436;
19--439;
19--533;
19--540;
19--575;
19--594;
19--626;
20--55;
20--68;
20--88;
20--174;
20--260;
20--261;
20--283;
20--305;
20--368;
20--380;
20--401;
20--440;
20--489;
20--580;
20--595;
20--643;
21--26;
21--27;
21--38;
21--90;
21--133;
21--212;
21--336;
21--344;
21--363;
21--474;
21--478;
21--557;
22--27;
22--38;
22--90;
22--112;
22--166;
22--200;
22--243;
22--247;
22--249;
22--258;
22--270;
22--316;
22--336;
22--363;
22--385;
22--556;
22--625;
23--61;
23--94;
23--146;
23--156;
23--185;
23--248;
23--326;
23--339;
23--350;
23--365;
23--371;
23--412;
23--429;
23--432;
23--446;
23--531;
23--602;
23--607;
24--53;
24--64;
24--89;
24--93;
24--170;
24--172;
24--180;
24--218;
24--229;
24--276;
24--286;
24--349;
24--397;
24--426;
24--427;
24--450;
24--464;
24--506;
24--563;
24--610;
25--50;
25--59;
25--60;
25--78;
25--101;
25--105;
25--171;
25--192;
25--223;
25--290;
25--307;
25--328;
25--361;
25--481;
25--573;
25--582;
25--593;
25--612;
25--620;
25--630;
26--67;
26--133;
26--212;
26--292;
26--344;
26--478;
26--557;
27--38;
27--87;
27--90;
27--133;
27--212;
27--249;
27--336;
27--363;
27--385;
27--474;
27--478;
27--557;
28--31;
28--49;
28--57;
28--79;
28--108;
28--140;
28--252;
28--264;
28--301;
28--331;
28--471;
28--576;
29--30;
29--56;
29--110;
29--214;
29--220;
29--319;
29--338;
29--366;
29--369;
29--413;
29--418;
29--466;
29--476;
29--484;
29--503;
29--505;
29--530;
29--535;
29--561;
29--562;
29--581;
29--623;
29--624;
30--56;
30--82;
30--110;
30--131;
30--162;
30--194;
30--214;
30--277;
30--291;
30--302;
30--400;
30--411;
30--413;
30--418;
30--420;
30--469;
30--484;
30--505;
30--535;
30--561;
30--562;
30--599;
30--646;
31--49;
31--79;
31--93;
31--108;
31--123;
31--140;
31--168;
31--252;
31--264;
31--301;
31--331;
31--341;
31--397;
31--426;
31--427;
31--471;
31--547;
31--576;
31--631;
32--39;
32--63;
32--143;
32--145;
32--152;
32--193;
32--240;
32--282;
33--35;
33--94;
33--111;
33--119;
33--161;
33--231;
33--275;
33--326;
33--339;
33--350;
33--387;
33--429;
33--432;
33--447;
33--470;
33--510;
34--80;
34--142;
34--160;
34--216;
34--238;
34--267;
34--323;
34--360;
34--409;
34--417;
34--473;
34--588;
35--67;
35--111;
35--119;
35--161;
35--231;
35--275;
35--321;
35--339;
35--344;
35--350;
35--387;
35--432;
35--447;
35--470;
35--510;
35--536;
35--554;
36--41;
36--54;
36--55;
36--68;
36--173;
36--174;
36--196;
36--241;
36--260;
36--261;
36--283;
36--353;
36--368;
36--386;
36--434;
36--440;
36--489;
36--507;
36--516;
36--595;
36--642;
37--96;
37--116;
37--191;
37--295;
37--370;
37--372;
37--377;
37--393;
37--410;
37--424;
37--445;
37--475;
37--492;
37--512;
37--549;
37--566;
37--569;
37--586;
37--641;
38--87;
38--90;
38--133;
38--212;
38--249;
38--270;
38--363;
38--385;
38--474;
38--478;
38--557;
38--625;
38--644;
39--52;
39--63;
39--81;
39--143;
39--145;
39--193;
39--199;
39--240;
39--250;
39--282;
39--308;
39--312;
39--369;
39--399;
39--466;
39--629;
40--44;
40--76;
40--95;
40--97;
40--98;
40--117;
40--150;
40--208;
40--213;
40--272;
40--421;
40--428;
40--433;
40--435;
40--439;
40--455;
40--570;
40--575;
40--626;
41--54;
41--157;
41--169;
41--174;
41--215;
41--227;
41--260;
41--261;
41--333;
41--352;
41--368;
41--386;
41--434;
41--440;
41--491;
41--507;
41--516;
41--527;
41--595;
41--642;
42--71;
42--106;
42--109;
42--236;
42--265;
42--278;
42--483;
42--559;
42--589;
42--605;
42--639;
42--645;
43--116;
43--176;
43--221;
43--280;
43--370;
43--388;
43--424;
43--445;
43--475;
43--481;
43--496;
43--512;
43--520;
43--549;
43--568;
43--593;
43--613;
43--640;
44--76;
44--92;
44--95;
44--98;
44--150;
44--166;
44--209;
44--213;
44--219;
44--272;
44--274;
44--297;
44--316;
44--421;
44--428;
44--433;
44--435;
44--436;
44--439;
44--533;
44--540;
44--575;
44--594;
44--626;
45--46;
45--100;
45--109;
45--130;
45--209;
45--235;
45--251;
45--254;
45--266;
45--287;
45--345;
45--378;
45--419;
45--425;
45--430;
45--438;
45--457;
45--468;
45--472;
45--485;
45--522;
45--585;
46--100;
46--135;
46--151;
46--158;
46--175;
46--197;
46--198;
46--235;
46--251;
46--254;
46--266;
46--335;
46--359;
46--378;
46--419;
46--430;
46--457;
46--468;
46--504;
46--521;
46--552;
46--579;
46--585;
46--609;
47--71;
47--106;
47--109;
47--278;
47--287;
47--345;
47--377;
47--425;
47--454;
47--472;
47--477;
47--483;
47--485;
47--522;
47--539;
47--559;
47--585;
47--622;
47--645;
47--648;
48--147;
48--151;
48--158;
48--175;
48--182;
48--186;
48--188;
48--245;
48--348;
48--359;
48--395;
48--448;
48--486;
48--488;
48--490;
48--528;
48--548;
48--553;
48--584;
48--609;
48--616;
48--632;
48--636;
49--79;
49--252;
49--264;
49--331;
49--341;
49--576;
49--611;
50--59;
50--66;
50--113;
50--171;
50--223;
50--253;
50--290;
50--322;
50--328;
50--374;
50--389;
50--481;
50--573;
50--593;
50--596;
50--618;
50--620;
50--640;
51--294;
51--305;
51--327;
51--346;
51--351;
51--358;
51--362;
51--364;
51--500;
51--555;
52--81;
52--199;
52--240;
52--250;
52--282;
52--308;
52--312;
53--65;
53--77;
53--108;
53--123;
53--126;
53--140;
53--180;
53--202;
53--257;
53--286;
53--301;
53--426;
53--427;
53--480;
53--529;
53--563;
53--603;
53--610;
54--169;
54--174;
54--196;
54--215;
54--227;
54--260;
54--261;
54--353;
54--368;
54--386;
54--434;
54--440;
54--491;
54--507;
54--516;
54--595;
54--642;
55--68;
55--88;
55--174;
55--241;
55--260;
55--261;
55--283;
55--305;
55--353;
55--368;
55--440;
55--489;
55--580;
55--595;
55--643;
56--63;
56--145;
56--152;
56--214;
56--220;
56--319;
56--338;
56--369;
56--413;
56--418;
56--466;
56--476;
56--484;
56--503;
56--505;
56--535;
56--562;
56--581;
56--624;
57--77;
57--102;
57--108;
57--123;
57--126;
57--140;
57--301;
57--383;
57--391;
57--422;
57--426;
57--471;
57--603;
58--75;
58--201;
58--242;
58--262;
58--273;
58--295;
58--367;
58--372;
58--458;
58--463;
58--492;
58--550;
58--565;
58--569;
58--633;
58--637;
58--641;
59--66;
59--78;
59--105;
59--136;
59--171;
59--192;
59--223;
59--253;
59--290;
59--322;
59--328;
59--374;
59--389;
59--481;
59--573;
59--582;
59--618;
59--620;
60--101;
60--105;
60--114;
60--139;
60--165;
60--217;
60--307;
60--357;
60--361;
60--405;
60--444;
60--508;
60--518;
60--526;
60--582;
60--612;
60--630;
61--103;
61--129;
61--146;
61--156;
61--185;
61--232;
61--248;
61--365;
61--371;
61--375;
61--403;
61--446;
61--602;
62--114;
62--118;
62--124;
62--128;
62--134;
62--139;
62--163;
62--165;
62--217;
62--246;
62--309;
62--343;
62--357;
62--404;
62--405;
62--502;
62--508;
62--544;
62--553;
63--143;
63--145;
63--152;
63--181;
63--193;
63--240;
63--282;
63--308;
63--319;
63--369;
63--418;
63--466;
63--476;
63--581;
63--629;
64--89;
64--93;
64--168;
64--218;
64--229;
64--285;
64--349;
64--396;
64--397;
64--427;
64--450;
64--464;
64--506;
64--547;
64--610;
64--631;
64--635;
65--91;
65--155;
65--170;
65--180;
65--202;
65--257;
65--286;
65--408;
65--444;
65--480;
65--508;
65--518;
65--526;
65--529;
65--563;
65--574;
65--612;
66--113;
66--171;
66--223;
66--253;
66--284;
66--290;
66--322;
66--328;
66--374;
66--389;
66--481;
66--573;
66--596;
66--618;
66--620;
66--640;
67--133;
67--212;
67--231;
67--275;
67--292;
67--321;
67--344;
67--350;
67--387;
67--447;
67--474;
67--495;
67--509;
67--536;
67--554;
67--557;
68--173;
68--196;
68--241;
68--260;
68--261;
68--283;
68--305;
68--310;
68--353;
68--364;
68--386;
68--440;
68--489;
68--493;
68--511;
68--580;
68--595;
68--643;
69--142;
69--153;
69--184;
69--206;
69--226;
69--311;
69--323;
69--407;
69--462;
69--473;
69--498;
70--72;
70--99;
70--167;
70--179;
70--195;
70--230;
70--234;
70--242;
70--259;
70--262;
70--273;
70--296;
70--325;
70--367;
70--513;
70--550;
70--567;
70--577;
70--597;
70--633;
70--637;
71--106;
71--109;
71--201;
71--265;
71--278;
71--454;
71--463;
71--483;
71--559;
71--569;
71--605;
71--633;
71--637;
71--645;
72--104;
72--167;
72--179;
72--195;
72--206;
72--234;
72--259;
72--269;
72--273;
72--296;
72--325;
72--392;
72--513;
72--515;
72--524;
72--550;
72--558;
72--567;
72--577;
72--597;
73--220;
73--237;
73--255;
73--271;
73--288;
73--303;
73--306;
73--329;
73--366;
73--382;
73--416;
73--455;
73--503;
73--617;
73--623;
73--624;
73--649;
74--82;
74--99;
74--115;
74--122;
74--141;
74--162;
74--179;
74--187;
74--194;
74--230;
74--236;
74--277;
74--291;
74--299;
74--302;
74--313;
74--317;
74--381;
74--400;
74--420;
74--561;
74--599;
75--107;
75--120;
75--167;
75--183;
75--234;
75--242;
75--281;
75--332;
75--452;
75--458;
75--532;
75--542;
75--550;
75--558;
75--565;
75--606;
75--638;
76--95;
76--97;
76--112;
76--117;
76--150;
76--166;
76--200;
76--208;
76--243;
76--247;
76--249;
76--258;
76--272;
76--363;
76--421;
76--428;
76--439;
76--556;
76--575;
77--102;
77--123;
77--126;
77--257;
77--301;
77--383;
77--391;
77--422;
77--471;
77--578;
77--603;
78--101;
78--105;
78--136;
78--171;
78--172;
78--192;
78--223;
78--276;
78--300;
78--307;
78--322;
78--328;
78--361;
78--374;
78--415;
78--442;
78--526;
78--573;
78--582;
78--620;
79--93;
79--108;
79--140;
79--168;
79--252;
79--264;
79--331;
79--341;
79--397;
79--426;
79--427;
79--471;
79--547;
79--576;
79--611;
79--631;
80--142;
80--267;
80--323;
80--360;
80--407;
80--409;
80--417;
80--473;
80--588;
81--145;
81--199;
81--240;
81--250;
81--282;
81--308;
81--312;
81--399;
81--453;
81--629;
82--115;
82--122;
82--131;
82--141;
82--162;
82--187;
82--194;
82--267;
82--277;
82--291;
82--299;
82--302;
82--317;
82--381;
82--400;
82--413;
82--420;
82--523;
82--561;
82--599;
82--646;
83--303;
83--306;
83--416;
83--455;
83--570;
83--649;
84--86;
84--113;
84--127;
84--138;
84--207;
84--256;
84--284;
84--354;
84--379;
84--406;
84--451;
84--479;
84--537;
84--592;
84--601;
84--614;
84--628;
85--92;
85--166;
85--198;
85--209;
85--235;
85--251;
85--254;
85--258;
85--270;
85--316;
85--385;
85--468;
85--504;
85--579;
85--625;
85--644;
86--136;
86--203;
86--210;
86--256;
86--263;
86--293;
86--300;
86--314;
86--373;
86--406;
86--415;
86--442;
86--451;
86--459;
86--482;
86--628;
87--270;
87--342;
87--376;
87--385;
87--460;
87--474;
87--495;
87--497;
87--504;
87--552;
87--564;
87--583;
87--625;
87--644;
88--121;
88--174;
88--177;
88--178;
88--190;
88--204;
88--261;
88--340;
88--368;
88--380;
88--384;
88--401;
88--440;
88--517;
88--551;
88--580;
88--595;
88--627;
88--643;
89--93;
89--170;
89--172;
89--180;
89--218;
89--229;
89--276;
89--286;
89--349;
89--397;
89--426;
89--427;
89--450;
89--464;
89--506;
89--547;
89--563;
89--610;
90--112;
90--200;
90--243;
90--247;
90--249;
90--258;
90--336;
90--363;
90--385;
90--478;
90--556;
90--557;
91--118;
91--155;
91--165;
91--170;
91--202;
91--408;
91--444;
91--480;
91--508;
91--518;
91--526;
91--529;
91--574;
91--612;
92--95;
92--150;
92--166;
92--209;
92--219;
92--235;
92--251;
92--254;
92--258;
92--272;
92--274;
92--297;
92--316;
92--385;
92--421;
92--435;
92--436;
92--438;
92--439;
92--575;
93--140;
93--168;
93--218;
93--229;
93--264;
93--285;
93--341;
93--349;
93--397;
93--426;
93--427;
93--450;
93--464;
93--506;
93--547;
93--610;
93--631;
93--635;
94--111;
94--146;
94--156;
94--161;
94--185;
94--231;
94--248;
94--326;
94--339;
94--350;
94--365;
94--412;
94--429;
94--432;
94--446;
94--470;
94--602;
95--97;
95--112;
95--150;
95--166;
95--200;
95--209;
95--243;
95--247;
95--249;
95--258;
95--272;
95--316;
95--421;
95--428;
95--435;
95--439;
95--556;
95--575;
96--116;
96--191;
96--217;
96--295;
96--370;
96--372;
96--393;
96--424;
96--445;
96--475;
96--492;
96--512;
96--549;
96--566;
96--586;
96--613;
97--112;
97--117;
97--150;
97--208;
97--247;
97--272;
97--421;
97--428;
97--439;
97--556;
97--570;
97--575;
98--213;
98--219;
98--228;
98--272;
98--274;
98--297;
98--303;
98--318;
98--382;
98--421;
98--428;
98--433;
98--435;
98--436;
98--439;
98--455;
98--533;
98--540;
98--570;
98--575;
98--594;
98--626;
99--115;
99--122;
99--179;
99--187;
99--230;
99--259;
99--262;
99--273;
99--296;
99--299;
99--317;
99--325;
99--367;
99--567;
99--577;
99--597;
99--637;
100--130;
100--135;
100--197;
100--235;
100--251;
100--266;
100--287;
100--345;
100--378;
100--419;
100--425;
100--430;
100--438;
100--454;
100--457;
100--468;
100--472;
100--477;
100--485;
100--522;
100--579;
100--585;
101--170;
101--172;
101--276;
101--307;
101--349;
101--361;
101--408;
101--444;
101--450;
101--518;
101--526;
101--563;
101--582;
101--612;
102--123;
102--126;
102--257;
102--301;
102--383;
102--391;
102--422;
102--578;
102--603;
103--129;
103--222;
103--232;
103--248;
103--304;
103--375;
103--398;
103--403;
103--525;
103--571;
103--636;
104--144;
104--167;
104--195;
104--206;
104--234;
104--269;
104--296;
104--324;
104--347;
104--392;
104--513;
104--515;
104--524;
104--558;
104--567;
104--638;
105--223;
105--280;
105--290;
105--307;
105--328;
105--361;
105--405;
105--481;
105--518;
105--573;
105--582;
105--593;
105--612;
105--613;
105--630;
106--109;
106--130;
106--219;
106--265;
106--278;
106--425;
106--438;
106--454;
106--472;
106--483;
106--485;
106--559;
106--605;
106--645;
107--120;
107--183;
107--234;
107--281;
107--332;
107--347;
107--452;
107--496;
107--532;
107--542;
107--546;
107--558;
107--572;
107--591;
107--606;
107--619;
107--638;
108--123;
108--126;
108--140;
108--252;
108--264;
108--301;
108--331;
108--397;
108--426;
108--427;
108--471;
108--547;
108--610;
108--631;
109--130;
109--266;
109--278;
109--287;
109--345;
109--425;
109--438;
109--454;
109--472;
109--477;
109--483;
109--485;
109--522;
109--559;
109--605;
109--645;
110--236;
110--277;
110--291;
110--302;
110--313;
110--317;
110--329;
110--338;
110--400;
110--413;
110--484;
110--505;
110--530;
110--535;
110--561;
110--562;
110--623;
110--624;
110--639;
111--119;
111--161;
111--231;
111--275;
111--321;
111--326;
111--339;
111--350;
111--387;
111--429;
111--432;
111--447;
111--470;
111--510;
111--554;
112--150;
112--166;
112--200;
112--208;
112--243;
112--247;
112--249;
112--258;
112--336;
112--363;
112--428;
112--439;
112--556;
112--575;
113--138;
113--154;
113--171;
113--207;
113--223;
113--253;
113--284;
113--322;
113--354;
113--374;
113--389;
113--406;
113--451;
113--537;
113--596;
113--601;
113--614;
113--615;
114--118;
114--128;
114--134;
114--139;
114--163;
114--165;
114--217;
114--246;
114--309;
114--343;
114--357;
114--361;
114--405;
114--508;
114--518;
114--544;
114--612;
114--630;
115--122;
115--141;
115--162;
115--179;
115--187;
115--230;
115--236;
115--265;
115--277;
115--291;
115--299;
115--313;
115--317;
115--325;
115--400;
115--599;
115--639;
116--139;
116--217;
116--280;
116--370;
116--372;
116--424;
116--445;
116--475;
116--512;
116--549;
116--566;
116--586;
116--593;
116--613;
117--150;
117--208;
117--428;
117--439;
117--570;
117--575;
118--124;
118--128;
118--137;
118--155;
118--163;
118--165;
118--205;
118--246;
118--343;
118--357;
118--444;
118--502;
118--508;
118--518;
118--519;
118--544;
118--574;
119--161;
119--231;
119--275;
119--321;
119--339;
119--350;
119--387;
119--429;
119--432;
119--447;
119--470;
119--510;
119--554;
120--167;
120--183;
120--234;
120--281;
120--332;
120--347;
120--452;
120--515;
120--524;
120--532;
120--542;
120--546;
120--550;
120--558;
120--572;
120--606;
120--638;
121--125;
121--177;
121--178;
121--183;
121--190;
121--204;
121--330;
121--340;
121--356;
121--380;
121--384;
121--401;
121--402;
121--551;
121--572;
121--587;
121--591;
121--619;
122--131;
122--141;
122--162;
122--179;
122--187;
122--194;
122--267;
122--277;
122--291;
122--299;
122--302;
122--317;
122--325;
122--381;
122--400;
122--420;
122--523;
122--599;
122--646;
123--126;
123--140;
123--180;
123--257;
123--301;
123--391;
123--397;
123--422;
123--426;
123--427;
123--471;
123--603;
124--128;
124--137;
124--147;
124--163;
124--186;
124--245;
124--246;
124--348;
124--502;
124--514;
124--544;
124--548;
124--553;
125--176;
125--204;
125--221;
125--225;
125--315;
125--330;
125--356;
125--384;
125--394;
125--461;
125--520;
125--587;
125--590;
125--591;
125--619;
126--140;
126--180;
126--257;
126--286;
126--301;
126--391;
126--426;
126--427;
126--471;
126--529;
126--563;
126--603;
127--132;
127--138;
127--207;
127--268;
127--289;
127--298;
127--354;
127--379;
127--406;
127--414;
127--431;
127--443;
127--479;
127--487;
127--501;
127--537;
127--592;
127--614;
127--615;
128--134;
128--137;
128--163;
128--165;
128--246;
128--309;
128--343;
128--348;
128--357;
128--404;
128--502;
128--544;
128--553;
129--156;
129--222;
129--232;
129--248;
129--337;
129--355;
129--371;
129--375;
129--398;
129--403;
129--525;
129--531;
129--560;
129--571;
129--636;
130--209;
130--219;
130--266;
130--274;
130--287;
130--425;
130--436;
130--438;
130--454;
130--468;
130--472;
130--485;
130--540;
130--594;
131--141;
131--142;
131--160;
131--162;
131--194;
131--267;
131--277;
131--291;
131--299;
131--302;
131--360;
131--381;
131--400;
131--411;
131--417;
131--420;
131--469;
131--523;
131--588;
131--599;
131--646;
132--138;
132--154;
132--189;
132--207;
132--225;
132--268;
132--289;
132--298;
132--315;
132--330;
132--334;
132--354;
132--394;
132--414;
132--431;
132--437;
132--441;
132--461;
132--467;
132--479;
132--487;
132--501;
132--537;
132--538;
132--590;
132--615;
133--212;
133--292;
133--344;
133--474;
133--478;
133--495;
133--536;
133--554;
133--557;
134--139;
134--159;
134--163;
134--191;
134--217;
134--246;
134--279;
134--309;
134--343;
134--357;
134--404;
134--405;
134--543;
134--544;
134--553;
134--586;
135--151;
135--158;
135--175;
135--182;
135--188;
135--197;
135--198;
135--224;
135--233;
135--287;
135--335;
135--345;
135--359;
135--378;
135--419;
135--430;
135--448;
135--457;
135--486;
135--488;
135--490;
135--528;
135--585;
135--609;
135--647;
135--648;
136--171;
136--192;
136--253;
136--263;
136--300;
136--314;
136--322;
136--373;
136--374;
136--389;
136--415;
136--442;
136--459;
136--601;
136--620;
136--628;
137--165;
137--205;
137--244;
137--348;
137--502;
137--508;
137--514;
137--519;
137--544;
137--574;
137--634;
138--154;
138--207;
138--253;
138--256;
138--284;
138--354;
138--389;
138--394;
138--406;
138--431;
138--451;
138--479;
138--537;
138--596;
138--601;
138--614;
138--615;
139--163;
139--165;
139--217;
139--246;
139--280;
139--309;
139--343;
139--357;
139--361;
139--404;
139--405;
139--475;
139--586;
139--593;
139--613;
139--630;
140--252;
140--264;
140--301;
140--331;
140--397;
140--426;
140--427;
140--471;
140--547;
140--610;
140--631;
141--162;
141--179;
141--187;
141--194;
141--267;
141--277;
141--291;
141--299;
141--302;
141--317;
141--360;
141--381;
141--400;
141--420;
141--523;
141--599;
141--646;
142--226;
142--267;
142--323;
142--360;
142--381;
142--407;
142--409;
142--417;
142--462;
142--473;
142--498;
142--523;
142--588;
143--145;
143--152;
143--181;
143--193;
143--282;
143--319;
143--369;
143--476;
143--581;
144--157;
144--164;
144--206;
144--269;
144--320;
144--324;
144--333;
144--347;
144--352;
144--392;
144--491;
144--515;
144--524;
144--527;
144--558;
145--152;
145--193;
145--240;
145--282;
145--308;
145--369;
145--399;
145--418;
145--466;
145--476;
145--581;
145--629;
146--156;
146--185;
146--248;
146--326;
146--365;
146--371;
146--412;
146--429;
146--446;
146--531;
146--602;
147--186;
147--244;
147--245;
147--348;
147--395;
147--448;
147--488;
147--502;
147--514;
147--548;
147--553;
147--571;
147--584;
147--616;
147--632;
147--636;
148--175;
148--337;
148--342;
148--355;
148--371;
148--395;
148--460;
148--488;
148--494;
148--497;
148--521;
148--531;
148--541;
148--552;
148--560;
148--564;
148--584;
148--616;
148--632;
148--636;
149--211;
149--239;
149--383;
149--449;
149--456;
149--634;
150--166;
150--200;
150--208;
150--243;
150--247;
150--249;
150--258;
150--272;
150--316;
150--421;
150--428;
150--435;
150--439;
150--556;
150--575;
151--158;
151--175;
151--182;
151--186;
151--188;
151--197;
151--198;
151--233;
151--335;
151--359;
151--378;
151--419;
151--430;
151--448;
151--457;
151--486;
151--488;
151--490;
151--521;
151--528;
151--579;
151--584;
151--585;
151--609;
151--632;
152--181;
152--193;
152--319;
152--366;
152--369;
152--476;
152--503;
152--581;
153--184;
153--206;
153--226;
153--311;
153--320;
153--407;
153--462;
154--189;
154--207;
154--225;
154--268;
154--284;
154--289;
154--315;
154--330;
154--334;
154--354;
154--394;
154--431;
154--437;
154--441;
154--461;
154--479;
154--537;
154--538;
154--587;
154--590;
154--596;
154--615;
155--165;
155--170;
155--202;
155--257;
155--286;
155--408;
155--444;
155--480;
155--508;
155--518;
155--526;
155--529;
155--574;
155--612;
156--185;
156--232;
156--248;
156--326;
156--337;
156--355;
156--365;
156--371;
156--403;
156--412;
156--446;
156--465;
156--531;
156--560;
156--602;
156--607;
157--164;
157--215;
157--320;
157--333;
157--491;
157--507;
157--527;
157--642;
158--175;
158--182;
158--186;
158--188;
158--197;
158--198;
158--233;
158--335;
158--359;
158--378;
158--395;
158--448;
158--486;
158--488;
158--490;
158--521;
158--528;
158--584;
158--609;
158--632;
159--191;
159--224;
159--233;
159--279;
159--309;
159--377;
159--390;
159--393;
159--404;
159--410;
159--490;
159--528;
159--539;
159--543;
159--566;
159--622;
159--647;
159--648;
160--194;
160--216;
160--238;
160--267;
160--360;
160--409;
160--411;
160--417;
160--453;
160--469;
160--499;
160--588;
160--646;
161--231;
161--275;
161--326;
161--339;
161--350;
161--387;
161--429;
161--432;
161--446;
161--447;
161--470;
161--510;
161--554;
162--194;
162--214;
162--267;
162--277;
162--291;
162--299;
162--302;
162--317;
162--381;
162--400;
162--411;
162--413;
162--420;
162--523;
162--561;
162--599;
162--646;
163--165;
163--217;
163--246;
163--309;
163--343;
163--357;
163--404;
163--405;
163--508;
163--544;
163--553;
164--215;
164--320;
164--333;
164--491;
164--527;
164--642;
165--246;
165--343;
165--357;
165--405;
165--444;
165--508;
165--518;
165--544;
165--574;
165--612;
166--200;
166--209;
166--243;
166--247;
166--249;
166--258;
166--272;
166--274;
166--316;
166--385;
166--421;
166--428;
166--435;
166--439;
166--556;
166--575;
167--195;
167--234;
167--259;
167--269;
167--273;
167--296;
167--392;
167--513;
167--515;
167--524;
167--550;
167--558;
167--567;
167--638;
168--252;
168--264;
168--285;
168--341;
168--397;
168--464;
168--547;
168--611;
168--631;
168--635;
169--174;
169--227;
169--260;
169--261;
169--324;
169--347;
169--352;
169--368;
169--380;
169--401;
169--402;
169--440;
169--491;
169--527;
169--546;
169--551;
169--595;
169--642;
170--172;
170--180;
170--276;
170--286;
170--307;
170--349;
170--408;
170--444;
170--450;
170--480;
170--518;
170--526;
170--529;
170--563;
170--612;
171--192;
171--223;
171--253;
171--290;
171--300;
171--322;
171--328;
171--374;
171--389;
171--415;
171--442;
171--573;
171--582;
171--601;
171--620;
171--628;
172--180;
172--218;
172--276;
172--286;
172--307;
172--349;
172--396;
172--408;
172--442;
172--450;
172--506;
172--526;
172--563;
173--196;
173--241;
173--260;
173--283;
173--310;
173--353;
173--386;
173--489;
173--493;
173--511;
173--516;
173--595;
174--227;
174--260;
174--261;
174--340;
174--368;
174--380;
174--401;
174--440;
174--551;
174--580;
174--595;
174--643;
175--188;
175--197;
175--198;
175--335;
175--359;
175--378;
175--395;
175--448;
175--488;
175--497;
175--504;
175--521;
175--541;
175--552;
175--579;
175--584;
175--609;
175--632;
176--221;
176--356;
176--370;
176--388;
176--496;
176--520;
176--549;
176--568;
176--591;
176--606;
176--619;
176--640;
177--178;
177--190;
177--204;
177--330;
177--340;
177--356;
177--380;
177--384;
177--401;
177--402;
177--551;
177--572;
177--587;
177--619;
177--627;
178--189;
178--190;
178--204;
178--330;
178--334;
178--340;
178--346;
178--384;
178--437;
178--441;
178--467;
178--517;
178--534;
178--538;
178--587;
178--590;
178--627;
178--643;
179--187;
179--230;
179--259;
179--262;
179--273;
179--296;
179--299;
179--317;
179--325;
179--367;
179--381;
179--523;
179--567;
179--577;
179--597;
179--599;
180--257;
180--276;
180--286;
180--349;
180--397;
180--408;
180--426;
180--427;
180--450;
180--464;
180--480;
180--526;
180--529;
180--563;
180--610;
181--193;
181--319;
181--366;
181--369;
181--476;
181--503;
181--581;
182--186;
182--188;
182--197;
182--233;
182--279;
182--359;
182--448;
182--486;
182--488;
182--490;
182--528;
182--543;
182--548;
182--553;
182--584;
182--609;
182--647;
183--281;
183--332;
183--347;
183--356;
183--388;
183--402;
183--452;
183--532;
183--542;
183--546;
183--551;
183--572;
183--591;
183--606;
183--619;
183--638;
184--206;
184--226;
184--311;
184--320;
184--407;
184--462;
185--248;
185--326;
185--365;
185--371;
185--412;
185--429;
185--446;
185--602;
186--188;
186--233;
186--245;
186--348;
186--359;
186--395;
186--448;
186--486;
186--488;
186--490;
186--502;
186--528;
186--548;
186--553;
186--584;
186--609;
186--616;
186--632;
187--230;
187--236;
187--265;
187--277;
187--291;
187--299;
187--313;
187--317;
187--325;
187--400;
187--577;
187--597;
187--599;
188--197;
188--224;
188--233;
188--279;
188--359;
188--378;
188--419;
188--448;
188--457;
188--486;
188--488;
188--490;
188--528;
188--543;
188--553;
188--584;
188--585;
188--609;
188--647;
188--648;
189--204;
189--225;
189--268;
189--289;
189--315;
189--330;
189--334;
189--346;
189--384;
189--394;
189--431;
189--437;
189--441;
189--461;
189--467;
189--517;
189--534;
189--538;
189--587;
189--590;
189--627;
190--204;
190--330;
190--334;
190--340;
190--380;
190--384;
190--401;
190--402;
190--437;
190--441;
190--467;
190--517;
190--551;
190--587;
190--590;
190--627;
191--224;
191--233;
191--279;
191--377;
191--390;
191--393;
191--404;
191--410;
191--539;
191--543;
191--566;
191--586;
191--622;
191--641;
191--647;
191--648;
192--223;
192--253;
192--300;
192--322;
192--328;
192--374;
192--389;
192--415;
192--442;
192--573;
192--601;
192--620;
192--628;
193--282;
193--319;
193--369;
193--466;
193--476;
193--581;
194--214;
194--216;
194--267;
194--277;
194--291;
194--299;
194--302;
194--317;
194--381;
194--400;
194--411;
194--413;
194--420;
194--469;
194--499;
194--561;
194--599;
194--646;
195--206;
195--234;
195--259;
195--269;
195--296;
195--325;
195--392;
195--513;
195--515;
195--524;
195--550;
195--558;
195--567;
195--577;
195--597;
196--241;
196--260;
196--283;
196--353;
196--386;
196--434;
196--489;
196--507;
196--516;
196--595;
197--198;
197--233;
197--287;
197--335;
197--359;
197--378;
197--419;
197--430;
197--457;
197--486;
197--488;
197--490;
197--521;
197--579;
197--585;
197--609;
198--235;
198--251;
198--254;
198--270;
198--335;
198--376;
198--378;
198--419;
198--430;
198--488;
198--497;
198--504;
198--521;
198--552;
198--579;
198--609;
198--625;
198--644;
199--240;
199--250;
199--282;
199--308;
199--312;
199--399;
199--453;
200--208;
200--243;
200--247;
200--249;
200--258;
200--336;
200--363;
200--428;
200--556;
201--242;
201--262;
201--295;
201--367;
201--372;
201--458;
201--463;
201--492;
201--565;
201--569;
201--633;
201--637;
201--641;
202--257;
202--286;
202--408;
202--480;
202--508;
202--519;
202--529;
202--574;
202--578;
203--210;
203--229;
203--263;
203--293;
203--300;
203--314;
203--373;
203--396;
203--442;
203--459;
203--482;
204--225;
204--315;
204--330;
204--334;
204--340;
204--384;
204--394;
204--401;
204--437;
204--441;
204--461;
204--467;
204--517;
204--538;
204--587;
204--590;
204--627;
205--244;
205--502;
205--514;
205--519;
205--574;
205--578;
205--634;
206--226;
206--269;
206--320;
206--333;
206--392;
206--462;
206--524;
207--253;
207--256;
207--284;
207--354;
207--379;
207--389;
207--406;
207--431;
207--451;
207--479;
207--537;
207--592;
207--601;
207--614;
207--615;
208--243;
208--247;
208--428;
208--439;
208--556;
209--219;
209--235;
209--251;
209--266;
209--272;
209--274;
209--297;
209--316;
209--421;
209--435;
209--436;
209--438;
209--468;
209--540;
209--575;
210--263;
210--293;
210--300;
210--314;
210--373;
210--396;
210--459;
210--482;
211--239;
211--383;
211--449;
211--456;
212--292;
212--344;
212--474;
212--478;
212--557;
213--219;
213--228;
213--255;
213--272;
213--274;
213--297;
213--303;
213--306;
213--318;
213--382;
213--416;
213--421;
213--433;
213--435;
213--436;
213--439;
213--455;
213--533;
213--540;
213--570;
213--575;
213--594;
213--626;
214--216;
214--277;
214--302;
214--400;
214--411;
214--413;
214--418;
214--420;
214--466;
214--469;
214--484;
214--499;
214--535;
214--561;
214--562;
214--646;
215--333;
215--434;
215--491;
215--507;
215--516;
215--642;
216--238;
216--411;
216--417;
216--453;
216--469;
216--499;
216--588;
216--646;
217--246;
217--280;
217--309;
217--343;
217--357;
217--404;
217--405;
217--475;
217--586;
217--593;
217--613;
217--630;
218--229;
218--276;
218--300;
218--349;
218--396;
218--442;
218--450;
218--464;
218--506;
218--563;
218--610;
219--272;
219--274;
219--297;
219--318;
219--421;
219--433;
219--435;
219--436;
219--438;
219--533;
219--540;
219--594;
219--626;
220--237;
220--271;
220--288;
220--319;
220--329;
220--338;
220--366;
220--416;
220--476;
220--503;
220--505;
220--530;
220--535;
220--581;
220--617;
220--623;
220--624;
220--649;
221--356;
221--370;
221--388;
221--496;
221--520;
221--549;
221--568;
221--591;
221--606;
221--619;
221--640;
222--232;
222--304;
222--375;
222--398;
222--403;
222--525;
222--571;
222--604;
223--253;
223--284;
223--290;
223--322;
223--328;
223--374;
223--389;
223--481;
223--573;
223--582;
223--596;
223--618;
223--620;
223--640;
224--233;
224--279;
224--345;
224--377;
224--390;
224--393;
224--410;
224--457;
224--477;
224--490;
224--522;
224--528;
224--539;
224--543;
224--585;
224--622;
224--647;
224--648;
225--268;
225--315;
225--330;
225--334;
225--384;
225--394;
225--431;
225--437;
225--441;
225--461;
225--467;
225--538;
225--587;
225--590;
225--615;
226--311;
226--323;
226--407;
226--462;
226--473;
226--498;
226--523;
227--260;
227--261;
227--324;
227--347;
227--352;
227--368;
227--380;
227--401;
227--402;
227--440;
227--527;
227--546;
227--551;
227--595;
227--642;
228--255;
228--288;
228--318;
228--329;
228--382;
228--433;
228--455;
228--530;
228--533;
228--540;
228--589;
228--594;
228--617;
228--623;
228--626;
228--639;
229--285;
229--349;
229--373;
229--396;
229--450;
229--464;
229--506;
229--547;
229--610;
229--635;
230--242;
230--259;
230--262;
230--265;
230--273;
230--299;
230--317;
230--325;
230--367;
230--577;
230--597;
230--637;
231--275;
231--321;
231--326;
231--339;
231--350;
231--387;
231--429;
231--432;
231--447;
231--465;
231--470;
231--495;
231--509;
231--536;
231--554;
231--607;
232--248;
232--337;
232--355;
232--371;
232--375;
232--398;
232--403;
232--525;
232--531;
232--560;
232--571;
232--636;
233--279;
233--359;
233--390;
233--419;
233--448;
233--457;
233--486;
233--490;
233--528;
233--539;
233--543;
233--553;
233--585;
233--609;
233--647;
233--648;
234--269;
234--273;
234--296;
234--332;
234--392;
234--452;
234--513;
234--515;
234--524;
234--542;
234--550;
234--558;
234--567;
234--638;
235--251;
235--254;
235--266;
235--316;
235--378;
235--419;
235--430;
235--438;
235--468;
235--504;
235--579;
236--265;
236--313;
236--317;
236--530;
236--561;
236--589;
236--605;
236--639;
237--255;
237--271;
237--288;
237--303;
237--306;
237--329;
237--338;
237--366;
237--382;
237--416;
237--455;
237--503;
237--617;
237--623;
237--624;
237--649;
238--409;
238--411;
238--417;
238--453;
238--469;
238--499;
238--588;
238--646;
239--449;
239--456;
239--604;
239--634;
240--250;
240--282;
240--308;
240--312;
240--399;
240--629;
241--260;
241--283;
241--305;
241--310;
241--353;
241--358;
241--364;
241--386;
241--489;
241--493;
241--511;
241--580;
241--595;
241--600;
242--262;
242--273;
242--367;
242--458;
242--463;
242--550;
242--565;
242--577;
242--597;
242--633;
242--637;
243--247;
243--249;
243--258;
243--336;
243--363;
243--428;
243--556;
244--245;
244--348;
244--502;
244--514;
244--519;
244--548;
244--571;
244--604;
244--616;
245--348;
245--395;
245--448;
245--502;
245--514;
245--548;
245--553;
245--571;
245--584;
245--616;
245--632;
245--636;
246--309;
246--343;
246--357;
246--404;
246--405;
246--502;
246--544;
246--553;
247--249;
247--258;
247--336;
247--363;
247--428;
247--439;
247--556;
247--575;
248--326;
248--337;
248--355;
248--365;
248--371;
248--403;
248--412;
248--446;
248--531;
248--560;
248--602;
249--258;
249--336;
249--363;
249--385;
249--556;
250--282;
250--308;
250--312;
250--399;
250--453;
250--629;
251--254;
251--266;
251--270;
251--316;
251--335;
251--378;
251--385;
251--430;
251--438;
251--468;
251--504;
251--579;
251--625;
252--264;
252--331;
252--341;
252--397;
252--471;
252--547;
252--576;
252--611;
252--631;
253--256;
253--284;
253--290;
253--322;
253--328;
253--374;
253--389;
253--406;
253--415;
253--451;
253--596;
253--601;
253--620;
253--628;
254--270;
254--316;
254--335;
254--378;
254--385;
254--430;
254--468;
254--504;
254--552;
254--579;
254--625;
254--644;
255--288;
255--318;
255--329;
255--382;
255--433;
255--455;
255--530;
255--533;
255--540;
255--589;
255--594;
255--617;
255--623;
255--624;
255--626;
255--639;
256--284;
256--314;
256--354;
256--374;
256--379;
256--389;
256--406;
256--451;
256--537;
256--592;
256--601;
256--614;
256--628;
257--286;
257--391;
257--480;
257--529;
257--578;
257--603;
258--270;
258--316;
258--363;
258--385;
258--556;
258--575;
258--625;
259--262;
259--269;
259--273;
259--296;
259--299;
259--325;
259--367;
259--513;
259--550;
259--567;
259--577;
259--597;
259--637;
260--261;
260--283;
260--353;
260--368;
260--386;
260--434;
260--440;
260--489;
260--516;
260--580;
260--595;
260--642;
260--643;
261--283;
261--353;
261--368;
261--380;
261--386;
261--401;
261--440;
261--489;
261--516;
261--580;
261--595;
261--642;
261--643;
262--273;
262--325;
262--367;
262--458;
262--463;
262--550;
262--565;
262--577;
262--597;
262--633;
262--637;
263--293;
263--300;
263--314;
263--373;
263--396;
263--415;
263--442;
263--459;
263--482;
263--628;
264--331;
264--341;
264--397;
264--426;
264--427;
264--471;
264--547;
264--576;
264--611;
264--631;
265--278;
265--313;
265--483;
265--559;
265--605;
265--639;
265--645;
266--287;
266--345;
266--378;
266--419;
266--425;
266--430;
266--438;
266--454;
266--457;
266--468;
266--472;
266--485;
266--522;
266--579;
266--585;
267--299;
267--323;
267--360;
267--381;
267--417;
267--473;
267--498;
267--523;
267--588;
267--599;
267--646;
268--289;
268--298;
268--315;
268--334;
268--354;
268--394;
268--414;
268--431;
268--437;
268--441;
268--443;
268--467;
268--479;
268--487;
268--501;
268--534;
268--537;
268--538;
268--590;
268--615;
269--296;
269--392;
269--513;
269--515;
269--524;
269--558;
269--567;
270--316;
270--376;
270--385;
270--504;
270--552;
270--579;
270--625;
270--644;
271--288;
271--303;
271--306;
271--319;
271--366;
271--416;
271--503;
271--617;
271--623;
271--624;
271--649;
272--274;
272--297;
272--316;
272--421;
272--428;
272--433;
272--435;
272--436;
272--439;
272--540;
272--575;
272--626;
273--296;
273--325;
273--367;
273--513;
273--550;
273--565;
273--567;
273--577;
273--597;
273--633;
273--637;
274--297;
274--318;
274--421;
274--433;
274--435;
274--436;
274--438;
274--533;
274--540;
274--575;
274--594;
274--626;
275--321;
275--339;
275--344;
275--350;
275--387;
275--429;
275--432;
275--447;
275--465;
275--470;
275--495;
275--509;
275--536;
275--554;
275--607;
276--300;
276--307;
276--349;
276--396;
276--408;
276--442;
276--450;
276--506;
276--526;
276--563;
277--291;
277--299;
277--302;
277--313;
277--317;
277--381;
277--400;
277--411;
277--413;
277--420;
277--561;
277--562;
277--599;
277--646;
278--454;
278--463;
278--483;
278--559;
278--605;
278--645;
279--309;
279--377;
279--390;
279--393;
279--404;
279--410;
279--477;
279--486;
279--490;
279--522;
279--528;
279--539;
279--543;
279--585;
279--622;
279--647;
279--648;
280--290;
280--370;
280--424;
280--475;
280--481;
280--573;
280--586;
280--593;
280--613;
280--618;
280--630;
280--640;
281--332;
281--388;
281--452;
281--496;
281--512;
281--532;
281--549;
281--565;
281--568;
281--606;
281--638;
282--308;
282--312;
282--369;
282--399;
282--466;
282--629;
283--305;
283--310;
283--353;
283--364;
283--386;
283--440;
283--489;
283--493;
283--511;
283--580;
283--595;
283--643;
284--322;
284--354;
284--374;
284--389;
284--406;
284--451;
284--537;
284--596;
284--601;
284--614;
284--615;
285--341;
285--464;
285--547;
285--611;
285--631;
285--635;
286--349;
286--408;
286--427;
286--480;
286--526;
286--529;
286--563;
286--610;
287--345;
287--378;
287--419;
287--425;
287--430;
287--438;
287--454;
287--457;
287--468;
287--472;
287--477;
287--485;
287--522;
287--539;
287--585;
287--622;
287--648;
288--303;
288--306;
288--318;
288--329;
288--338;
288--366;
288--382;
288--416;
288--455;
288--503;
288--505;
288--530;
288--617;
288--623;
288--624;
288--649;
289--298;
289--315;
289--354;
289--414;
289--431;
289--441;
289--443;
289--479;
289--487;
289--501;
289--534;
289--537;
289--538;
290--322;
290--328;
290--374;
290--389;
290--481;
290--573;
290--582;
290--593;
290--596;
290--618;
290--620;
290--640;
291--299;
291--302;
291--313;
291--317;
291--381;
291--400;
291--420;
291--561;
291--599;
291--646;
292--321;
292--344;
292--478;
292--554;
292--557;
292--598;
292--608;
293--300;
293--314;
293--373;
293--396;
293--442;
293--459;
293--482;
294--327;
294--346;
294--351;
294--534;
294--621;
295--370;
295--372;
295--377;
295--424;
295--445;
295--458;
295--492;
295--496;
295--512;
295--549;
295--565;
295--566;
295--568;
295--569;
295--606;
295--641;
296--325;
296--392;
296--513;
296--515;
296--524;
296--550;
296--558;
296--567;
296--577;
296--597;
297--318;
297--421;
297--433;
297--435;
297--436;
297--438;
297--439;
297--533;
297--540;
297--575;
297--594;
297--626;
298--354;
298--379;
298--414;
298--431;
298--443;
298--479;
298--487;
298--501;
298--537;
298--592;
299--302;
299--317;
299--325;
299--360;
299--381;
299--400;
299--420;
299--498;
299--523;
299--599;
300--314;
300--373;
300--396;
300--415;
300--442;
300--459;
300--482;
300--506;
300--620;
300--628;
301--331;
301--391;
301--422;
301--426;
301--427;
301--471;
301--603;
302--317;
302--381;
302--400;
302--411;
302--413;
302--420;
302--469;
302--484;
302--561;
302--562;
302--599;
302--646;
303--306;
303--416;
303--455;
303--570;
303--617;
303--626;
303--649;
304--375;
304--398;
304--525;
305--310;
305--358;
305--362;
305--364;
305--489;
305--493;
305--500;
305--511;
305--555;
305--580;
305--600;
305--643;
306--366;
306--382;
306--416;
306--455;
306--570;
306--617;
306--623;
306--626;
306--649;
307--328;
307--361;
307--408;
307--444;
307--518;
307--526;
307--573;
307--582;
307--612;
307--630;
308--312;
308--399;
308--453;
308--499;
308--629;
309--343;
309--357;
309--404;
309--405;
309--543;
309--544;
309--553;
309--586;
310--353;
310--358;
310--362;
310--364;
310--423;
310--489;
310--493;
310--500;
310--511;
310--545;
310--555;
310--600;
311--323;
311--407;
311--462;
311--473;
312--399;
312--453;
312--629;
313--317;
313--400;
313--505;
313--530;
313--535;
313--561;
313--562;
313--589;
313--639;
314--373;
314--415;
314--442;
314--451;
314--459;
314--482;
314--628;
315--330;
315--334;
315--384;
315--394;
315--431;
315--437;
315--441;
315--461;
315--467;
315--538;
315--587;
315--590;
315--615;
316--385;
316--575;
316--625;
317--400;
317--420;
317--561;
317--599;
318--329;
318--382;
318--433;
318--435;
318--436;
318--455;
318--530;
318--533;
318--540;
318--589;
318--594;
318--617;
318--623;
318--626;
319--366;
319--369;
319--418;
319--466;
319--476;
319--503;
319--581;
319--624;
320--333;
320--462;
321--344;
321--387;
321--447;
321--470;
321--510;
321--554;
321--598;
321--608;
322--328;
322--374;
322--389;
322--415;
322--573;
322--596;
322--601;
322--618;
322--620;
322--628;
323--360;
323--407;
323--409;
323--417;
323--462;
323--473;
323--498;
323--523;
323--588;
324--332;
324--347;
324--352;
324--380;
324--402;
324--515;
324--527;
324--532;
324--542;
324--546;
324--551;
324--558;
324--572;
325--367;
325--513;
325--550;
325--567;
325--577;
325--597;
325--637;
326--339;
326--350;
326--365;
326--371;
326--412;
326--429;
326--432;
326--446;
326--465;
326--470;
326--531;
326--602;
326--607;
327--346;
327--351;
327--534;
327--621;
328--374;
328--389;
328--481;
328--573;
328--582;
328--593;
328--618;
328--620;
329--338;
329--382;
329--503;
329--505;
329--530;
329--533;
329--535;
329--562;
329--589;
329--617;
329--623;
329--624;
329--639;
329--649;
330--334;
330--340;
330--356;
330--384;
330--394;
330--437;
330--441;
330--461;
330--467;
330--538;
330--587;
330--590;
330--627;
331--341;
331--397;
331--426;
331--471;
331--547;
331--576;
331--631;
332--347;
332--402;
332--452;
332--532;
332--542;
332--546;
332--558;
332--572;
332--591;
332--606;
332--619;
332--638;
333--491;
333--527;
333--642;
334--384;
334--394;
334--431;
334--437;
334--441;
334--461;
334--467;
334--517;
334--534;
334--538;
334--587;
334--590;
334--627;
335--359;
335--376;
335--378;
335--488;
335--497;
335--504;
335--521;
335--541;
335--552;
335--579;
335--609;
335--625;
335--632;
335--644;
336--363;
336--478;
336--556;
337--355;
337--371;
337--395;
337--403;
337--412;
337--465;
337--494;
337--531;
337--541;
337--560;
337--571;
337--607;
337--616;
337--632;
337--636;
338--418;
338--484;
338--503;
338--505;
338--530;
338--535;
338--561;
338--562;
338--623;
338--624;
339--342;
339--350;
339--365;
339--387;
339--412;
339--429;
339--432;
339--446;
339--447;
339--465;
339--470;
339--495;
339--509;
339--536;
339--554;
339--564;
339--602;
339--607;
340--380;
340--384;
340--401;
340--402;
340--551;
340--572;
340--587;
340--619;
340--627;
341--397;
341--547;
341--611;
341--631;
341--635;
342--350;
342--376;
342--412;
342--460;
342--465;
342--494;
342--495;
342--509;
342--531;
342--536;
342--541;
342--560;
342--564;
342--583;
342--607;
343--357;
343--404;
343--405;
343--544;
343--586;
343--630;
344--387;
344--474;
344--478;
344--495;
344--509;
344--536;
344--554;
344--557;
345--390;
345--419;
345--425;
345--430;
345--454;
345--457;
345--468;
345--472;
345--477;
345--485;
345--522;
345--539;
345--585;
345--622;
345--647;
345--648;
346--351;
346--437;
346--441;
346--467;
346--517;
346--534;
346--538;
346--621;
346--627;
347--352;
347--402;
347--515;
347--527;
347--532;
347--542;
347--546;
347--551;
347--558;
347--572;
347--638;
348--448;
348--486;
348--502;
348--514;
348--528;
348--544;
348--548;
348--553;
348--584;
348--616;
349--396;
349--450;
349--464;
349--506;
349--526;
349--563;
349--610;
350--365;
350--387;
350--412;
350--429;
350--432;
350--446;
350--447;
350--465;
350--470;
350--495;
350--509;
350--536;
350--554;
350--564;
350--583;
350--607;
351--500;
351--517;
351--534;
351--555;
351--621;
351--627;
352--368;
352--380;
352--401;
352--402;
352--527;
352--532;
352--542;
352--546;
352--551;
352--572;
352--642;
353--386;
353--440;
353--489;
353--493;
353--511;
353--516;
353--580;
353--595;
354--379;
354--406;
354--414;
354--431;
354--443;
354--451;
354--479;
354--487;
354--501;
354--537;
354--592;
354--601;
354--614;
354--615;
355--371;
355--395;
355--403;
355--412;
355--465;
355--494;
355--531;
355--541;
355--560;
355--571;
355--607;
355--636;
356--388;
356--520;
356--532;
356--572;
356--587;
356--591;
356--619;
357--361;
357--404;
357--405;
357--544;
357--586;
357--612;
357--630;
358--362;
358--364;
358--423;
358--489;
358--493;
358--500;
358--511;
358--545;
358--555;
358--600;
359--378;
359--419;
359--430;
359--448;
359--457;
359--486;
359--488;
359--490;
359--528;
359--584;
359--585;
359--609;
359--647;
360--381;
360--409;
360--417;
360--473;
360--498;
360--523;
360--588;
360--646;
361--405;
361--444;
361--518;
361--526;
361--573;
361--582;
361--593;
361--612;
361--630;
362--364;
362--493;
362--500;
362--511;
362--545;
362--555;
362--600;
363--556;
364--423;
364--489;
364--493;
364--500;
364--511;
364--545;
364--555;
364--580;
364--600;
365--371;
365--412;
365--429;
365--432;
365--446;
365--531;
365--602;
365--607;
366--416;
366--476;
366--503;
366--617;
366--623;
366--624;
366--649;
367--458;
367--463;
367--550;
367--565;
367--567;
367--577;
367--597;
367--633;
367--637;
368--380;
368--401;
368--402;
368--440;
368--527;
368--551;
368--595;
368--642;
369--418;
369--466;
369--476;
369--484;
369--581;
369--629;
370--372;
370--388;
370--424;
370--445;
370--475;
370--492;
370--496;
370--512;
370--549;
370--568;
370--606;
371--403;
371--412;
371--446;
371--465;
371--494;
371--531;
371--560;
371--602;
371--607;
372--377;
372--393;
372--410;
372--424;
372--445;
372--458;
372--475;
372--492;
372--496;
372--512;
372--549;
372--566;
372--568;
372--569;
372--641;
373--396;
373--415;
373--442;
373--459;
373--482;
373--506;
374--389;
374--415;
374--451;
374--573;
374--601;
374--620;
374--628;
375--398;
375--403;
375--525;
375--571;
376--385;
376--460;
376--474;
376--494;
376--497;
376--504;
376--521;
376--541;
376--552;
376--564;
376--583;
376--625;
376--644;
377--390;
377--393;
377--410;
377--477;
377--522;
377--539;
377--566;
377--569;
377--622;
377--641;
377--647;
377--648;
378--419;
378--430;
378--457;
378--468;
378--504;
378--521;
378--579;
378--585;
378--609;
379--406;
379--443;
379--451;
379--479;
379--487;
379--501;
379--537;
379--592;
379--614;
380--401;
380--402;
380--440;
380--527;
380--546;
380--551;
380--572;
380--595;
381--400;
381--417;
381--420;
381--498;
381--523;
381--588;
381--599;
381--646;
382--416;
382--433;
382--455;
382--530;
382--533;
382--540;
382--589;
382--594;
382--617;
382--623;
382--626;
382--649;
383--391;
383--422;
383--449;
383--578;
383--603;
384--401;
384--437;
384--441;
384--461;
384--467;
384--517;
384--551;
384--587;
384--590;
384--627;
385--504;
385--625;
385--644;
386--434;
386--489;
386--507;
386--516;
386--595;
386--642;
387--432;
387--447;
387--470;
387--495;
387--509;
387--510;
387--536;
387--554;
388--445;
388--496;
388--512;
388--520;
388--549;
388--568;
388--591;
388--606;
388--619;
389--406;
389--415;
389--451;
389--573;
389--596;
389--601;
389--620;
389--628;
390--393;
390--410;
390--477;
390--522;
390--539;
390--543;
390--566;
390--622;
390--641;
390--647;
390--648;
391--422;
391--578;
391--603;
392--513;
392--515;
392--524;
392--550;
392--558;
392--567;
392--638;
393--410;
393--539;
393--543;
393--566;
393--569;
393--622;
393--641;
393--647;
393--648;
394--431;
394--437;
394--441;
394--461;
394--467;
394--538;
394--587;
394--590;
394--596;
394--615;
395--448;
395--488;
395--497;
395--521;
395--541;
395--560;
395--584;
395--609;
395--616;
395--632;
395--636;
396--415;
396--442;
396--450;
396--459;
396--482;
396--506;
397--426;
397--427;
397--464;
397--471;
397--547;
397--610;
397--631;
398--403;
398--456;
398--525;
398--571;
398--604;
399--453;
399--499;
399--629;
400--411;
400--413;
400--420;
400--561;
400--562;
400--599;
400--646;
401--402;
401--440;
401--551;
401--572;
402--532;
402--542;
402--546;
402--551;
402--572;
402--619;
403--525;
403--531;
403--560;
403--571;
403--636;
404--490;
404--528;
404--543;
404--544;
404--553;
404--586;
404--647;
405--586;
405--593;
405--612;
405--613;
405--630;
406--451;
406--537;
406--592;
406--601;
406--614;
406--628;
407--462;
407--473;
408--444;
408--480;
408--508;
408--518;
408--526;
408--529;
408--563;
408--612;
409--417;
409--473;
409--588;
410--477;
410--522;
410--539;
410--543;
410--566;
410--569;
410--622;
410--641;
410--647;
410--648;
411--413;
411--418;
411--420;
411--466;
411--469;
411--484;
411--499;
411--646;
412--429;
412--432;
412--446;
412--465;
412--494;
412--509;
412--531;
412--560;
412--564;
412--602;
412--607;
413--418;
413--420;
413--466;
413--469;
413--484;
413--499;
413--535;
413--561;
413--562;
413--646;
414--431;
414--443;
414--479;
414--487;
414--501;
414--592;
415--442;
415--459;
415--482;
415--620;
415--628;
416--455;
416--570;
416--617;
416--623;
416--626;
416--649;
417--469;
417--473;
417--588;
417--646;
418--466;
418--476;
418--484;
418--505;
418--535;
418--562;
418--581;
418--629;
419--425;
419--430;
419--457;
419--468;
419--472;
419--477;
419--485;
419--522;
419--539;
419--579;
419--585;
419--609;
419--648;
420--469;
420--484;
420--561;
420--562;
420--599;
420--646;
421--428;
421--433;
421--435;
421--436;
421--439;
421--533;
421--540;
421--575;
421--594;
421--626;
422--471;
422--603;
423--493;
423--511;
423--545;
423--600;
424--445;
424--475;
424--492;
424--496;
424--512;
424--549;
424--566;
424--568;
424--586;
424--613;
425--430;
425--438;
425--454;
425--457;
425--468;
425--472;
425--477;
425--485;
425--522;
425--539;
425--585;
425--622;
425--648;
426--427;
426--464;
426--471;
426--547;
426--563;
426--610;
426--631;
427--464;
427--471;
427--547;
427--563;
427--610;
427--631;
428--439;
428--556;
428--575;
429--432;
429--446;
429--447;
429--470;
429--602;
429--607;
430--438;
430--457;
430--468;
430--472;
430--477;
430--485;
430--522;
430--579;
430--585;
430--609;
431--437;
431--441;
431--443;
431--479;
431--487;
431--501;
431--537;
431--538;
431--590;
431--615;
432--446;
432--447;
432--470;
432--602;
433--435;
433--436;
433--439;
433--455;
433--533;
433--540;
433--570;
433--575;
433--594;
433--626;
434--491;
434--507;
434--516;
434--642;
435--436;
435--439;
435--533;
435--540;
435--575;
435--594;
435--626;
436--438;
436--533;
436--540;
436--575;
436--594;
436--626;
437--441;
437--461;
437--467;
437--517;
437--534;
437--538;
437--587;
437--590;
437--627;
438--468;
438--472;
439--575;
440--489;
440--580;
440--595;
440--643;
441--461;
441--467;
441--517;
441--534;
441--538;
441--587;
441--590;
441--627;
442--450;
442--459;
442--482;
442--506;
442--620;
442--628;
443--479;
443--487;
443--501;
443--592;
444--480;
444--508;
444--518;
444--526;
444--529;
444--574;
444--612;
445--475;
445--492;
445--496;
445--512;
445--549;
445--566;
445--568;
445--606;
446--465;
446--531;
446--602;
446--607;
447--470;
447--510;
447--554;
448--486;
448--488;
448--490;
448--528;
448--548;
448--553;
448--584;
448--609;
448--632;
449--456;
449--578;
450--464;
450--506;
450--563;
450--610;
451--537;
451--592;
451--601;
451--614;
451--628;
452--496;
452--532;
452--542;
452--550;
452--558;
452--565;
452--568;
452--572;
452--606;
452--638;
453--469;
453--499;
453--629;
454--472;
454--477;
454--483;
454--485;
454--522;
454--539;
454--559;
454--585;
454--622;
454--645;
455--533;
455--570;
455--617;
455--623;
455--626;
455--649;
456--578;
456--604;
456--634;
457--468;
457--472;
457--477;
457--485;
457--490;
457--522;
457--539;
457--585;
457--609;
457--622;
457--647;
457--648;
458--463;
458--492;
458--512;
458--550;
458--565;
458--569;
458--633;
458--637;
458--641;
459--482;
459--628;
460--465;
460--474;
460--494;
460--495;
460--497;
460--509;
460--536;
460--541;
460--552;
460--564;
460--583;
460--607;
460--644;
461--520;
461--538;
461--587;
461--590;
461--596;
461--615;
462--473;
462--498;
463--483;
463--559;
463--565;
463--569;
463--633;
463--637;
463--641;
463--645;
464--506;
464--547;
464--563;
464--610;
464--631;
465--494;
465--495;
465--509;
465--531;
465--536;
465--560;
465--564;
465--583;
465--607;
466--476;
466--484;
466--581;
466--629;
467--517;
467--534;
467--538;
467--587;
467--590;
467--627;
468--472;
468--485;
468--579;
468--585;
469--499;
469--588;
469--646;
470--510;
470--554;
471--603;
472--477;
472--483;
472--485;
472--522;
472--539;
472--559;
472--585;
472--622;
473--498;
473--588;
474--478;
474--495;
474--509;
474--536;
474--554;
474--557;
474--583;
475--512;
475--549;
475--566;
475--586;
475--593;
475--613;
476--503;
476--581;
476--624;
477--483;
477--485;
477--522;
477--539;
477--585;
477--622;
477--647;
477--648;
478--557;
479--487;
479--501;
479--537;
479--538;
479--592;
479--614;
480--508;
480--518;
480--526;
480--529;
480--563;
480--574;
481--573;
481--593;
481--596;
481--613;
481--618;
481--640;
482--628;
483--485;
483--559;
483--605;
483--645;
484--505;
484--535;
484--561;
484--562;
484--581;
484--624;
485--522;
485--539;
485--585;
485--622;
485--648;
486--488;
486--490;
486--528;
486--543;
486--548;
486--553;
486--584;
486--609;
486--647;
487--501;
487--537;
487--592;
487--614;
488--497;
488--521;
488--541;
488--584;
488--609;
488--616;
488--632;
488--636;
489--493;
489--511;
489--580;
489--595;
489--643;
490--528;
490--543;
490--553;
490--584;
490--609;
490--647;
490--648;
491--507;
491--516;
491--527;
491--642;
492--496;
492--512;
492--549;
492--565;
492--566;
492--568;
492--569;
492--606;
492--641;
493--500;
493--511;
493--545;
493--555;
493--580;
493--600;
494--495;
494--497;
494--509;
494--531;
494--536;
494--541;
494--552;
494--560;
494--564;
494--583;
494--607;
495--509;
495--536;
495--554;
495--564;
495--583;
495--607;
496--512;
496--549;
496--568;
496--606;
497--504;
497--521;
497--541;
497--552;
497--579;
497--625;
497--632;
497--644;
498--523;
499--629;
499--646;
500--511;
500--555;
500--580;
500--600;
500--643;
501--537;
501--592;
501--614;
502--514;
502--519;
502--544;
502--548;
502--553;
503--505;
503--581;
503--617;
503--623;
503--624;
503--649;
504--521;
504--541;
504--552;
504--579;
504--625;
504--644;
505--530;
505--535;
505--561;
505--562;
505--623;
505--624;
506--610;
507--516;
507--642;
508--518;
508--529;
508--574;
508--612;
509--536;
509--554;
509--564;
509--583;
509--607;
510--598;
510--608;
511--545;
511--555;
511--600;
512--549;
512--566;
512--568;
512--606;
512--641;
513--515;
513--524;
513--550;
513--558;
513--567;
513--577;
513--597;
513--638;
514--519;
514--548;
514--604;
514--634;
515--524;
515--527;
515--542;
515--558;
515--567;
515--638;
516--642;
517--534;
517--538;
517--590;
517--627;
517--643;
518--526;
518--582;
518--612;
518--630;
519--574;
519--578;
519--634;
520--591;
520--596;
520--618;
520--619;
520--640;
521--541;
521--552;
521--579;
521--584;
521--609;
521--632;
521--644;
522--539;
522--585;
522--622;
522--647;
522--648;
523--588;
523--599;
524--550;
524--558;
524--567;
524--638;
525--571;
525--604;
526--563;
526--612;
527--542;
527--546;
527--642;
528--543;
528--548;
528--553;
528--584;
528--609;
528--647;
529--563;
529--574;
529--578;
530--535;
530--561;
530--562;
530--589;
530--623;
530--624;
530--639;
531--560;
531--564;
531--607;
532--542;
532--546;
532--551;
532--572;
532--591;
532--619;
532--638;
533--540;
533--589;
533--594;
533--626;
534--538;
534--621;
534--627;
535--561;
535--562;
535--581;
535--623;
535--624;
536--554;
536--564;
536--583;
536--607;
537--592;
537--601;
537--614;
537--615;
538--590;
538--627;
539--543;
539--585;
539--622;
539--647;
539--648;
540--589;
540--594;
540--626;
541--552;
541--560;
541--564;
541--584;
541--632;
541--636;
542--546;
542--551;
542--558;
542--572;
542--638;
543--553;
543--647;
543--648;
544--548;
544--553;
545--600;
546--551;
546--558;
546--572;
546--638;
547--610;
547--611;
547--631;
547--635;
548--553;
548--584;
548--616;
549--566;
549--568;
549--606;
550--558;
550--565;
550--567;
550--577;
550--597;
550--633;
550--637;
550--638;
551--572;
551--619;
552--579;
552--625;
552--644;
555--600;
558--567;
558--638;
559--605;
559--645;
560--571;
560--607;
560--636;
561--562;
561--599;
562--623;
562--624;
563--610;
564--583;
564--607;
565--569;
565--606;
565--633;
565--637;
566--586;
566--641;
567--577;
567--597;
568--606;
569--633;
569--641;
570--626;
570--649;
571--604;
571--616;
571--636;
572--591;
572--619;
573--582;
573--593;
573--618;
573--620;
573--630;
574--578;
576--611;
577--597;
577--637;
578--634;
579--609;
579--625;
579--644;
580--595;
580--643;
581--624;
582--593;
582--612;
582--620;
582--630;
583--607;
584--609;
584--616;
584--632;
584--636;
585--609;
585--622;
585--647;
585--648;
586--613;
587--590;
587--591;
587--619;
587--627;
588--646;
589--594;
589--605;
589--639;
590--627;
591--619;
592--614;
593--613;
593--618;
593--630;
593--640;
594--626;
595--643;
596--601;
596--615;
596--618;
596--640;
597--637;
598--608;
599--646;
601--614;
601--615;
601--620;
601--628;
604--634;
605--639;
605--645;
609--632;
610--631;
611--631;
611--635;
612--630;
613--618;
613--630;
613--640;
616--632;
616--636;
617--623;
617--624;
617--649;
618--640;
620--628;
622--641;
622--647;
622--648;
623--624;
623--649;
624--649;
625--644;
627--643;
631--635;
632--636;
633--637;
647--648;
}
