Graph D {
overlap = false;
0 [ pos = "3.10343,1.40721!"]
1 [ pos = "6.1919,9.20499!"]
2 [ pos = "6.18,0.521867!"]
3 [ pos = "3.99243,3.81756!"]
4 [ pos = "1.92358,6.98843!"]
5 [ pos = "9.52574,5.02731!"]
6 [ pos = "2.01483,9.94751!"]
7 [ pos = "0.99765,3.37168!"]
8 [ pos = "7.25761,8.34529!"]
9 [ pos = "8.97519,3.64422!"]
10 [ pos = "5.76067,8.21955!"]
11 [ pos = "4.99649,9.48302!"]
12 [ pos = "1.95532,4.05011!"]
13 [ pos = "4.92172,6.56514!"]
14 [ pos = "3.72326,9.83398!"]
15 [ pos = "2.88247,4.31532!"]
16 [ pos = "1.73925,5.07767!"]
17 [ pos = "7.65465,8.15088!"]
18 [ pos = "4.28785,3.43852!"]
19 [ pos = "5.95752,6.26514!"]
20 [ pos = "8.56441,8.46736!"]
21 [ pos = "7.81945,3.02194!"]
22 [ pos = "2.07282,3.12326!"]
23 [ pos = "9.02066,1.4359!"]
24 [ pos = "1.42399,8.65841!"]
25 [ pos = "5.94867,6.21723!"]
26 [ pos = "6.86911,5.34989!"]
27 [ pos = "0.260628,2.71798!"]
28 [ pos = "5.53453,3.69091!"]
29 [ pos = "5.76067,2.04505!"]
30 [ pos = "0.802026,1.21769!"]
31 [ pos = "9.13602,4.897!"]
32 [ pos = "5.83239,8.45668!"]
33 [ pos = "0.916471,2.56325!"]
34 [ pos = "2.15308,8.74844!"]
35 [ pos = "4.42824,9.23856!"]
36 [ pos = "5.72924,2.18665!"]
37 [ pos = "9.92187,1.62786!"]
38 [ pos = "9.28037,4.87503!"]
39 [ pos = "9.66308,5.98163!"]
40 [ pos = "7.05802,2.36854!"]
41 [ pos = "8.858,5.44053!"]
42 [ pos = "3.0723,1.82958!"]
43 [ pos = "8.07855,8.1814!"]
44 [ pos = "2.14423,2.27149!"]
45 [ pos = "6.63686,5.54247!"]
46 [ pos = "1.37577,7.60887!"]
47 [ pos = "4.33241,5.33464!"]
48 [ pos = "3.94971,4.27778!"]
49 [ pos = "2.45918,5.1854!"]
50 [ pos = "3.83435,5.21256!"]
51 [ pos = "5.13718,0.228889!"]
52 [ pos = "5.21378,6.19861!"]
53 [ pos = "0.170293,5.01785!"]
54 [ pos = "0.571917,0.336314!"]
55 [ pos = "6.00635,7.45415!"]
56 [ pos = "2.54067,2.7665!"]
57 [ pos = "9.19462,9.02707!"]
58 [ pos = "3.16507,2.21168!"]
59 [ pos = "6.30024,7.00644!"]
60 [ pos = "6.36372,9.494!"]
61 [ pos = "6.74215,6.67013!"]
62 [ pos = "1.33457,7.27622!"]
63 [ pos = "9.76531,1.43406!"]
64 [ pos = "2.72622,1.07639!"]
65 [ pos = "0.971404,2.13813!"]
66 [ pos = "3.80016,0.36256!"]
67 [ pos = "2.74239,9.95056!"]
68 [ pos = "7.81732,1.5421!"]
69 [ pos = "9.79827,6.68203!"]
70 [ pos = "6.72994,3.09824!"]
71 [ pos = "7.24387,7.95831!"]
72 [ pos = "1.19633,8.31935!"]
73 [ pos = "5.03189,4.944!"]
74 [ pos = "8.22779,4.19385!"]
75 [ pos = "1.07883,5.42467!"]
76 [ pos = "8.64986,7.42271!"]
77 [ pos = "6.53737,1.23203!"]
78 [ pos = "2.29041,1.32023!"]
79 [ pos = "2.21656,2.53822!"]
80 [ pos = "0.612506,1.93793!"]
81 [ pos = "6.09912,6.67257!"]
82 [ pos = "0.679342,9.25047!"]
83 [ pos = "9.57732,6.08905!"]
84 [ pos = "7.09281,0.995209!"]
85 [ pos = "5.68224,3.17606!"]
86 [ pos = "6.13392,3.95856!"]
87 [ pos = "7.4337,5.00992!"]
88 [ pos = "5.03983,1.4182!"]
89 [ pos = "9.77599,5.16282!"]
90 [ pos = "5.37492,7.36778!"]
91 [ pos = "5.61663,8.51527!"]
92 [ pos = "9.08933,9.23673!"]
93 [ pos = "6.50349,4.97421!"]
94 [ pos = "5.32853,2.42409!"]
95 [ pos = "2.70669,5.27329!"]
96 [ pos = "1.62511,3.249!"]
97 [ pos = "7.19413,2.91726!"]
98 [ pos = "1.01108,3.19529!"]
99 [ pos = "4.40107,7.05435!"]
100 [ pos = "3.09732,7.82495!"]
101 [ pos = "9.09421,7.87286!"]
102 [ pos = "8.51161,9.67284!"]
103 [ pos = "4.24574,5.2852!"]
104 [ pos = "8.52779,7.13248!"]
105 [ pos = "0.913114,9.40855!"]
106 [ pos = "1.50731,1.96966!"]
107 [ pos = "8.91781,3.95428!"]
108 [ pos = "1.14689,7.97754!"]
109 [ pos = "5.89099,7.33299!"]
110 [ pos = "4.756,3.6024!"]
111 [ pos = "5.244,7.30155!"]
112 [ pos = "9.09818,3.44615!"]
113 [ pos = "2.06702,9.63134!"]
114 [ pos = "2.99448,8.53816!"]
115 [ pos = "1.14933,5.72771!"]
116 [ pos = "6.14216,4.53505!"]
117 [ pos = "4.4499,4.71084!"]
118 [ pos = "8.68801,1.70263!"]
119 [ pos = "7.71447,8.3694!"]
120 [ pos = "2.30781,1.95471!"]
121 [ pos = "8.764,8.90957!"]
122 [ pos = "7.06046,7.63146!"]
123 [ pos = "4.53566,5.76708!"]
124 [ pos = "5.41734,5.29984!"]
125 [ pos = "1.46886,5.18693!"]
126 [ pos = "1.85308,6.95212!"]
127 [ pos = "5.57512,1.06967!"]
128 [ pos = "9.43083,1.76824!"]
129 [ pos = "5.73443,3.95093!"]
130 [ pos = "0.23896,5.38804!"]
131 [ pos = "7.68303,3.2136!"]
132 [ pos = "0.541704,1.61901!"]
133 [ pos = "8.06055,1.94586!"]
134 [ pos = "0.335398,4.9675!"]
135 [ pos = "8.98648,0.508744!"]
136 [ pos = "6.96982,2.55531!"]
137 [ pos = "5.22965,0.149236!"]
138 [ pos = "9.75494,2.12775!"]
139 [ pos = "9.32646,8.07489!"]
140 [ pos = "3.37352,0.222175!"]
141 [ pos = "6.27674,6.60604!"]
142 [ pos = "8.62331,2.40181!"]
143 [ pos = "9.9353,7.56096!"]
144 [ pos = "5.83941,7.00339!"]
145 [ pos = "9.1699,5.14267!"]
146 [ pos = "5.51378,6.3744!"]
147 [ pos = "4.53902,2.5895!"]
148 [ pos = "8.36543,6.30757!"]
149 [ pos = "6.88131,5.89953!"]
150 [ pos = "9.72564,6.59322!"]
151 [ pos = "9.07254,8.35994!"]
152 [ pos = "6.79373,4.52956!"]
153 [ pos = "2.54341,8.61476!"]
154 [ pos = "8.34651,0.129093!"]
155 [ pos = "2.1952,8.84762!"]
156 [ pos = "1.11759,7.87622!"]
157 [ pos = "8.37367,4.60128!"]
158 [ pos = "1.54118,6.4629!"]
159 [ pos = "3.79772,0.0418104!"]
160 [ pos = "2.10669,6.24134!"]
161 [ pos = "8.05445,8.3517!"]
162 [ pos = "4.49873,5.39537!"]
163 [ pos = "3.67992,2.65481!"]
164 [ pos = "3.18522,1.31993!"]
165 [ pos = "7.26188,4.70962!"]
166 [ pos = "9.47539,4.66353!"]
167 [ pos = "7.59636,2.73843!"]
168 [ pos = "3.502,1.14841!"]
169 [ pos = "2.02124,2.54585!"]
170 [ pos = "6.37593,1.95013!"]
171 [ pos = "2.84951,3.65246!"]
172 [ pos = "3.13028,8.25678!"]
173 [ pos = "9.58739,0.874966!"]
174 [ pos = "5.30564,0.977813!"]
175 [ pos = "0.623798,7.8161!"]
176 [ pos = "6.33198,3.62255!"]
177 [ pos = "1.52593,8.35139!"]
178 [ pos = "9.53337,6.36952!"]
179 [ pos = "7.24387,1.68188!"]
180 [ pos = "3.82794,3.61461!"]
181 [ pos = "3.6964,2.08075!"]
182 [ pos = "2.30079,6.96799!"]
183 [ pos = "1.54454,2.37129!"]
184 [ pos = "0.00793481,2.10913!"]
185 [ pos = "2.81106,6.68752!"]
186 [ pos = "5.91937,2.30018!"]
187 [ pos = "0.546281,9.40458!"]
188 [ pos = "6.0213,4.97116!"]
189 [ pos = "4.26588,9.57183!"]
190 [ pos = "6.58742,1.87201!"]
191 [ pos = "0.614032,9.97101!"]
192 [ pos = "4.68062,9.08811!"]
193 [ pos = "0.929289,3.29478!"]
194 [ pos = "3.36772,1.98431!"]
195 [ pos = "6.29536,1.16611!"]
196 [ pos = "8.12464,3.137!"]
197 [ pos = "7.57439,1.03397!"]
198 [ pos = "4.76577,9.75433!"]
199 [ pos = "4.01807,7.64519!"]
200 [ pos = "4.1673,2.28401!"]
201 [ pos = "0.641804,6.03839!"]
202 [ pos = "1.33854,9.03287!"]
203 [ pos = "2.84402,8.1167!"]
204 [ pos = "2.27943,3.99182!"]
205 [ pos = "8.02667,1.02603!"]
206 [ pos = "7.77947,7.90246!"]
207 [ pos = "9.45647,9.12931!"]
208 [ pos = "5.13443,7.12943!"]
209 [ pos = "8.56655,8.4637!"]
210 [ pos = "2.91177,2.44728!"]
211 [ pos = "9.57396,9.57518!"]
212 [ pos = "6.65914,1.5714!"]
213 [ pos = "5.92822,7.65709!"]
214 [ pos = "1.03092,6.47664!"]
215 [ pos = "2.97983,4.35652!"]
216 [ pos = "2.52541,0.472121!"]
217 [ pos = "6.57582,9.60082!"]
218 [ pos = "3.02957,1.89581!"]
219 [ pos = "4.35194,0.648518!"]
220 [ pos = "4.02234,2.40272!"]
221 [ pos = "6.50685,5.51592!"]
222 [ pos = "0.748619,9.40794!"]
223 [ pos = "7.07694,5.19944!"]
224 [ pos = "1.24149,5.53972!"]
225 [ pos = "6.44642,0.0183111!"]
226 [ pos = "2.98624,4.23475!"]
227 [ pos = "2.24525,6.09882!"]
228 [ pos = "6.51967,1.09043!"]
229 [ pos = "0.186468,4.85305!"]
230 [ pos = "6.60512,6.54622!"]
231 [ pos = "0.00732444,7.46269!"]
232 [ pos = "4.07056,8.14753!"]
233 [ pos = "5.75671,4.13038!"]
234 [ pos = "1.17374,1.28239!"]
235 [ pos = "5.4796,0.458693!"]
236 [ pos = "6.74673,7.15232!"]
237 [ pos = "4.11237,7.00858!"]
238 [ pos = "0.583209,7.05954!"]
239 [ pos = "6.39058,9.12473!"]
240 [ pos = "5.86688,4.16211!"]
241 [ pos = "5.03525,8.74874!"]
242 [ pos = "0.0711081,8.84335!"]
243 [ pos = "4.65133,4.40077!"]
244 [ pos = "5.04898,3.10495!"]
245 [ pos = "4.92203,6.09241!"]
246 [ pos = "2.09449,4.08155!"]
247 [ pos = "9.04019,4.83047!"]
248 [ pos = "3.98144,8.21039!"]
249 [ pos = "6.15986,7.88842!"]
250 [ pos = "9.48851,6.98019!"]
251 [ pos = "1.18778,7.35282!"]
252 [ pos = "3.07749,3.80108!"]
253 [ pos = "2.76955,6.91366!"]
254 [ pos = "9.34538,0.61037!"]
255 [ pos = "2.05023,6.6335!"]
256 [ pos = "4.94125,3.64086!"]
257 [ pos = "2.00568,3.82275!"]
258 [ pos = "6.05731,1.53844!"]
259 [ pos = "1.05899,6.36647!"]
260 [ pos = "3.59264,7.01407!"]
261 [ pos = "6.60085,9.16166!"]
262 [ pos = "6.95395,6.65792!"]
263 [ pos = "5.13199,0.987274!"]
264 [ pos = "7.37907,3.73608!"]
265 [ pos = "7.34367,4.38795!"]
266 [ pos = "8.97519,6.92038!"]
267 [ pos = "9.73815,1.23356!"]
268 [ pos = "6.51936,5.27421!"]
269 [ pos = "0.673849,7.83288!"]
270 [ pos = "9.81841,7.64611!"]
271 [ pos = "9.19797,1.9892!"]
272 [ pos = "1.2125,4.17127!"]
273 [ pos = "0.987884,6.53798!"]
274 [ pos = "1.99499,0.105899!"]
275 [ pos = "8.41182,5.85406!"]
276 [ pos = "1.25126,8.95535!"]
277 [ pos = "2.33497,9.91363!"]
278 [ pos = "3.23405,4.05774!"]
279 [ pos = "3.19926,0.870998!"]
280 [ pos = "3.07505,6.72689!"]
281 [ pos = "9.19736,6.14795!"]
282 [ pos = "1.67058,5.92944!"]
283 [ pos = "1.442,5.85253!"]
284 [ pos = "5.20554,0.609149!"]
285 [ pos = "1.04038,7.30796!"]
286 [ pos = "9.25962,2.33345!"]
287 [ pos = "2.21198,1.74108!"]
288 [ pos = "7.99463,4.24879!"]
289 [ pos = "0.319224,4.07025!"]
290 [ pos = "1.84545,3.60027!"]
291 [ pos = "5.07767,2.44484!"]
292 [ pos = "8.6285,0.553606!"]
293 [ pos = "8.63063,6.01794!"]
294 [ pos = "9.3347,7.02048!"]
295 [ pos = "6.77236,3.5786!"]
296 [ pos = "7.32322,6.85995!"]
297 [ pos = "0.69277,8.43959!"]
298 [ pos = "4.39772,4.47859!"]
299 [ pos = "7.41356,2.55745!"]
300 [ pos = "5.64837,3.70708!"]
301 [ pos = "0.853298,1.57292!"]
302 [ pos = "3.14798,4.17158!"]
303 [ pos = "3.46141,8.47316!"]
304 [ pos = "2.91726,9.42015!"]
305 [ pos = "1.79388,3.2252!"]
306 [ pos = "6.22974,1.09622!"]
307 [ pos = "9.60234,5.19242!"]
308 [ pos = "1.58177,7.67418!"]
309 [ pos = "0.137638,0.710166!"]
310 [ pos = "3.75286,5.99261!"]
311 [ pos = "6.74398,6.11835!"]
312 [ pos = "7.56767,0.23835!"]
313 [ pos = "8.63491,3.03873!"]
314 [ pos = "2.5132,7.43278!"]
315 [ pos = "8.31568,4.04523!"]
316 [ pos = "6.48854,2.08228!"]
317 [ pos = "9.6173,9.30326!"]
318 [ pos = "8.93612,6.74184!"]
319 [ pos = "2.05176,4.55367!"]
320 [ pos = "1.6776,1.03244!"]
321 [ pos = "9.41282,4.18683!"]
322 [ pos = "6.17908,0.43733!"]
323 [ pos = "9.45524,6.37288!"]
324 [ pos = "4.97391,9.16837!"]
325 [ pos = "8.40236,6.54286!"]
326 [ pos = "8.83358,9.87762!"]
327 [ pos = "0.120853,7.15751!"]
328 [ pos = "6.19495,8.14142!"]
329 [ pos = "6.40828,1.97577!"]
330 [ pos = "3.66008,2.80221!"]
331 [ pos = "3.11319,8.10968!"]
332 [ pos = "2.24586,5.61266!"]
333 [ pos = "8.10541,5.36546!"]
334 [ pos = "9.79827,6.45741!"]
335 [ pos = "2.57759,5.88763!"]
336 [ pos = "1.789,4.98459!"]
337 [ pos = "8.1341,4.26771!"]
338 [ pos = "6.88437,6.98721!"]
339 [ pos = "9.78332,5.23545!"]
340 [ pos = "6.41957,5.6267!"]
341 [ pos = "0.613117,9.13419!"]
342 [ pos = "4.51827,4.78591!"]
343 [ pos = "8.77346,0.77456!"]
344 [ pos = "4.28266,5.7738!"]
345 [ pos = "2.73171,1.28361!"]
346 [ pos = "1.51555,0.491653!"]
347 [ pos = "7.82159,1.39195!"]
348 [ pos = "7.06992,5.28855!"]
349 [ pos = "7.11081,4.5674!"]
350 [ pos = "8.38221,1.31352!"]
351 [ pos = "3.87158,5.66393!"]
352 [ pos = "6.33045,0.474563!"]
353 [ pos = "2.62276,1.6596!"]
354 [ pos = "1.44719,2.37892!"]
355 [ pos = "2.15766,1.75146!"]
356 [ pos = "0.0384533,8.1283!"]
357 [ pos = "8.35505,0.918912!"]
358 [ pos = "2.09754,2.78512!"]
359 [ pos = "8.18384,0.207831!"]
360 [ pos = "5.34959,1.01596!"]
361 [ pos = "0.404675,4.75021!"]
362 [ pos = "9.54314,1.04953!"]
363 [ pos = "4.25642,3.13181!"]
364 [ pos = "8.48781,1.96448!"]
365 [ pos = "6.19678,5.40849!"]
366 [ pos = "0.557878,9.63805!"]
367 [ pos = "7.75475,8.10755!"]
368 [ pos = "7.69829,8.75271!"]
369 [ pos = "6.00177,9.18394!"]
370 [ pos = "4.62996,3.26487!"]
371 [ pos = "3.32682,0.365307!"]
372 [ pos = "0.204474,6.99026!"]
373 [ pos = "6.35609,4.89944!"]
374 [ pos = "7.95923,0.650044!"]
375 [ pos = "6.19892,1.60558!"]
376 [ pos = "9.10642,3.17423!"]
377 [ pos = "5.05997,7.66686!"]
378 [ pos = "4.74013,4.42!"]
379 [ pos = "8.78536,8.91598!"]
380 [ pos = "1.15635,5.10788!"]
381 [ pos = "2.44484,3.82977!"]
382 [ pos = "9.16807,8.83999!"]
383 [ pos = "7.78649,2.22785!"]
384 [ pos = "1.35441,1.86865!"]
385 [ pos = "8.59981,8.03949!"]
386 [ pos = "6.6036,0.0671407!"]
387 [ pos = "3.96405,3.74432!"]
388 [ pos = "5.29496,0.517289!"]
389 [ pos = "1.23997,8.3929!"]
390 [ pos = "7.33818,8.61263!"]
391 [ pos = "1.77831,7.77612!"]
392 [ pos = "5.20463,1.73101!"]
393 [ pos = "3.91095,0.578631!"]
394 [ pos = "1.38981,8.69076!"]
395 [ pos = "1.07517,4.42824!"]
396 [ pos = "0.611286,1.54942!"]
397 [ pos = "9.20743,6.96402!"]
398 [ pos = "7.77795,4.16028!"]
399 [ pos = "8.01386,5.56993!"]
400 [ pos = "9.57854,1.4246!"]
401 [ pos = "6.70309,1.55522!"]
402 [ pos = "6.70064,5.72771!"]
403 [ pos = "7.41874,6.5276!"]
404 [ pos = "1.44078,3.75408!"]
405 [ pos = "0.274361,6.78335!"]
406 [ pos = "8.06726,9.11039!"]
407 [ pos = "3.74493,1.93823!"]
408 [ pos = "6.98782,5.09384!"]
409 [ pos = "4.50362,3.03537!"]
410 [ pos = "4.81094,8.84426!"]
411 [ pos = "2.84494,9.20164!"]
412 [ pos = "7.01743,4.23353!"]
413 [ pos = "4.85488,6.88375!"]
414 [ pos = "4.42549,7.42302!"]
415 [ pos = "1.72308,7.96381!"]
416 [ pos = "5.21439,7.32231!"]
417 [ pos = "1.30558,8.93887!"]
418 [ pos = "7.163,4.45723!"]
419 [ pos = "8.46583,9.07743!"]
420 [ pos = "6.27766,7.23167!"]
421 [ pos = "0.121464,7.27165!"]
422 [ pos = "4.32752,5.54003!"]
423 [ pos = "9.5352,1.4713!"]
424 [ pos = "5.24003,9.3466!"]
425 [ pos = "3.4666,7.34001!"]
426 [ pos = "5.10636,5.50798!"]
427 [ pos = "6.61397,0.365307!"]
428 [ pos = "8.91751,0.967132!"]
429 [ pos = "1.52898,4.35499!"]
430 [ pos = "5.37187,5.78326!"]
431 [ pos = "0.188299,5.27421!"]
432 [ pos = "5.42467,6.51448!"]
433 [ pos = "6.8572,9.02615!"]
434 [ pos = "6.89291,0.48616!"]
435 [ pos = "2.05603,1.22868!"]
436 [ pos = "2.69417,5.72069!"]
437 [ pos = "5.58824,2.62459!"]
438 [ pos = "0.396741,1.00375!"]
439 [ pos = "3.94818,1.66356!"]
440 [ pos = "1.93762,6.9985!"]
441 [ pos = "5.25956,2.29926!"]
442 [ pos = "0.914945,3.70342!"]
443 [ pos = "4.45204,6.3976!"]
444 [ pos = "6.98386,3.17087!"]
445 [ pos = "3.88958,2.5837!"]
446 [ pos = "8.84976,0.478835!"]
447 [ pos = "1.42186,3.15195!"]
448 [ pos = "5.43687,1.75451!"]
449 [ pos = "0.0155644,4.03272!"]
450 [ pos = "5.20249,6.81539!"]
451 [ pos = "2.0661,6.03931!"]
452 [ pos = "2.5837,6.97958!"]
453 [ pos = "8.37611,4.9263!"]
454 [ pos = "4.40138,7.06168!"]
455 [ pos = "7.89697,9.46471!"]
456 [ pos = "3.99792,5.73504!"]
457 [ pos = "0.925016,6.9747!"]
458 [ pos = "3.1608,1.59673!"]
459 [ pos = "6.72964,0.872829!"]
460 [ pos = "7.76818,4.62874!"]
461 [ pos = "7.86676,0.968047!"]
462 [ pos = "8.81558,5.57909!"]
463 [ pos = "8.92453,0.782189!"]
464 [ pos = "2.2953,0.347301!"]
465 [ pos = "8.39503,3.30302!"]
466 [ pos = "5.56505,3.96405!"]
467 [ pos = "0.0488296,3.53893!"]
468 [ pos = "0.592975,0.504776!"]
469 [ pos = "5.83056,9.32615!"]
470 [ pos = "2.06458,2.48024!"]
471 [ pos = "7.15751,7.2335!"]
472 [ pos = "7.03024,7.16727!"]
473 [ pos = "6.83737,4.43068!"]
474 [ pos = "8.80245,9.24894!"]
475 [ pos = "0.868557,6.21448!"]
476 [ pos = "7.45048,0.237434!"]
477 [ pos = "9.40977,8.84732!"]
478 [ pos = "8.69808,6.73544!"]
479 [ pos = "0.434584,4.63607!"]
480 [ pos = "8.6111,2.89743!"]
481 [ pos = "9.3173,7.05985!"]
482 [ pos = "9.36308,8.72188!"]
483 [ pos = "3.98206,4.48103!"]
484 [ pos = "7.87317,6.28224!"]
485 [ pos = "9.69237,7.79015!"]
486 [ pos = "0.457778,1.9834!"]
487 [ pos = "1.11881,6.49007!"]
488 [ pos = "9.08414,5.58153!"]
489 [ pos = "3.45195,5.48631!"]
490 [ pos = "4.58388,7.36503!"]
491 [ pos = "0.0915555,7.44224!"]
492 [ pos = "5.58947,4.75814!"]
493 [ pos = "3.2371,9.25199!"]
494 [ pos = "5.14817,9.93194!"]
495 [ pos = "6.6805,2.219!"]
496 [ pos = "6.31123,2.06153!"]
497 [ pos = "8.56014,0.154729!"]
498 [ pos = "9.63958,2.89682!"]
499 [ pos = "7.02017,4.0904!"]
500 [ pos = "5.82842,3.53404!"]
501 [ pos = "4.84634,2.85104!"]
502 [ pos = "1.74993,5.00229!"]
503 [ pos = "1.53417,1.66326!"]
504 [ pos = "4.40107,6.69118!"]
505 [ pos = "4.05805,2.46376!"]
506 [ pos = "0.784326,6.0448!"]
507 [ pos = "2.17139,5.92456!"]
508 [ pos = "8.87326,1.56407!"]
509 [ pos = "1.58818,2.65419!"]
510 [ pos = "1.78991,0.233161!"]
511 [ pos = "0.126347,5.82202!"]
512 [ pos = "0.388806,1.29551!"]
513 [ pos = "9.11008,5.81957!"]
514 [ pos = "4.84695,2.06793!"]
515 [ pos = "6.24226,5.81622!"]
516 [ pos = "9.86755,9.47295!"]
517 [ pos = "8.07184,1.35807!"]
518 [ pos = "6.9573,4.42457!"]
519 [ pos = "1.26926,3.84381!"]
520 [ pos = "7.16514,6.38386!"]
521 [ pos = "3.5255,2.94046!"]
522 [ pos = "4.96872,3.53252!"]
523 [ pos = "8.18201,3.12723!"]
524 [ pos = "4.86862,1.39225!"]
525 [ pos = "2.97037,0.717795!"]
526 [ pos = "2.97006,0.537736!"]
527 [ pos = "3.72723,6.27094!"]
528 [ pos = "2.65481,3.60759!"]
529 [ pos = "9.90875,9.41343!"]
530 [ pos = "2.59896,4.33302!"]
531 [ pos = "1.40416,5.07828!"]
532 [ pos = "3.15317,8.04773!"]
533 [ pos = "6.79342,8.22718!"]
534 [ pos = "9.6942,5.34501!"]
535 [ pos = "3.05307,4.53078!"]
536 [ pos = "5.24979,9.47447!"]
537 [ pos = "7.05649,3.49651!"]
538 [ pos = "5.73595,4.96719!"]
539 [ pos = "1.2476,4.36384!"]
540 [ pos = "5.77136,1.09317!"]
541 [ pos = "0.910978,0.0473037!"]
542 [ pos = "7.50816,0.325327!"]
543 [ pos = "9.67467,6.67776!"]
544 [ pos = "5.48509,0.305795!"]
545 [ pos = "4.60646,2.17505!"]
546 [ pos = "3.41899,9.05942!"]
547 [ pos = "3.68755,3.02072!"]
548 [ pos = "0.351878,8.69747!"]
549 [ pos = "7.82891,0.189215!"]
550 [ pos = "9.92248,3.81542!"]
551 [ pos = "8.2284,9.38505!"]
552 [ pos = "3.97137,8.4521!"]
553 [ pos = "8.93582,3.46599!"]
554 [ pos = "6.47114,1.13224!"]
555 [ pos = "5.29466,2.54524!"]
556 [ pos = "2.15613,2.38014!"]
557 [ pos = "2.70791,5.93982!"]
558 [ pos = "2.44545,4.40718!"]
559 [ pos = "8.14875,6.18824!"]
560 [ pos = "5.57268,9.74944!"]
561 [ pos = "0.309458,4.97238!"]
562 [ pos = "4.4908,5.63341!"]
563 [ pos = "4.44929,0.259407!"]
564 [ pos = "1.38371,5.09812!"]
565 [ pos = "6.14154,9.54344!"]
566 [ pos = "7.70165,5.59526!"]
567 [ pos = "5.50066,1.97607!"]
568 [ pos = "9.83703,2.23273!"]
569 [ pos = "1.27934,8.68801!"]
570 [ pos = "9.09421,7.20573!"]
571 [ pos = "3.79894,1.92999!"]
572 [ pos = "6.72658,0.580157!"]
573 [ pos = "8.17713,6.13178!"]
574 [ pos = "6.79739,1.67699!"]
575 [ pos = "6.0683,3.73394!"]
576 [ pos = "7.67632,6.0976!"]
577 [ pos = "6.33168,2.05176!"]
578 [ pos = "3.40739,2.21229!"]
579 [ pos = "3.97198,0.633564!"]
580 [ pos = "5.1735,3.91491!"]
581 [ pos = "3.58928,7.90368!"]
582 [ pos = "6.93899,4.90036!"]
583 [ pos = "9.68902,7.53502!"]
584 [ pos = "4.29548,4.90829!"]
585 [ pos = "2.78573,5.25407!"]
586 [ pos = "7.80969,1.50945!"]
587 [ pos = "8.53755,1.87506!"]
588 [ pos = "8.06513,3.38359!"]
589 [ pos = "8.4048,4.55336!"]
590 [ pos = "5.30045,3.8612!"]
591 [ pos = "5.84033,1.78198!"]
592 [ pos = "8.37214,8.06146!"]
593 [ pos = "2.94351,4.78866!"]
594 [ pos = "1.92328,4.47157!"]
595 [ pos = "0.21485,4.95437!"]
596 [ pos = "3.39854,3.55022!"]
597 [ pos = "7.67418,9.95178!"]
598 [ pos = "9.13938,3.15348!"]
599 [ pos = "0.475478,6.70186!"]
600 [ pos = "7.4868,4.49568!"]
601 [ pos = "7.48589,3.26029!"]
602 [ pos = "2.85806,4.2613!"]
603 [ pos = "8.33796,0.583819!"]
604 [ pos = "4.38276,9.5938!"]
605 [ pos = "4.4966,5.07462!"]
606 [ pos = "2.16468,4.26679!"]
607 [ pos = "4.10993,0.0842311!"]
608 [ pos = "9.80193,7.65252!"]
609 [ pos = "0.122684,5.43748!"]
610 [ pos = "9.70214,4.35652!"]
611 [ pos = "7.56218,4.7557!"]
612 [ pos = "4.24177,2.8956!"]
613 [ pos = "0.292673,7.18436!"]
614 [ pos = "7.15476,7.73522!"]
615 [ pos = "1.15635,9.27763!"]
616 [ pos = "1.99194,1.68798!"]
617 [ pos = "3.49162,0.556963!"]
618 [ pos = "4.26466,6.32221!"]
619 [ pos = "7.82891,8.85861!"]
620 [ pos = "7.27012,7.87683!"]
621 [ pos = "6.32801,5.25773!"]
622 [ pos = "4.82284,6.53432!"]
623 [ pos = "0.51088,9.42778!"]
624 [ pos = "3.42387,8.93307!"]
625 [ pos = "6.30451,0.881069!"]
626 [ pos = "8.06818,8.83297!"]
627 [ pos = "5.57421,6.0448!"]
628 [ pos = "6.13849,0.0808741!"]
629 [ pos = "6.4861,1.66601!"]
630 [ pos = "8.93582,0.731834!"]
631 [ pos = "7.39006,7.97296!"]
632 [ pos = "6.58498,8.60408!"]
633 [ pos = "1.7478,6.49861!"]
634 [ pos = "5.59008,7.94824!"]
635 [ pos = "6.19007,3.84808!"]
636 [ pos = "5.44633,5.51317!"]
637 [ pos = "1.29307,0.105594!"]
638 [ pos = "7.68029,3.38481!"]
639 [ pos = "6.41499,5.38438!"]
640 [ pos = "3.76324,6.76565!"]
641 [ pos = "7.13034,6.38203!"]
642 [ pos = "3.75561,8.6346!"]
643 [ pos = "7.73675,3.05033!"]
644 [ pos = "1.52867,1.22379!"]
645 [ pos = "3.1901,9.77721!"]
646 [ pos = "1.27995,7.68822!"]
647 [ pos = "5.94867,2.15888!"]
648 [ pos = "9.97925,7.53868!"]
649 [ pos = "4.78103,5.69201!"]
650 [ pos = "7.67998,7.5399!"]
651 [ pos = "5.90167,2.79946!"]
652 [ pos = "8.50978,7.14591!"]
653 [ pos = "3.05673,5.81408!"]
654 [ pos = "5.86444,5.37309!"]
655 [ pos = "3.68145,2.06153!"]
656 [ pos = "2.16132,5.56413!"]
657 [ pos = "4.19874,9.33134!"]
658 [ pos = "2.65908,7.0159!"]
659 [ pos = "0.211493,1.97546!"]
660 [ pos = "0.606708,9.18027!"]
661 [ pos = "7.98517,5.96393!"]
662 [ pos = "3.58318,6.35517!"]
663 [ pos = "3.46751,1.61687!"]
664 [ pos = "4.58022,9.71221!"]
665 [ pos = "5.44939,1.74932!"]
666 [ pos = "2.41462,0.392468!"]
667 [ pos = "1.49419,6.80807!"]
668 [ pos = "0.686666,3.5316!"]
669 [ pos = "0.302438,3.51817!"]
670 [ pos = "8.9761,9.63439!"]
671 [ pos = "3.40953,5.85223!"]
672 [ pos = "0.525529,8.04315!"]
673 [ pos = "3.81573,2.99844!"]
674 [ pos = "3.58318,8.50063!"]
675 [ pos = "0.586566,4.7441!"]
676 [ pos = "5.06973,2.29469!"]
677 [ pos = "7.846,6.49007!"]
678 [ pos = "1.58818,5.44115!"]
679 [ pos = "5.19578,0.288095!"]
680 [ pos = "0.235908,4.0202!"]
681 [ pos = "5.69414,1.03671!"]
682 [ pos = "6.46046,7.44591!"]
683 [ pos = "8.29981,4.56526!"]
684 [ pos = "4.58357,0.290231!"]
685 [ pos = "5.48387,3.04575!"]
686 [ pos = "4.8384,8.63704!"]
687 [ pos = "4.68551,9.18363!"]
688 [ pos = "5.07981,3.96802!"]
689 [ pos = "5.7445,0.282907!"]
690 [ pos = "1.99255,7.63176!"]
691 [ pos = "6.62526,2.75399!"]
692 [ pos = "1.86926,3.15012!"]
693 [ pos = "7.89178,3.18461!"]
694 [ pos = "1.13559,3.361!"]
695 [ pos = "3.74523,0.0244148!"]
696 [ pos = "7.98456,5.78539!"]
697 [ pos = "5.28764,6.42323!"]
698 [ pos = "5.01846,4.03363!"]
699 [ pos = "1.20029,6.11164!"]
700 [ pos = "4.93515,6.65487!"]
701 [ pos = "3.57311,6.66646!"]
702 [ pos = "3.24717,8.93063!"]
703 [ pos = "3.33445,4.26862!"]
704 [ pos = "0.115055,8.9053!"]
705 [ pos = "1.95441,7.46269!"]
706 [ pos = "3.76232,7.72179!"]
707 [ pos = "5.01633,0.625019!"]
708 [ pos = "6.96127,7.31773!"]
709 [ pos = "0.135807,7.19352!"]
710 [ pos = "1.91443,6.98752!"]
711 [ pos = "7.84143,4.33699!"]
712 [ pos = "3.80566,5.50523!"]
713 [ pos = "0.584429,1.03214!"]
714 [ pos = "5.57512,8.63491!"]
715 [ pos = "3.37992,6.58467!"]
716 [ pos = "2.35481,4.22163!"]
717 [ pos = "0.813318,2.83975!"]
718 [ pos = "9.72137,9.89776!"]
719 [ pos = "0.668966,6.85568!"]
720 [ pos = "1.73772,2.97067!"]
721 [ pos = "5.37309,7.94336!"]
722 [ pos = "8.92758,9.60326!"]
723 [ pos = "0.124821,9.95056!"]
724 [ pos = "9.05484,2.10578!"]
725 [ pos = "2.23792,2.72958!"]
726 [ pos = "1.21006,0.399182!"]
727 [ pos = "1.07212,2.14789!"]
728 [ pos = "2.37068,7.60338!"]
729 [ pos = "3.27158,1.99133!"]
730 [ pos = "1.65166,1.62267!"]
731 [ pos = "5.07218,9.96979!"]
732 [ pos = "7.08579,5.70055!"]
733 [ pos = "3.46599,9.96826!"]
734 [ pos = "9.25108,2.5016!"]
735 [ pos = "2.24128,9.97742!"]
736 [ pos = "1.62114,9.58312!"]
737 [ pos = "8.6343,6.01154!"]
738 [ pos = "5.43352,0.377514!"]
739 [ pos = "2.74178,3.04483!"]
740 [ pos = "3.36314,5.31297!"]
741 [ pos = "6.24989,0.820948!"]
742 [ pos = "7.65679,3.63323!"]
743 [ pos = "0.639668,1.53905!"]
744 [ pos = "0.792871,9.17905!"]
745 [ pos = "9.11771,4.18195!"]
746 [ pos = "6.55477,4.01502!"]
747 [ pos = "2.31208,2.84951!"]
748 [ pos = "2.7488,3.66405!"]
749 [ pos = "6.5624,0.144047!"]
750 [ pos = "0.0506607,8.03949!"]
751 [ pos = "6.59047,7.70226!"]
752 [ pos = "0.755333,4.21033!"]
753 [ pos = "2.82846,0.580767!"]
754 [ pos = "2.88522,2.16651!"]
755 [ pos = "8.83328,6.69668!"]
756 [ pos = "5.35386,3.97412!"]
757 [ pos = "7.36961,3.06314!"]
758 [ pos = "4.9855,1.43223!"]
759 [ pos = "6.10981,3.5023!"]
760 [ pos = "2.37587,8.75729!"]
761 [ pos = "6.72323,3.98907!"]
762 [ pos = "7.12577,6.22394!"]
763 [ pos = "5.68529,8.15485!"]
764 [ pos = "0.0949126,9.29899!"]
765 [ pos = "2.65389,2.90292!"]
766 [ pos = "7.30735,6.88833!"]
767 [ pos = "3.99487,8.88363!"]
768 [ pos = "3.1962,3.12174!"]
769 [ pos = "6.25446,8.94559!"]
770 [ pos = "6.29872,0.860317!"]
771 [ pos = "8.29188,5.91632!"]
772 [ pos = "4.49782,3.11411!"]
773 [ pos = "2.68868,5.3679!"]
774 [ pos = "5.77563,1.99713!"]
775 [ pos = "8.16004,5.69048!"]
776 [ pos = "0.365001,5.03891!"]
777 [ pos = "6.27125,3.05185!"]
778 [ pos = "7.49199,6.80624!"]
779 [ pos = "9.07834,8.91385!"]
780 [ pos = "0.753197,1.1539!"]
781 [ pos = "0.560625,8.97061!"]
782 [ pos = "6.92892,7.25913!"]
783 [ pos = "5.2208,0.910062!"]
784 [ pos = "9.81628,2.13721!"]
785 [ pos = "3.1666,0.52736!"]
786 [ pos = "9.84985,4.87014!"]
787 [ pos = "3.68511,7.68761!"]
788 [ pos = "8.02026,4.49507!"]
789 [ pos = "9.94415,1.7127!"]
790 [ pos = "5.20341,5.73504!"]
791 [ pos = "7.33207,6.16565!"]
792 [ pos = "1.69805,5.6505!"]
793 [ pos = "8.27662,2.01331!"]
794 [ pos = "2.81533,1.21342!"]
795 [ pos = "8.42799,2.00262!"]
796 [ pos = "0.98178,3.89294!"]
797 [ pos = "4.12305,4.0141!"]
798 [ pos = "9.29838,3.9436!"]
799 [ pos = "0.27253,3.45592!"]
800 [ pos = "2.0542,5.37797!"]
801 [ pos = "2.52724,0.627766!"]
802 [ pos = "0.623493,3.87463!"]
803 [ pos = "9.00754,4.71603!"]
804 [ pos = "4.6498,5.3676!"]
805 [ pos = "6.26667,7.89239!"]
806 [ pos = "4.79354,4.01044!"]
807 [ pos = "2.78146,7.15049!"]
808 [ pos = "0.752586,5.89496!"]
809 [ pos = "2.33558,4.27046!"]
810 [ pos = "3.043,0.541398!"]
811 [ pos = "0.472121,1.89459!"]
812 [ pos = "5.41826,7.04093!"]
813 [ pos = "0.950346,2.39235!"]
814 [ pos = "3.01889,7.06595!"]
815 [ pos = "7.14347,2.22938!"]
816 [ pos = "5.66546,4.01502!"]
817 [ pos = "6.75588,4.17676!"]
818 [ pos = "2.36702,7.57439!"]
819 [ pos = "8.4283,9.18088!"]
820 [ pos = "8.3697,7.22098!"]
821 [ pos = "6.93197,5.26719!"]
822 [ pos = "6.1684,7.89483!"]
823 [ pos = "1.02603,8.77773!"]
824 [ pos = "3.09885,7.49992!"]
825 [ pos = "5.87817,9.72411!"]
826 [ pos = "6.65761,0.280465!"]
827 [ pos = "1.50029,4.41084!"]
828 [ pos = "0.828272,3.73791!"]
829 [ pos = "1.17191,0.905789!"]
830 [ pos = "8.66878,0.832545!"]
831 [ pos = "0.564287,2.725!"]
832 [ pos = "4.47188,5.02091!"]
833 [ pos = "0.478225,9.48363!"]
834 [ pos = "9.23612,4.4377!"]
835 [ pos = "5.04288,6.48274!"]
836 [ pos = "2.1662,4.53169!"]
837 [ pos = "4.10993,4.51491!"]
838 [ pos = "4.79659,6.91671!"]
839 [ pos = "4.69741,2.84005!"]
840 [ pos = "9.24772,7.36991!"]
841 [ pos = "2.91452,8.5284!"]
842 [ pos = "4.4261,9.06613!"]
843 [ pos = "6.10157,0.470595!"]
844 [ pos = "9.85717,9.48637!"]
845 [ pos = "6.1861,2.54616!"]
846 [ pos = "2.54677,2.28187!"]
847 [ pos = "0.754418,3.97168!"]
848 [ pos = "4.11145,9.91913!"]
849 [ pos = "9.27793,1.98584!"]
850 [ pos = "9.5468,0.452895!"]
851 [ pos = "9.62279,8.99594!"]
852 [ pos = "1.78045,3.51604!"]
853 [ pos = "5.61541,9.37864!"]
854 [ pos = "3.74645,7.81152!"]
855 [ pos = "1.29032,6.54103!"]
856 [ pos = "8.40175,6.33412!"]
857 [ pos = "2.78787,4.84268!"]
858 [ pos = "3.15165,7.42668!"]
859 [ pos = "5.91601,9.84039!"]
860 [ pos = "4.77798,0.901822!"]
861 [ pos = "7.41111,0.245979!"]
862 [ pos = "0.425733,0.0335704!"]
863 [ pos = "2.172,2.28401!"]
864 [ pos = "5.78875,3.53282!"]
865 [ pos = "8.44478,8.00043!"]
866 [ pos = "9.52574,7.87866!"]
867 [ pos = "9.3646,9.81689!"]
868 [ pos = "9.45677,0.877102!"]
869 [ pos = "3.65764,0.418409!"]
870 [ pos = "7.43278,3.27189!"]
871 [ pos = "1.91321,6.24348!"]
872 [ pos = "2.20496,7.8985!"]
873 [ pos = "8.92331,0.579241!"]
874 [ pos = "9.42228,6.53706!"]
875 [ pos = "8.38527,4.88418!"]
876 [ pos = "1.24424,4.46394!"]
877 [ pos = "5.03464,0.630512!"]
878 [ pos = "1.301,3.04086!"]
879 [ pos = "2.26234,5.01144!"]
880 [ pos = "0.02472,2.73751!"]
881 [ pos = "1.72582,8.47346!"]
882 [ pos = "7.05954,3.99182!"]
883 [ pos = "6.64083,6.51509!"]
884 [ pos = "7.69372,2.55776!"]
885 [ pos = "3.5902,8.76125!"]
886 [ pos = "5.3676,0.697348!"]
887 [ pos = "0.0372326,1.22105!"]
888 [ pos = "8.4933,6.99423!"]
889 [ pos = "7.57775,9.15464!"]
890 [ pos = "3.36009,6.96585!"]
891 [ pos = "5.50066,4.31379!"]
892 [ pos = "2.03742,5.26505!"]
893 [ pos = "6.76412,7.76482!"]
894 [ pos = "1.13987,9.33775!"]
895 [ pos = "0.210273,4.28877!"]
896 [ pos = "0.406507,5.20829!"]
897 [ pos = "0.0759911,2.72866!"]
898 [ pos = "5.44511,9.83978!"]
899 [ pos = "7.75079,4.88235!"]
0--164;
0--458;
0--794;
1--60;
1--239;
1--369;
2--322;
2--741;
3--387;
3--797;
4--440;
4--710;
5--38;
5--307;
6--113;
6--735;
7--193;
7--442;
7--694;
8--71;
8--390;
8--533;
9--107;
9--553;
10--32;
10--328;
10--763;
11--198;
11--324;
11--536;
12--246;
12--257;
13--622;
13--700;
13--835;
14--733;
14--848;
15--215;
15--602;
16--125;
16--502;
16--892;
17--119;
17--367;
17--631;
18--363;
18--370;
18--387;
19--25;
19--81;
20--121;
20--209;
21--643;
21--693;
22--358;
22--692;
23--423;
23--428;
23--508;
24--394;
25--515;
25--627;
26--45;
26--732;
26--821;
27--799;
27--831;
27--897;
28--300;
29--36;
29--567;
29--647;
29--774;
30--234;
30--301;
30--780;
31--38;
31--145;
31--247;
32--91;
32--769;
33--717;
33--813;
34--155;
34--881;
35--657;
35--687;
35--842;
36--437;
37--63;
37--789;
38--166;
39--83;
39--534;
40--136;
40--299;
40--495;
40--815;
41--145;
41--462;
41--488;
42--218;
42--458;
42--729;
43--161;
43--367;
43--592;
44--863;
45--221;
45--402;
46--251;
46--308;
46--646;
47--103;
47--162;
47--422;
47--605;
48--483;
48--703;
48--797;
49--95;
49--879;
50--103;
50--712;
51--137;
51--679;
52--245;
52--697;
53--431;
53--595;
54--468;
54--541;
54--862;
55--109;
55--213;
55--420;
56--747;
56--765;
57--92;
57--207;
57--779;
58--578;
58--729;
58--754;
59--81;
59--420;
60--217;
60--565;
61--230;
61--262;
62--251;
62--667;
63--267;
63--400;
64--525;
64--794;
65--80;
65--727;
65--813;
66--159;
66--393;
66--869;
67--277;
67--645;
68--133;
68--179;
68--586;
69--150;
70--444;
70--691;
70--777;
71--620;
71--631;
72--108;
72--389;
73--124;
73--342;
74--315;
74--337;
75--224;
75--380;
75--896;
76--570;
76--652;
76--865;
77--212;
77--554;
78--287;
78--345;
78--435;
79--470;
79--725;
80--811;
81--141;
81--144;
81--146;
82--222;
82--660;
82--744;
83--178;
84--197;
84--459;
85--651;
85--685;
85--864;
86--240;
86--635;
87--223;
87--566;
87--611;
88--263;
88--392;
88--758;
89--307;
89--339;
89--786;
90--109;
90--111;
91--714;
91--763;
92--474;
93--268;
93--373;
93--582;
94--441;
94--555;
95--585;
95--773;
96--305;
96--447;
97--136;
97--299;
97--444;
97--757;
98--193;
98--694;
98--717;
98--878;
99--237;
99--454;
99--504;
99--838;
100--532;
100--824;
101--139;
101--385;
101--840;
102--326;
102--551;
104--652;
104--888;
105--222;
105--894;
106--183;
106--384;
107--315;
107--745;
108--156;
109--144;
110--256;
110--370;
111--208;
111--416;
112--376;
112--553;
112--798;
113--155;
113--736;
114--172;
114--702;
114--841;
115--224;
115--283;
115--808;
116--240;
116--373;
117--298;
117--342;
117--584;
118--350;
118--508;
118--587;
118--724;
119--161;
119--368;
120--287;
120--863;
121--379;
121--419;
122--614;
122--708;
122--893;
123--562;
123--649;
124--636;
125--564;
125--678;
126--255;
126--667;
126--710;
127--360;
127--681;
128--138;
128--423;
128--849;
129--300;
129--575;
129--816;
130--431;
130--609;
131--601;
131--638;
131--643;
132--396;
132--811;
133--383;
133--793;
134--361;
134--561;
134--776;
135--254;
135--873;
136--691;
138--784;
139--151;
139--866;
140--371;
141--230;
142--480;
142--724;
142--795;
143--270;
143--648;
144--420;
144--812;
145--307;
146--432;
146--627;
147--545;
147--612;
147--839;
148--559;
148--856;
149--311;
149--402;
149--732;
150--334;
150--543;
151--209;
151--482;
152--373;
152--473;
153--760;
153--841;
154--359;
154--497;
155--760;
156--269;
156--389;
156--646;
157--589;
157--683;
157--875;
158--633;
158--855;
159--607;
159--695;
160--227;
160--255;
160--871;
161--626;
162--804;
163--330;
163--445;
163--578;
164--168;
165--349;
165--611;
166--610;
166--786;
166--834;
167--299;
167--643;
167--884;
168--279;
168--663;
169--358;
169--470;
169--509;
170--329;
171--252;
171--748;
172--303;
172--331;
173--362;
173--868;
174--360;
174--783;
175--269;
175--672;
176--295;
176--635;
176--759;
177--389;
177--415;
177--881;
178--323;
178--334;
179--574;
179--815;
180--387;
180--596;
181--220;
181--655;
182--440;
182--452;
183--354;
183--509;
184--659;
184--897;
185--253;
185--280;
185--557;
186--437;
186--647;
186--845;
187--222;
187--623;
187--660;
188--373;
188--538;
189--604;
189--657;
189--848;
190--329;
190--574;
190--629;
191--366;
191--723;
192--410;
192--687;
192--842;
193--668;
194--578;
194--663;
194--729;
195--258;
195--306;
195--554;
196--523;
196--588;
196--693;
197--461;
198--664;
198--731;
199--414;
199--706;
200--220;
200--545;
200--571;
201--506;
201--511;
202--417;
202--615;
203--331;
203--841;
203--872;
204--246;
204--381;
204--716;
205--357;
205--461;
205--517;
206--367;
206--592;
206--650;
207--317;
207--851;
208--812;
209--379;
209--385;
209--626;
210--754;
210--765;
211--317;
211--718;
211--844;
211--867;
212--401;
212--629;
213--249;
213--634;
214--259;
214--273;
214--487;
215--226;
215--535;
216--666;
216--801;
217--261;
218--353;
218--754;
219--563;
219--579;
219--860;
220--505;
221--340;
221--639;
223--348;
223--408;
224--678;
225--386;
225--628;
226--302;
226--602;
227--335;
227--451;
228--459;
228--554;
229--361;
229--595;
230--883;
231--491;
231--750;
232--248;
233--240;
233--816;
233--891;
234--644;
234--829;
235--388;
235--738;
236--338;
236--682;
236--782;
237--640;
238--613;
238--719;
239--261;
239--769;
241--686;
241--714;
242--704;
243--298;
243--378;
244--501;
244--522;
244--685;
245--649;
245--835;
246--606;
247--307;
247--803;
248--552;
248--854;
249--822;
250--294;
250--543;
251--285;
252--278;
252--596;
253--658;
254--850;
254--868;
255--452;
255--633;
256--522;
256--688;
257--290;
257--381;
257--606;
258--375;
258--591;
259--475;
259--699;
260--425;
260--640;
260--890;
261--433;
261--565;
262--296;
262--338;
262--641;
262--883;
263--783;
263--860;
264--537;
264--742;
264--882;
265--418;
265--600;
266--318;
266--397;
267--362;
268--639;
268--821;
270--608;
271--508;
271--724;
271--849;
272--519;
272--539;
273--457;
273--475;
274--464;
274--510;
275--737;
275--771;
276--417;
276--615;
277--304;
277--735;
278--302;
279--525;
279--794;
280--715;
280--814;
281--323;
281--513;
282--283;
282--792;
282--871;
283--699;
284--388;
284--877;
284--886;
285--457;
285--646;
286--568;
286--724;
286--734;
287--353;
287--355;
288--337;
288--711;
289--680;
289--802;
289--895;
290--852;
291--501;
291--555;
291--676;
292--343;
292--446;
292--497;
292--603;
293--737;
293--771;
293--856;
294--397;
294--481;
295--537;
295--761;
296--766;
296--778;
297--548;
297--672;
297--823;
298--837;
300--466;
300--864;
301--384;
301--743;
302--703;
303--674;
304--411;
304--493;
304--645;
305--692;
305--852;
306--375;
306--540;
306--625;
307--488;
307--534;
308--391;
309--438;
309--468;
310--351;
310--527;
310--671;
311--762;
311--883;
312--542;
312--549;
313--376;
313--465;
313--480;
314--807;
314--818;
315--588;
316--329;
316--495;
318--755;
319--594;
319--836;
320--435;
320--644;
321--610;
321--745;
321--798;
322--352;
322--628;
322--843;
323--874;
324--424;
324--687;
325--478;
325--856;
326--670;
327--372;
327--709;
328--822;
329--577;
330--521;
331--532;
332--507;
332--656;
333--399;
333--453;
333--899;
335--436;
335--507;
335--557;
336--502;
336--594;
336--892;
337--788;
338--472;
339--534;
340--402;
340--515;
341--660;
341--744;
341--781;
342--378;
342--832;
343--463;
343--830;
344--422;
344--456;
344--618;
345--353;
345--794;
346--510;
346--726;
347--461;
347--517;
347--586;
348--732;
348--821;
349--418;
349--582;
350--357;
350--517;
351--456;
351--712;
352--427;
352--741;
354--727;
355--616;
355--863;
356--548;
356--750;
357--603;
357--830;
358--720;
358--725;
359--549;
359--603;
360--758;
361--479;
361--675;
362--400;
363--612;
363--772;
364--587;
364--795;
365--515;
365--621;
365--654;
366--833;
367--368;
368--390;
368--619;
369--469;
369--714;
369--769;
370--522;
370--772;
371--617;
371--785;
372--405;
372--613;
373--621;
374--461;
374--549;
374--603;
375--629;
376--598;
377--416;
377--490;
377--721;
378--806;
378--837;
379--474;
379--779;
380--564;
380--675;
381--528;
381--852;
382--385;
382--482;
382--779;
383--884;
384--503;
384--727;
385--865;
386--749;
388--679;
389--569;
389--672;
390--433;
390--631;
391--415;
391--646;
391--690;
392--448;
392--514;
393--579;
393--607;
394--569;
394--881;
395--752;
395--876;
396--512;
396--743;
397--755;
397--874;
398--711;
398--742;
399--566;
399--775;
400--423;
400--789;
400--868;
401--554;
401--574;
402--639;
403--520;
403--677;
403--778;
404--519;
404--694;
404--852;
405--599;
406--551;
406--626;
407--571;
407--655;
407--663;
408--582;
408--821;
409--612;
409--772;
409--839;
410--686;
411--760;
412--499;
412--518;
413--700;
413--838;
414--490;
416--812;
417--569;
418--518;
419--474;
419--626;
419--819;
420--682;
421--491;
421--709;
422--562;
424--536;
424--853;
425--787;
425--858;
426--649;
426--790;
427--572;
427--826;
427--843;
428--463;
429--594;
429--827;
430--627;
430--636;
430--790;
431--896;
432--450;
432--697;
433--632;
433--889;
434--572;
434--861;
435--616;
435--794;
436--656;
436--773;
437--555;
437--651;
437--685;
438--512;
438--713;
439--571;
440--705;
441--567;
441--676;
442--796;
442--828;
443--504;
443--618;
443--622;
444--537;
445--505;
445--673;
446--873;
447--694;
447--720;
447--878;
448--567;
448--665;
448--758;
449--467;
449--680;
450--700;
450--812;
451--507;
451--871;
452--658;
452--710;
453--462;
453--875;
454--490;
455--551;
455--597;
455--889;
456--562;
457--487;
457--719;
458--663;
459--572;
460--611;
460--788;
461--542;
462--737;
463--630;
463--868;
464--666;
465--523;
465--553;
466--756;
466--816;
467--799;
468--713;
469--565;
469--853;
470--556;
471--472;
471--766;
472--782;
472--883;
473--518;
473--817;
474--722;
475--487;
475--506;
475--599;
476--542;
476--861;
477--482;
477--779;
477--851;
478--755;
478--888;
479--561;
479--752;
479--895;
480--523;
480--598;
481--543;
481--570;
482--866;
483--837;
484--559;
484--576;
484--677;
485--608;
485--866;
486--659;
486--727;
486--811;
487--699;
487--855;
488--513;
488--803;
489--671;
489--712;
489--740;
490--706;
490--838;
492--538;
492--891;
493--546;
494--731;
494--898;
495--574;
495--577;
495--691;
496--577;
496--647;
497--873;
498--550;
498--598;
498--734;
499--817;
499--882;
500--759;
500--864;
501--839;
502--531;
503--730;
504--640;
505--545;
505--612;
505--655;
506--699;
506--808;
508--830;
509--556;
509--720;
509--813;
510--637;
510--666;
511--609;
511--808;
512--887;
513--534;
513--737;
513--874;
514--545;
514--676;
514--758;
515--639;
515--883;
516--529;
516--844;
517--793;
517--830;
518--582;
518--600;
519--796;
520--641;
520--766;
521--547;
521--578;
521--768;
522--580;
524--545;
524--758;
524--860;
525--526;
526--753;
526--810;
527--618;
527--662;
528--739;
528--748;
529--851;
530--558;
530--602;
531--564;
531--876;
532--581;
532--841;
533--632;
533--893;
534--786;
535--593;
535--602;
535--703;
536--687;
536--898;
537--870;
538--654;
539--752;
539--827;
539--876;
540--591;
540--681;
540--741;
541--637;
543--874;
544--689;
544--738;
546--624;
546--645;
547--673;
548--704;
548--781;
549--861;
550--610;
551--819;
552--642;
553--588;
553--598;
554--625;
554--629;
556--725;
556--863;
557--653;
557--773;
558--809;
558--836;
558--857;
559--573;
560--825;
560--853;
560--898;
561--595;
561--675;
562--618;
562--712;
562--804;
563--607;
563--684;
565--769;
565--825;
566--696;
566--732;
566--899;
568--784;
569--823;
570--755;
570--840;
572--770;
573--661;
573--677;
573--771;
573--856;
575--635;
575--759;
576--661;
576--791;
577--629;
578--655;
578--673;
579--869;
580--590;
580--688;
581--674;
581--854;
582--611;
582--817;
583--608;
583--840;
584--712;
584--832;
584--837;
585--740;
585--857;
586--793;
586--815;
589--803;
590--756;
591--629;
591--665;
591--774;
592--626;
592--865;
593--740;
593--857;
595--776;
596--703;
596--748;
596--768;
598--798;
599--719;
600--611;
600--711;
600--882;
601--870;
602--716;
602--748;
602--857;
603--861;
604--664;
605--712;
605--804;
605--832;
606--809;
606--836;
606--852;
608--648;
609--896;
611--821;
611--899;
612--673;
613--709;
614--620;
615--744;
615--894;
616--730;
617--869;
618--640;
618--649;
619--626;
619--631;
619--889;
620--893;
621--639;
623--833;
624--702;
624--885;
625--770;
627--697;
628--749;
629--647;
629--770;
629--815;
630--830;
630--873;
631--650;
631--893;
632--769;
632--805;
633--667;
633--871;
634--721;
634--763;
635--746;
636--654;
637--726;
638--693;
638--742;
638--870;
639--654;
640--701;
641--762;
642--674;
642--767;
642--885;
643--757;
644--730;
645--702;
645--733;
645--735;
646--672;
646--705;
648--866;
649--804;
650--766;
650--820;
651--777;
651--845;
652--820;
652--840;
653--671;
654--790;
655--729;
656--800;
658--807;
660--833;
661--696;
662--671;
662--715;
663--794;
664--687;
664--848;
665--676;
665--681;
667--855;
668--669;
668--694;
668--828;
669--799;
669--802;
670--722;
670--867;
672--750;
673--768;
673--772;
675--752;
675--776;
676--774;
676--839;
677--791;
678--792;
679--738;
679--877;
681--774;
681--886;
682--751;
683--788;
684--695;
684--707;
685--839;
686--687;
687--731;
688--698;
688--756;
689--843;
690--705;
690--872;
691--757;
691--815;
691--845;
692--720;
692--747;
695--869;
696--775;
696--791;
697--790;
697--835;
698--806;
699--792;
701--715;
701--890;
703--837;
703--857;
704--750;
704--764;
705--710;
705--818;
706--787;
706--854;
707--860;
707--877;
708--782;
709--719;
709--750;
710--871;
711--788;
713--780;
713--887;
714--853;
716--809;
716--852;
717--831;
719--855;
720--852;
721--812;
722--819;
723--833;
725--747;
726--829;
726--862;
727--730;
728--818;
728--872;
729--794;
730--829;
730--863;
731--848;
732--762;
734--849;
735--736;
736--894;
738--843;
738--886;
739--765;
739--768;
740--773;
741--770;
741--843;
742--788;
743--780;
743--811;
743--887;
744--823;
744--833;
745--834;
746--759;
746--761;
747--852;
747--863;
748--809;
749--826;
749--843;
751--805;
751--893;
752--847;
753--794;
753--801;
754--794;
754--846;
755--856;
756--806;
757--870;
757--884;
758--774;
759--777;
760--881;
761--817;
761--882;
762--791;
762--821;
763--769;
763--822;
764--833;
765--846;
766--782;
766--883;
767--842;
769--853;
771--775;
772--806;
773--857;
774--845;
775--856;
775--875;
776--895;
776--896;
777--864;
778--782;
778--791;
778--820;
779--819;
780--829;
781--823;
781--833;
782--893;
783--877;
783--886;
784--789;
784--849;
785--810;
785--869;
788--875;
788--899;
790--804;
791--883;
792--800;
792--808;
793--795;
793--884;
795--849;
796--847;
796--852;
796--876;
797--806;
797--837;
798--834;
800--871;
800--892;
801--810;
802--847;
803--834;
803--875;
805--822;
806--891;
807--814;
808--855;
808--896;
811--813;
812--838;
813--831;
813--878;
814--858;
814--890;
815--884;
816--864;
818--824;
819--889;
820--865;
820--888;
822--893;
823--881;
823--894;
824--858;
824--872;
825--859;
826--861;
827--836;
827--852;
828--847;
828--878;
833--894;
835--838;
836--876;
836--879;
840--866;
840--874;
840--888;
841--885;
842--848;
842--885;
844--851;
846--863;
847--895;
851--867;
852--878;
854--858;
854--885;
855--871;
856--888;
857--879;
859--898;
864--891;
868--873;
870--882;
872--881;
879--892;
880--897;
}
