Graph D {
overlap = false;
0 [ pos = "3.10343,1.40721!"]
1 [ pos = "6.1919,9.20499!"]
2 [ pos = "6.18,0.521867!"]
3 [ pos = "3.99243,3.81756!"]
4 [ pos = "1.92358,6.98843!"]
5 [ pos = "9.52574,5.02731!"]
6 [ pos = "2.01483,9.94751!"]
7 [ pos = "0.99765,3.37168!"]
8 [ pos = "7.25761,8.34529!"]
9 [ pos = "8.97519,3.64422!"]
10 [ pos = "5.76067,8.21955!"]
11 [ pos = "4.99649,9.48302!"]
12 [ pos = "1.95532,4.05011!"]
13 [ pos = "4.92172,6.56514!"]
14 [ pos = "3.72326,9.83398!"]
15 [ pos = "2.88247,4.31532!"]
16 [ pos = "1.73925,5.07767!"]
17 [ pos = "7.65465,8.15088!"]
18 [ pos = "4.28785,3.43852!"]
19 [ pos = "5.95752,6.26514!"]
20 [ pos = "8.56441,8.46736!"]
21 [ pos = "7.81945,3.02194!"]
22 [ pos = "2.07282,3.12326!"]
23 [ pos = "9.02066,1.4359!"]
24 [ pos = "1.42399,8.65841!"]
25 [ pos = "5.94867,6.21723!"]
26 [ pos = "6.86911,5.34989!"]
27 [ pos = "0.260628,2.71798!"]
28 [ pos = "5.53453,3.69091!"]
29 [ pos = "5.76067,2.04505!"]
30 [ pos = "0.802026,1.21769!"]
31 [ pos = "9.13602,4.897!"]
32 [ pos = "5.83239,8.45668!"]
33 [ pos = "0.916471,2.56325!"]
34 [ pos = "2.15308,8.74844!"]
35 [ pos = "4.42824,9.23856!"]
36 [ pos = "5.72924,2.18665!"]
37 [ pos = "9.92187,1.62786!"]
38 [ pos = "9.28037,4.87503!"]
39 [ pos = "9.66308,5.98163!"]
40 [ pos = "7.05802,2.36854!"]
41 [ pos = "8.858,5.44053!"]
42 [ pos = "3.0723,1.82958!"]
43 [ pos = "8.07855,8.1814!"]
44 [ pos = "2.14423,2.27149!"]
45 [ pos = "6.63686,5.54247!"]
46 [ pos = "1.37577,7.60887!"]
47 [ pos = "4.33241,5.33464!"]
48 [ pos = "3.94971,4.27778!"]
49 [ pos = "2.45918,5.1854!"]
50 [ pos = "3.83435,5.21256!"]
51 [ pos = "5.13718,0.228889!"]
52 [ pos = "5.21378,6.19861!"]
53 [ pos = "0.170293,5.01785!"]
54 [ pos = "0.571917,0.336314!"]
55 [ pos = "6.00635,7.45415!"]
56 [ pos = "2.54067,2.7665!"]
57 [ pos = "9.19462,9.02707!"]
58 [ pos = "3.16507,2.21168!"]
59 [ pos = "6.30024,7.00644!"]
60 [ pos = "6.36372,9.494!"]
61 [ pos = "6.74215,6.67013!"]
62 [ pos = "1.33457,7.27622!"]
63 [ pos = "9.76531,1.43406!"]
64 [ pos = "2.72622,1.07639!"]
65 [ pos = "0.971404,2.13813!"]
66 [ pos = "3.80016,0.36256!"]
67 [ pos = "2.74239,9.95056!"]
68 [ pos = "7.81732,1.5421!"]
69 [ pos = "9.79827,6.68203!"]
70 [ pos = "6.72994,3.09824!"]
71 [ pos = "7.24387,7.95831!"]
72 [ pos = "1.19633,8.31935!"]
73 [ pos = "5.03189,4.944!"]
74 [ pos = "8.22779,4.19385!"]
75 [ pos = "1.07883,5.42467!"]
76 [ pos = "8.64986,7.42271!"]
77 [ pos = "6.53737,1.23203!"]
78 [ pos = "2.29041,1.32023!"]
79 [ pos = "2.21656,2.53822!"]
80 [ pos = "0.612506,1.93793!"]
81 [ pos = "6.09912,6.67257!"]
82 [ pos = "0.679342,9.25047!"]
83 [ pos = "9.57732,6.08905!"]
84 [ pos = "7.09281,0.995209!"]
85 [ pos = "5.68224,3.17606!"]
86 [ pos = "6.13392,3.95856!"]
87 [ pos = "7.4337,5.00992!"]
88 [ pos = "5.03983,1.4182!"]
89 [ pos = "9.77599,5.16282!"]
90 [ pos = "5.37492,7.36778!"]
91 [ pos = "5.61663,8.51527!"]
92 [ pos = "9.08933,9.23673!"]
93 [ pos = "6.50349,4.97421!"]
94 [ pos = "5.32853,2.42409!"]
95 [ pos = "2.70669,5.27329!"]
96 [ pos = "1.62511,3.249!"]
97 [ pos = "7.19413,2.91726!"]
98 [ pos = "1.01108,3.19529!"]
99 [ pos = "4.40107,7.05435!"]
100 [ pos = "3.09732,7.82495!"]
101 [ pos = "9.09421,7.87286!"]
102 [ pos = "8.51161,9.67284!"]
103 [ pos = "4.24574,5.2852!"]
104 [ pos = "8.52779,7.13248!"]
105 [ pos = "0.913114,9.40855!"]
106 [ pos = "1.50731,1.96966!"]
107 [ pos = "8.91781,3.95428!"]
108 [ pos = "1.14689,7.97754!"]
109 [ pos = "5.89099,7.33299!"]
110 [ pos = "4.756,3.6024!"]
111 [ pos = "5.244,7.30155!"]
112 [ pos = "9.09818,3.44615!"]
113 [ pos = "2.06702,9.63134!"]
114 [ pos = "2.99448,8.53816!"]
115 [ pos = "1.14933,5.72771!"]
116 [ pos = "6.14216,4.53505!"]
117 [ pos = "4.4499,4.71084!"]
118 [ pos = "8.68801,1.70263!"]
119 [ pos = "7.71447,8.3694!"]
120 [ pos = "2.30781,1.95471!"]
121 [ pos = "8.764,8.90957!"]
122 [ pos = "7.06046,7.63146!"]
123 [ pos = "4.53566,5.76708!"]
124 [ pos = "5.41734,5.29984!"]
125 [ pos = "1.46886,5.18693!"]
126 [ pos = "1.85308,6.95212!"]
127 [ pos = "5.57512,1.06967!"]
128 [ pos = "9.43083,1.76824!"]
129 [ pos = "5.73443,3.95093!"]
130 [ pos = "0.23896,5.38804!"]
131 [ pos = "7.68303,3.2136!"]
132 [ pos = "0.541704,1.61901!"]
133 [ pos = "8.06055,1.94586!"]
134 [ pos = "0.335398,4.9675!"]
135 [ pos = "8.98648,0.508744!"]
136 [ pos = "6.96982,2.55531!"]
137 [ pos = "5.22965,0.149236!"]
138 [ pos = "9.75494,2.12775!"]
139 [ pos = "9.32646,8.07489!"]
140 [ pos = "3.37352,0.222175!"]
141 [ pos = "6.27674,6.60604!"]
142 [ pos = "8.62331,2.40181!"]
143 [ pos = "9.9353,7.56096!"]
144 [ pos = "5.83941,7.00339!"]
145 [ pos = "9.1699,5.14267!"]
146 [ pos = "5.51378,6.3744!"]
147 [ pos = "4.53902,2.5895!"]
148 [ pos = "8.36543,6.30757!"]
149 [ pos = "6.88131,5.89953!"]
150 [ pos = "9.72564,6.59322!"]
151 [ pos = "9.07254,8.35994!"]
152 [ pos = "6.79373,4.52956!"]
153 [ pos = "2.54341,8.61476!"]
154 [ pos = "8.34651,0.129093!"]
155 [ pos = "2.1952,8.84762!"]
156 [ pos = "1.11759,7.87622!"]
157 [ pos = "8.37367,4.60128!"]
158 [ pos = "1.54118,6.4629!"]
159 [ pos = "3.79772,0.0418104!"]
160 [ pos = "2.10669,6.24134!"]
161 [ pos = "8.05445,8.3517!"]
162 [ pos = "4.49873,5.39537!"]
163 [ pos = "3.67992,2.65481!"]
164 [ pos = "3.18522,1.31993!"]
165 [ pos = "7.26188,4.70962!"]
166 [ pos = "9.47539,4.66353!"]
167 [ pos = "7.59636,2.73843!"]
168 [ pos = "3.502,1.14841!"]
169 [ pos = "2.02124,2.54585!"]
170 [ pos = "6.37593,1.95013!"]
171 [ pos = "2.84951,3.65246!"]
172 [ pos = "3.13028,8.25678!"]
173 [ pos = "9.58739,0.874966!"]
174 [ pos = "5.30564,0.977813!"]
175 [ pos = "0.623798,7.8161!"]
176 [ pos = "6.33198,3.62255!"]
177 [ pos = "1.52593,8.35139!"]
178 [ pos = "9.53337,6.36952!"]
179 [ pos = "7.24387,1.68188!"]
180 [ pos = "3.82794,3.61461!"]
181 [ pos = "3.6964,2.08075!"]
182 [ pos = "2.30079,6.96799!"]
183 [ pos = "1.54454,2.37129!"]
184 [ pos = "0.00793481,2.10913!"]
185 [ pos = "2.81106,6.68752!"]
186 [ pos = "5.91937,2.30018!"]
187 [ pos = "0.546281,9.40458!"]
188 [ pos = "6.0213,4.97116!"]
189 [ pos = "4.26588,9.57183!"]
190 [ pos = "6.58742,1.87201!"]
191 [ pos = "0.614032,9.97101!"]
192 [ pos = "4.68062,9.08811!"]
193 [ pos = "0.929289,3.29478!"]
194 [ pos = "3.36772,1.98431!"]
195 [ pos = "6.29536,1.16611!"]
196 [ pos = "8.12464,3.137!"]
197 [ pos = "7.57439,1.03397!"]
198 [ pos = "4.76577,9.75433!"]
199 [ pos = "4.01807,7.64519!"]
200 [ pos = "4.1673,2.28401!"]
201 [ pos = "0.641804,6.03839!"]
202 [ pos = "1.33854,9.03287!"]
203 [ pos = "2.84402,8.1167!"]
204 [ pos = "2.27943,3.99182!"]
205 [ pos = "8.02667,1.02603!"]
206 [ pos = "7.77947,7.90246!"]
207 [ pos = "9.45647,9.12931!"]
208 [ pos = "5.13443,7.12943!"]
209 [ pos = "8.56655,8.4637!"]
210 [ pos = "2.91177,2.44728!"]
211 [ pos = "9.57396,9.57518!"]
212 [ pos = "6.65914,1.5714!"]
213 [ pos = "5.92822,7.65709!"]
214 [ pos = "1.03092,6.47664!"]
215 [ pos = "2.97983,4.35652!"]
216 [ pos = "2.52541,0.472121!"]
217 [ pos = "6.57582,9.60082!"]
218 [ pos = "3.02957,1.89581!"]
219 [ pos = "4.35194,0.648518!"]
220 [ pos = "4.02234,2.40272!"]
221 [ pos = "6.50685,5.51592!"]
222 [ pos = "0.748619,9.40794!"]
223 [ pos = "7.07694,5.19944!"]
224 [ pos = "1.24149,5.53972!"]
225 [ pos = "6.44642,0.0183111!"]
226 [ pos = "2.98624,4.23475!"]
227 [ pos = "2.24525,6.09882!"]
228 [ pos = "6.51967,1.09043!"]
229 [ pos = "0.186468,4.85305!"]
230 [ pos = "6.60512,6.54622!"]
231 [ pos = "0.00732444,7.46269!"]
232 [ pos = "4.07056,8.14753!"]
233 [ pos = "5.75671,4.13038!"]
234 [ pos = "1.17374,1.28239!"]
235 [ pos = "5.4796,0.458693!"]
236 [ pos = "6.74673,7.15232!"]
237 [ pos = "4.11237,7.00858!"]
238 [ pos = "0.583209,7.05954!"]
239 [ pos = "6.39058,9.12473!"]
240 [ pos = "5.86688,4.16211!"]
241 [ pos = "5.03525,8.74874!"]
242 [ pos = "0.0711081,8.84335!"]
243 [ pos = "4.65133,4.40077!"]
244 [ pos = "5.04898,3.10495!"]
245 [ pos = "4.92203,6.09241!"]
246 [ pos = "2.09449,4.08155!"]
247 [ pos = "9.04019,4.83047!"]
248 [ pos = "3.98144,8.21039!"]
249 [ pos = "6.15986,7.88842!"]
250 [ pos = "9.48851,6.98019!"]
251 [ pos = "1.18778,7.35282!"]
252 [ pos = "3.07749,3.80108!"]
253 [ pos = "2.76955,6.91366!"]
254 [ pos = "9.34538,0.61037!"]
255 [ pos = "2.05023,6.6335!"]
256 [ pos = "4.94125,3.64086!"]
257 [ pos = "2.00568,3.82275!"]
258 [ pos = "6.05731,1.53844!"]
259 [ pos = "1.05899,6.36647!"]
260 [ pos = "3.59264,7.01407!"]
261 [ pos = "6.60085,9.16166!"]
262 [ pos = "6.95395,6.65792!"]
263 [ pos = "5.13199,0.987274!"]
264 [ pos = "7.37907,3.73608!"]
265 [ pos = "7.34367,4.38795!"]
266 [ pos = "8.97519,6.92038!"]
267 [ pos = "9.73815,1.23356!"]
268 [ pos = "6.51936,5.27421!"]
269 [ pos = "0.673849,7.83288!"]
270 [ pos = "9.81841,7.64611!"]
271 [ pos = "9.19797,1.9892!"]
272 [ pos = "1.2125,4.17127!"]
273 [ pos = "0.987884,6.53798!"]
274 [ pos = "1.99499,0.105899!"]
275 [ pos = "8.41182,5.85406!"]
276 [ pos = "1.25126,8.95535!"]
277 [ pos = "2.33497,9.91363!"]
278 [ pos = "3.23405,4.05774!"]
279 [ pos = "3.19926,0.870998!"]
280 [ pos = "3.07505,6.72689!"]
281 [ pos = "9.19736,6.14795!"]
282 [ pos = "1.67058,5.92944!"]
283 [ pos = "1.442,5.85253!"]
284 [ pos = "5.20554,0.609149!"]
285 [ pos = "1.04038,7.30796!"]
286 [ pos = "9.25962,2.33345!"]
287 [ pos = "2.21198,1.74108!"]
288 [ pos = "7.99463,4.24879!"]
289 [ pos = "0.319224,4.07025!"]
290 [ pos = "1.84545,3.60027!"]
291 [ pos = "5.07767,2.44484!"]
292 [ pos = "8.6285,0.553606!"]
293 [ pos = "8.63063,6.01794!"]
294 [ pos = "9.3347,7.02048!"]
295 [ pos = "6.77236,3.5786!"]
296 [ pos = "7.32322,6.85995!"]
297 [ pos = "0.69277,8.43959!"]
298 [ pos = "4.39772,4.47859!"]
299 [ pos = "7.41356,2.55745!"]
300 [ pos = "5.64837,3.70708!"]
301 [ pos = "0.853298,1.57292!"]
302 [ pos = "3.14798,4.17158!"]
303 [ pos = "3.46141,8.47316!"]
304 [ pos = "2.91726,9.42015!"]
305 [ pos = "1.79388,3.2252!"]
306 [ pos = "6.22974,1.09622!"]
307 [ pos = "9.60234,5.19242!"]
308 [ pos = "1.58177,7.67418!"]
309 [ pos = "0.137638,0.710166!"]
310 [ pos = "3.75286,5.99261!"]
311 [ pos = "6.74398,6.11835!"]
312 [ pos = "7.56767,0.23835!"]
313 [ pos = "8.63491,3.03873!"]
314 [ pos = "2.5132,7.43278!"]
315 [ pos = "8.31568,4.04523!"]
316 [ pos = "6.48854,2.08228!"]
317 [ pos = "9.6173,9.30326!"]
318 [ pos = "8.93612,6.74184!"]
319 [ pos = "2.05176,4.55367!"]
320 [ pos = "1.6776,1.03244!"]
321 [ pos = "9.41282,4.18683!"]
322 [ pos = "6.17908,0.43733!"]
323 [ pos = "9.45524,6.37288!"]
324 [ pos = "4.97391,9.16837!"]
325 [ pos = "8.40236,6.54286!"]
326 [ pos = "8.83358,9.87762!"]
327 [ pos = "0.120853,7.15751!"]
328 [ pos = "6.19495,8.14142!"]
329 [ pos = "6.40828,1.97577!"]
330 [ pos = "3.66008,2.80221!"]
331 [ pos = "3.11319,8.10968!"]
332 [ pos = "2.24586,5.61266!"]
333 [ pos = "8.10541,5.36546!"]
334 [ pos = "9.79827,6.45741!"]
335 [ pos = "2.57759,5.88763!"]
336 [ pos = "1.789,4.98459!"]
337 [ pos = "8.1341,4.26771!"]
338 [ pos = "6.88437,6.98721!"]
339 [ pos = "9.78332,5.23545!"]
340 [ pos = "6.41957,5.6267!"]
341 [ pos = "0.613117,9.13419!"]
342 [ pos = "4.51827,4.78591!"]
343 [ pos = "8.77346,0.77456!"]
344 [ pos = "4.28266,5.7738!"]
345 [ pos = "2.73171,1.28361!"]
346 [ pos = "1.51555,0.491653!"]
347 [ pos = "7.82159,1.39195!"]
348 [ pos = "7.06992,5.28855!"]
349 [ pos = "7.11081,4.5674!"]
350 [ pos = "8.38221,1.31352!"]
351 [ pos = "3.87158,5.66393!"]
352 [ pos = "6.33045,0.474563!"]
353 [ pos = "2.62276,1.6596!"]
354 [ pos = "1.44719,2.37892!"]
355 [ pos = "2.15766,1.75146!"]
356 [ pos = "0.0384533,8.1283!"]
357 [ pos = "8.35505,0.918912!"]
358 [ pos = "2.09754,2.78512!"]
359 [ pos = "8.18384,0.207831!"]
360 [ pos = "5.34959,1.01596!"]
361 [ pos = "0.404675,4.75021!"]
362 [ pos = "9.54314,1.04953!"]
363 [ pos = "4.25642,3.13181!"]
364 [ pos = "8.48781,1.96448!"]
365 [ pos = "6.19678,5.40849!"]
366 [ pos = "0.557878,9.63805!"]
367 [ pos = "7.75475,8.10755!"]
368 [ pos = "7.69829,8.75271!"]
369 [ pos = "6.00177,9.18394!"]
370 [ pos = "4.62996,3.26487!"]
371 [ pos = "3.32682,0.365307!"]
372 [ pos = "0.204474,6.99026!"]
373 [ pos = "6.35609,4.89944!"]
374 [ pos = "7.95923,0.650044!"]
375 [ pos = "6.19892,1.60558!"]
376 [ pos = "9.10642,3.17423!"]
377 [ pos = "5.05997,7.66686!"]
378 [ pos = "4.74013,4.42!"]
379 [ pos = "8.78536,8.91598!"]
380 [ pos = "1.15635,5.10788!"]
381 [ pos = "2.44484,3.82977!"]
382 [ pos = "9.16807,8.83999!"]
383 [ pos = "7.78649,2.22785!"]
384 [ pos = "1.35441,1.86865!"]
385 [ pos = "8.59981,8.03949!"]
386 [ pos = "6.6036,0.0671407!"]
387 [ pos = "3.96405,3.74432!"]
388 [ pos = "5.29496,0.517289!"]
389 [ pos = "1.23997,8.3929!"]
390 [ pos = "7.33818,8.61263!"]
391 [ pos = "1.77831,7.77612!"]
392 [ pos = "5.20463,1.73101!"]
393 [ pos = "3.91095,0.578631!"]
394 [ pos = "1.38981,8.69076!"]
395 [ pos = "1.07517,4.42824!"]
396 [ pos = "0.611286,1.54942!"]
397 [ pos = "9.20743,6.96402!"]
398 [ pos = "7.77795,4.16028!"]
399 [ pos = "8.01386,5.56993!"]
400 [ pos = "9.57854,1.4246!"]
401 [ pos = "6.70309,1.55522!"]
402 [ pos = "6.70064,5.72771!"]
403 [ pos = "7.41874,6.5276!"]
404 [ pos = "1.44078,3.75408!"]
405 [ pos = "0.274361,6.78335!"]
406 [ pos = "8.06726,9.11039!"]
407 [ pos = "3.74493,1.93823!"]
408 [ pos = "6.98782,5.09384!"]
409 [ pos = "4.50362,3.03537!"]
410 [ pos = "4.81094,8.84426!"]
411 [ pos = "2.84494,9.20164!"]
412 [ pos = "7.01743,4.23353!"]
413 [ pos = "4.85488,6.88375!"]
414 [ pos = "4.42549,7.42302!"]
415 [ pos = "1.72308,7.96381!"]
416 [ pos = "5.21439,7.32231!"]
417 [ pos = "1.30558,8.93887!"]
418 [ pos = "7.163,4.45723!"]
419 [ pos = "8.46583,9.07743!"]
420 [ pos = "6.27766,7.23167!"]
421 [ pos = "0.121464,7.27165!"]
422 [ pos = "4.32752,5.54003!"]
423 [ pos = "9.5352,1.4713!"]
424 [ pos = "5.24003,9.3466!"]
425 [ pos = "3.4666,7.34001!"]
426 [ pos = "5.10636,5.50798!"]
427 [ pos = "6.61397,0.365307!"]
428 [ pos = "8.91751,0.967132!"]
429 [ pos = "1.52898,4.35499!"]
430 [ pos = "5.37187,5.78326!"]
431 [ pos = "0.188299,5.27421!"]
432 [ pos = "5.42467,6.51448!"]
433 [ pos = "6.8572,9.02615!"]
434 [ pos = "6.89291,0.48616!"]
435 [ pos = "2.05603,1.22868!"]
436 [ pos = "2.69417,5.72069!"]
437 [ pos = "5.58824,2.62459!"]
438 [ pos = "0.396741,1.00375!"]
439 [ pos = "3.94818,1.66356!"]
440 [ pos = "1.93762,6.9985!"]
441 [ pos = "5.25956,2.29926!"]
442 [ pos = "0.914945,3.70342!"]
443 [ pos = "4.45204,6.3976!"]
444 [ pos = "6.98386,3.17087!"]
445 [ pos = "3.88958,2.5837!"]
446 [ pos = "8.84976,0.478835!"]
447 [ pos = "1.42186,3.15195!"]
448 [ pos = "5.43687,1.75451!"]
449 [ pos = "0.0155644,4.03272!"]
450 [ pos = "5.20249,6.81539!"]
451 [ pos = "2.0661,6.03931!"]
452 [ pos = "2.5837,6.97958!"]
453 [ pos = "8.37611,4.9263!"]
454 [ pos = "4.40138,7.06168!"]
455 [ pos = "7.89697,9.46471!"]
456 [ pos = "3.99792,5.73504!"]
457 [ pos = "0.925016,6.9747!"]
458 [ pos = "3.1608,1.59673!"]
459 [ pos = "6.72964,0.872829!"]
460 [ pos = "7.76818,4.62874!"]
461 [ pos = "7.86676,0.968047!"]
462 [ pos = "8.81558,5.57909!"]
463 [ pos = "8.92453,0.782189!"]
464 [ pos = "2.2953,0.347301!"]
465 [ pos = "8.39503,3.30302!"]
466 [ pos = "5.56505,3.96405!"]
467 [ pos = "0.0488296,3.53893!"]
468 [ pos = "0.592975,0.504776!"]
469 [ pos = "5.83056,9.32615!"]
470 [ pos = "2.06458,2.48024!"]
471 [ pos = "7.15751,7.2335!"]
472 [ pos = "7.03024,7.16727!"]
473 [ pos = "6.83737,4.43068!"]
474 [ pos = "8.80245,9.24894!"]
475 [ pos = "0.868557,6.21448!"]
476 [ pos = "7.45048,0.237434!"]
477 [ pos = "9.40977,8.84732!"]
478 [ pos = "8.69808,6.73544!"]
479 [ pos = "0.434584,4.63607!"]
480 [ pos = "8.6111,2.89743!"]
481 [ pos = "9.3173,7.05985!"]
482 [ pos = "9.36308,8.72188!"]
483 [ pos = "3.98206,4.48103!"]
484 [ pos = "7.87317,6.28224!"]
485 [ pos = "9.69237,7.79015!"]
486 [ pos = "0.457778,1.9834!"]
487 [ pos = "1.11881,6.49007!"]
488 [ pos = "9.08414,5.58153!"]
489 [ pos = "3.45195,5.48631!"]
490 [ pos = "4.58388,7.36503!"]
491 [ pos = "0.0915555,7.44224!"]
492 [ pos = "5.58947,4.75814!"]
493 [ pos = "3.2371,9.25199!"]
494 [ pos = "5.14817,9.93194!"]
495 [ pos = "6.6805,2.219!"]
496 [ pos = "6.31123,2.06153!"]
497 [ pos = "8.56014,0.154729!"]
498 [ pos = "9.63958,2.89682!"]
499 [ pos = "7.02017,4.0904!"]
500 [ pos = "5.82842,3.53404!"]
501 [ pos = "4.84634,2.85104!"]
502 [ pos = "1.74993,5.00229!"]
503 [ pos = "1.53417,1.66326!"]
504 [ pos = "4.40107,6.69118!"]
505 [ pos = "4.05805,2.46376!"]
506 [ pos = "0.784326,6.0448!"]
507 [ pos = "2.17139,5.92456!"]
508 [ pos = "8.87326,1.56407!"]
509 [ pos = "1.58818,2.65419!"]
510 [ pos = "1.78991,0.233161!"]
511 [ pos = "0.126347,5.82202!"]
512 [ pos = "0.388806,1.29551!"]
513 [ pos = "9.11008,5.81957!"]
514 [ pos = "4.84695,2.06793!"]
515 [ pos = "6.24226,5.81622!"]
516 [ pos = "9.86755,9.47295!"]
517 [ pos = "8.07184,1.35807!"]
518 [ pos = "6.9573,4.42457!"]
519 [ pos = "1.26926,3.84381!"]
520 [ pos = "7.16514,6.38386!"]
521 [ pos = "3.5255,2.94046!"]
522 [ pos = "4.96872,3.53252!"]
523 [ pos = "8.18201,3.12723!"]
524 [ pos = "4.86862,1.39225!"]
525 [ pos = "2.97037,0.717795!"]
526 [ pos = "2.97006,0.537736!"]
527 [ pos = "3.72723,6.27094!"]
528 [ pos = "2.65481,3.60759!"]
529 [ pos = "9.90875,9.41343!"]
530 [ pos = "2.59896,4.33302!"]
531 [ pos = "1.40416,5.07828!"]
532 [ pos = "3.15317,8.04773!"]
533 [ pos = "6.79342,8.22718!"]
534 [ pos = "9.6942,5.34501!"]
535 [ pos = "3.05307,4.53078!"]
536 [ pos = "5.24979,9.47447!"]
537 [ pos = "7.05649,3.49651!"]
538 [ pos = "5.73595,4.96719!"]
539 [ pos = "1.2476,4.36384!"]
540 [ pos = "5.77136,1.09317!"]
541 [ pos = "0.910978,0.0473037!"]
542 [ pos = "7.50816,0.325327!"]
543 [ pos = "9.67467,6.67776!"]
544 [ pos = "5.48509,0.305795!"]
545 [ pos = "4.60646,2.17505!"]
546 [ pos = "3.41899,9.05942!"]
547 [ pos = "3.68755,3.02072!"]
548 [ pos = "0.351878,8.69747!"]
549 [ pos = "7.82891,0.189215!"]
550 [ pos = "9.92248,3.81542!"]
551 [ pos = "8.2284,9.38505!"]
552 [ pos = "3.97137,8.4521!"]
553 [ pos = "8.93582,3.46599!"]
554 [ pos = "6.47114,1.13224!"]
555 [ pos = "5.29466,2.54524!"]
556 [ pos = "2.15613,2.38014!"]
557 [ pos = "2.70791,5.93982!"]
558 [ pos = "2.44545,4.40718!"]
559 [ pos = "8.14875,6.18824!"]
560 [ pos = "5.57268,9.74944!"]
561 [ pos = "0.309458,4.97238!"]
562 [ pos = "4.4908,5.63341!"]
563 [ pos = "4.44929,0.259407!"]
564 [ pos = "1.38371,5.09812!"]
565 [ pos = "6.14154,9.54344!"]
566 [ pos = "7.70165,5.59526!"]
567 [ pos = "5.50066,1.97607!"]
568 [ pos = "9.83703,2.23273!"]
569 [ pos = "1.27934,8.68801!"]
570 [ pos = "9.09421,7.20573!"]
571 [ pos = "3.79894,1.92999!"]
572 [ pos = "6.72658,0.580157!"]
573 [ pos = "8.17713,6.13178!"]
574 [ pos = "6.79739,1.67699!"]
575 [ pos = "6.0683,3.73394!"]
576 [ pos = "7.67632,6.0976!"]
577 [ pos = "6.33168,2.05176!"]
578 [ pos = "3.40739,2.21229!"]
579 [ pos = "3.97198,0.633564!"]
580 [ pos = "5.1735,3.91491!"]
581 [ pos = "3.58928,7.90368!"]
582 [ pos = "6.93899,4.90036!"]
583 [ pos = "9.68902,7.53502!"]
584 [ pos = "4.29548,4.90829!"]
585 [ pos = "2.78573,5.25407!"]
586 [ pos = "7.80969,1.50945!"]
587 [ pos = "8.53755,1.87506!"]
588 [ pos = "8.06513,3.38359!"]
589 [ pos = "8.4048,4.55336!"]
590 [ pos = "5.30045,3.8612!"]
591 [ pos = "5.84033,1.78198!"]
592 [ pos = "8.37214,8.06146!"]
593 [ pos = "2.94351,4.78866!"]
594 [ pos = "1.92328,4.47157!"]
595 [ pos = "0.21485,4.95437!"]
596 [ pos = "3.39854,3.55022!"]
597 [ pos = "7.67418,9.95178!"]
598 [ pos = "9.13938,3.15348!"]
599 [ pos = "0.475478,6.70186!"]
600 [ pos = "7.4868,4.49568!"]
601 [ pos = "7.48589,3.26029!"]
602 [ pos = "2.85806,4.2613!"]
603 [ pos = "8.33796,0.583819!"]
604 [ pos = "4.38276,9.5938!"]
605 [ pos = "4.4966,5.07462!"]
606 [ pos = "2.16468,4.26679!"]
607 [ pos = "4.10993,0.0842311!"]
608 [ pos = "9.80193,7.65252!"]
609 [ pos = "0.122684,5.43748!"]
610 [ pos = "9.70214,4.35652!"]
611 [ pos = "7.56218,4.7557!"]
612 [ pos = "4.24177,2.8956!"]
613 [ pos = "0.292673,7.18436!"]
614 [ pos = "7.15476,7.73522!"]
615 [ pos = "1.15635,9.27763!"]
616 [ pos = "1.99194,1.68798!"]
617 [ pos = "3.49162,0.556963!"]
618 [ pos = "4.26466,6.32221!"]
619 [ pos = "7.82891,8.85861!"]
620 [ pos = "7.27012,7.87683!"]
621 [ pos = "6.32801,5.25773!"]
622 [ pos = "4.82284,6.53432!"]
623 [ pos = "0.51088,9.42778!"]
624 [ pos = "3.42387,8.93307!"]
625 [ pos = "6.30451,0.881069!"]
626 [ pos = "8.06818,8.83297!"]
627 [ pos = "5.57421,6.0448!"]
628 [ pos = "6.13849,0.0808741!"]
629 [ pos = "6.4861,1.66601!"]
630 [ pos = "8.93582,0.731834!"]
631 [ pos = "7.39006,7.97296!"]
632 [ pos = "6.58498,8.60408!"]
633 [ pos = "1.7478,6.49861!"]
634 [ pos = "5.59008,7.94824!"]
635 [ pos = "6.19007,3.84808!"]
636 [ pos = "5.44633,5.51317!"]
637 [ pos = "1.29307,0.105594!"]
638 [ pos = "7.68029,3.38481!"]
639 [ pos = "6.41499,5.38438!"]
640 [ pos = "3.76324,6.76565!"]
641 [ pos = "7.13034,6.38203!"]
642 [ pos = "3.75561,8.6346!"]
643 [ pos = "7.73675,3.05033!"]
644 [ pos = "1.52867,1.22379!"]
645 [ pos = "3.1901,9.77721!"]
646 [ pos = "1.27995,7.68822!"]
647 [ pos = "5.94867,2.15888!"]
648 [ pos = "9.97925,7.53868!"]
649 [ pos = "4.78103,5.69201!"]
650 [ pos = "7.67998,7.5399!"]
651 [ pos = "5.90167,2.79946!"]
652 [ pos = "8.50978,7.14591!"]
653 [ pos = "3.05673,5.81408!"]
654 [ pos = "5.86444,5.37309!"]
655 [ pos = "3.68145,2.06153!"]
656 [ pos = "2.16132,5.56413!"]
657 [ pos = "4.19874,9.33134!"]
658 [ pos = "2.65908,7.0159!"]
659 [ pos = "0.211493,1.97546!"]
660 [ pos = "0.606708,9.18027!"]
661 [ pos = "7.98517,5.96393!"]
662 [ pos = "3.58318,6.35517!"]
663 [ pos = "3.46751,1.61687!"]
664 [ pos = "4.58022,9.71221!"]
665 [ pos = "5.44939,1.74932!"]
666 [ pos = "2.41462,0.392468!"]
667 [ pos = "1.49419,6.80807!"]
668 [ pos = "0.686666,3.5316!"]
669 [ pos = "0.302438,3.51817!"]
670 [ pos = "8.9761,9.63439!"]
671 [ pos = "3.40953,5.85223!"]
672 [ pos = "0.525529,8.04315!"]
673 [ pos = "3.81573,2.99844!"]
674 [ pos = "3.58318,8.50063!"]
675 [ pos = "0.586566,4.7441!"]
676 [ pos = "5.06973,2.29469!"]
677 [ pos = "7.846,6.49007!"]
678 [ pos = "1.58818,5.44115!"]
679 [ pos = "5.19578,0.288095!"]
680 [ pos = "0.235908,4.0202!"]
681 [ pos = "5.69414,1.03671!"]
682 [ pos = "6.46046,7.44591!"]
683 [ pos = "8.29981,4.56526!"]
684 [ pos = "4.58357,0.290231!"]
685 [ pos = "5.48387,3.04575!"]
686 [ pos = "4.8384,8.63704!"]
687 [ pos = "4.68551,9.18363!"]
688 [ pos = "5.07981,3.96802!"]
689 [ pos = "5.7445,0.282907!"]
690 [ pos = "1.99255,7.63176!"]
691 [ pos = "6.62526,2.75399!"]
692 [ pos = "1.86926,3.15012!"]
693 [ pos = "7.89178,3.18461!"]
694 [ pos = "1.13559,3.361!"]
695 [ pos = "3.74523,0.0244148!"]
696 [ pos = "7.98456,5.78539!"]
697 [ pos = "5.28764,6.42323!"]
698 [ pos = "5.01846,4.03363!"]
699 [ pos = "1.20029,6.11164!"]
0--42;
0--58;
0--64;
0--78;
0--120;
0--164;
0--168;
0--181;
0--194;
0--218;
0--279;
0--287;
0--345;
0--353;
0--407;
0--439;
0--458;
0--525;
0--526;
0--571;
0--578;
0--617;
0--655;
0--663;
1--32;
1--60;
1--91;
1--217;
1--239;
1--261;
1--369;
1--424;
1--433;
1--469;
1--536;
1--560;
1--565;
1--632;
2--77;
2--127;
2--174;
2--195;
2--225;
2--228;
2--235;
2--284;
2--306;
2--322;
2--352;
2--360;
2--386;
2--388;
2--427;
2--434;
2--459;
2--540;
2--544;
2--554;
2--572;
2--625;
2--628;
2--681;
2--689;
3--18;
3--48;
3--110;
3--180;
3--243;
3--252;
3--256;
3--278;
3--298;
3--302;
3--363;
3--370;
3--378;
3--387;
3--409;
3--483;
3--521;
3--547;
3--596;
3--612;
3--673;
4--46;
4--62;
4--126;
4--158;
4--160;
4--182;
4--185;
4--227;
4--251;
4--253;
4--255;
4--285;
4--308;
4--314;
4--391;
4--415;
4--440;
4--451;
4--452;
4--457;
4--487;
4--633;
4--646;
4--658;
4--667;
4--690;
5--31;
5--38;
5--39;
5--41;
5--89;
5--145;
5--166;
5--247;
5--307;
5--321;
5--339;
5--462;
5--488;
5--513;
5--534;
5--610;
6--67;
6--113;
6--277;
7--27;
7--33;
7--96;
7--98;
7--193;
7--272;
7--289;
7--290;
7--305;
7--404;
7--442;
7--447;
7--467;
7--509;
7--519;
7--668;
7--669;
7--692;
7--694;
8--17;
8--43;
8--71;
8--119;
8--122;
8--161;
8--206;
8--367;
8--368;
8--390;
8--433;
8--533;
8--614;
8--619;
8--620;
8--626;
8--631;
8--632;
8--650;
9--74;
9--107;
9--112;
9--196;
9--313;
9--315;
9--321;
9--376;
9--465;
9--480;
9--523;
9--550;
9--553;
9--588;
9--598;
10--32;
10--55;
10--90;
10--91;
10--109;
10--213;
10--241;
10--249;
10--328;
10--369;
10--377;
10--632;
10--634;
11--35;
11--189;
11--192;
11--198;
11--241;
11--324;
11--410;
11--424;
11--469;
11--494;
11--536;
11--560;
11--604;
11--657;
11--664;
11--686;
11--687;
12--15;
12--22;
12--96;
12--171;
12--204;
12--246;
12--257;
12--272;
12--290;
12--305;
12--319;
12--336;
12--381;
12--395;
12--404;
12--429;
12--502;
12--519;
12--528;
12--530;
12--539;
12--558;
12--594;
12--602;
12--606;
12--692;
13--52;
13--90;
13--99;
13--111;
13--123;
13--146;
13--208;
13--237;
13--245;
13--413;
13--414;
13--416;
13--430;
13--432;
13--443;
13--450;
13--454;
13--490;
13--504;
13--618;
13--622;
13--627;
13--649;
13--697;
14--35;
14--67;
14--189;
14--304;
14--493;
14--546;
14--604;
14--624;
14--645;
14--657;
14--664;
15--49;
15--95;
15--171;
15--204;
15--215;
15--226;
15--246;
15--252;
15--278;
15--302;
15--319;
15--381;
15--528;
15--530;
15--535;
15--558;
15--585;
15--593;
15--594;
15--596;
15--602;
15--606;
16--49;
16--75;
16--95;
16--115;
16--125;
16--224;
16--282;
16--283;
16--319;
16--332;
16--336;
16--380;
16--395;
16--429;
16--502;
16--507;
16--531;
16--539;
16--558;
16--564;
16--594;
16--606;
16--656;
16--678;
17--20;
17--43;
17--71;
17--119;
17--122;
17--161;
17--206;
17--209;
17--367;
17--368;
17--385;
17--390;
17--533;
17--592;
17--614;
17--619;
17--620;
17--626;
17--631;
17--650;
18--48;
18--110;
18--147;
18--163;
18--180;
18--244;
18--256;
18--330;
18--363;
18--370;
18--387;
18--409;
18--445;
18--501;
18--521;
18--522;
18--547;
18--596;
18--612;
18--673;
18--688;
18--698;
19--25;
19--45;
19--52;
19--59;
19--61;
19--81;
19--141;
19--144;
19--146;
19--149;
19--221;
19--230;
19--311;
19--340;
19--365;
19--402;
19--430;
19--432;
19--450;
19--515;
19--627;
19--636;
19--639;
19--654;
19--697;
20--43;
20--57;
20--92;
20--101;
20--119;
20--121;
20--139;
20--151;
20--161;
20--206;
20--209;
20--367;
20--368;
20--379;
20--382;
20--385;
20--406;
20--419;
20--474;
20--477;
20--482;
20--551;
20--592;
20--619;
20--626;
21--97;
21--131;
21--136;
21--167;
21--196;
21--264;
21--299;
21--313;
21--383;
21--444;
21--465;
21--480;
21--523;
21--537;
21--588;
21--601;
21--638;
21--643;
21--693;
22--44;
22--56;
22--79;
22--96;
22--169;
22--171;
22--183;
22--204;
22--246;
22--257;
22--290;
22--305;
22--354;
22--358;
22--381;
22--404;
22--447;
22--470;
22--509;
22--528;
22--556;
22--692;
22--694;
23--37;
23--63;
23--118;
23--128;
23--135;
23--173;
23--254;
23--267;
23--271;
23--286;
23--292;
23--343;
23--350;
23--357;
23--362;
23--364;
23--400;
23--423;
23--428;
23--446;
23--463;
23--508;
23--517;
23--587;
23--630;
24--34;
24--72;
24--82;
24--105;
24--108;
24--155;
24--156;
24--177;
24--202;
24--276;
24--297;
24--308;
24--341;
24--389;
24--391;
24--394;
24--415;
24--417;
24--569;
24--615;
24--646;
24--660;
25--45;
25--52;
25--59;
25--61;
25--81;
25--141;
25--144;
25--146;
25--149;
25--221;
25--230;
25--311;
25--340;
25--365;
25--402;
25--430;
25--432;
25--450;
25--515;
25--627;
25--636;
25--639;
25--654;
25--697;
26--45;
26--87;
26--93;
26--149;
26--152;
26--165;
26--188;
26--221;
26--223;
26--268;
26--311;
26--340;
26--348;
26--349;
26--365;
26--373;
26--402;
26--408;
26--418;
26--473;
26--515;
26--518;
26--566;
26--582;
26--611;
26--621;
26--639;
27--33;
27--65;
27--80;
27--98;
27--184;
27--193;
27--467;
27--486;
27--659;
27--668;
27--669;
28--85;
28--86;
28--110;
28--129;
28--176;
28--233;
28--240;
28--244;
28--256;
28--300;
28--370;
28--466;
28--500;
28--522;
28--575;
28--580;
28--590;
28--635;
28--651;
28--685;
28--688;
28--698;
29--36;
29--88;
29--94;
29--127;
29--170;
29--186;
29--190;
29--258;
29--291;
29--316;
29--329;
29--375;
29--392;
29--437;
29--441;
29--448;
29--495;
29--496;
29--514;
29--540;
29--555;
29--567;
29--577;
29--591;
29--629;
29--647;
29--651;
29--665;
29--676;
30--54;
30--65;
30--80;
30--132;
30--234;
30--301;
30--309;
30--320;
30--384;
30--396;
30--438;
30--468;
30--486;
30--503;
30--512;
30--644;
30--659;
31--38;
31--41;
31--89;
31--107;
31--145;
31--157;
31--166;
31--247;
31--307;
31--321;
31--339;
31--453;
31--462;
31--488;
31--513;
31--534;
31--589;
31--610;
31--683;
32--91;
32--213;
32--239;
32--241;
32--249;
32--328;
32--369;
32--469;
32--533;
32--632;
32--634;
33--65;
33--80;
33--96;
33--98;
33--106;
33--183;
33--193;
33--301;
33--354;
33--384;
33--447;
33--486;
33--509;
33--659;
33--668;
33--694;
34--113;
34--114;
34--153;
34--155;
34--177;
34--202;
34--203;
34--276;
34--389;
34--394;
34--411;
34--415;
34--417;
34--569;
35--189;
35--192;
35--198;
35--241;
35--324;
35--410;
35--424;
35--494;
35--536;
35--552;
35--604;
35--642;
35--657;
35--664;
35--686;
35--687;
36--85;
36--94;
36--170;
36--186;
36--190;
36--258;
36--291;
36--316;
36--329;
36--375;
36--392;
36--437;
36--441;
36--448;
36--495;
36--496;
36--514;
36--555;
36--567;
36--577;
36--591;
36--629;
36--647;
36--651;
36--665;
36--676;
36--685;
37--63;
37--128;
37--138;
37--173;
37--267;
37--271;
37--286;
37--362;
37--400;
37--423;
37--568;
38--41;
38--89;
38--107;
38--145;
38--157;
38--166;
38--247;
38--307;
38--321;
38--339;
38--453;
38--462;
38--488;
38--513;
38--534;
38--589;
38--610;
39--41;
39--69;
39--83;
39--89;
39--145;
39--150;
39--178;
39--281;
39--307;
39--323;
39--334;
39--339;
39--462;
39--488;
39--513;
39--534;
39--543;
40--70;
40--97;
40--136;
40--167;
40--170;
40--179;
40--190;
40--212;
40--299;
40--316;
40--329;
40--383;
40--401;
40--444;
40--495;
40--496;
40--574;
40--577;
40--601;
40--629;
40--643;
40--691;
41--83;
41--89;
41--145;
41--148;
41--157;
41--166;
41--247;
41--275;
41--281;
41--293;
41--307;
41--333;
41--339;
41--399;
41--453;
41--462;
41--488;
41--513;
41--534;
41--573;
41--589;
41--696;
42--58;
42--64;
42--78;
42--120;
42--164;
42--168;
42--181;
42--194;
42--210;
42--218;
42--279;
42--287;
42--345;
42--353;
42--355;
42--407;
42--439;
42--458;
42--571;
42--578;
42--655;
42--663;
43--71;
43--76;
43--119;
43--161;
43--206;
43--209;
43--367;
43--368;
43--385;
43--390;
43--406;
43--419;
43--592;
43--619;
43--620;
43--626;
43--631;
43--650;
44--56;
44--78;
44--79;
44--106;
44--120;
44--169;
44--183;
44--210;
44--218;
44--287;
44--353;
44--354;
44--355;
44--358;
44--384;
44--470;
44--503;
44--509;
44--556;
44--616;
44--692;
45--87;
45--93;
45--149;
45--188;
45--221;
45--223;
45--268;
45--311;
45--340;
45--348;
45--365;
45--373;
45--402;
45--408;
45--515;
45--520;
45--582;
45--621;
45--639;
45--641;
45--654;
46--62;
46--72;
46--108;
46--126;
46--156;
46--175;
46--177;
46--238;
46--251;
46--269;
46--285;
46--308;
46--389;
46--391;
46--415;
46--440;
46--457;
46--646;
46--667;
46--672;
46--690;
47--50;
47--73;
47--103;
47--117;
47--123;
47--162;
47--243;
47--245;
47--298;
47--310;
47--342;
47--344;
47--351;
47--422;
47--426;
47--456;
47--483;
47--489;
47--562;
47--584;
47--605;
47--618;
47--649;
48--50;
48--117;
48--180;
48--215;
48--226;
48--243;
48--252;
48--278;
48--298;
48--302;
48--342;
48--378;
48--387;
48--483;
48--535;
48--584;
48--596;
48--605;
49--95;
49--125;
49--215;
49--227;
49--319;
49--332;
49--335;
49--336;
49--436;
49--451;
49--502;
49--507;
49--530;
49--535;
49--557;
49--558;
49--585;
49--593;
49--594;
49--606;
49--653;
49--656;
49--678;
50--103;
50--117;
50--123;
50--162;
50--298;
50--310;
50--342;
50--344;
50--351;
50--422;
50--456;
50--483;
50--489;
50--562;
50--584;
50--593;
50--605;
50--653;
50--671;
51--127;
51--137;
51--174;
51--219;
51--235;
51--263;
51--284;
51--360;
51--388;
51--544;
51--563;
51--679;
51--681;
51--684;
51--689;
52--123;
52--124;
52--146;
52--208;
52--245;
52--413;
52--426;
52--430;
52--432;
52--443;
52--450;
52--504;
52--562;
52--618;
52--622;
52--627;
52--636;
52--649;
52--697;
53--75;
53--130;
53--134;
53--229;
53--289;
53--361;
53--380;
53--431;
53--449;
53--479;
53--511;
53--561;
53--595;
53--609;
53--675;
53--680;
54--309;
54--346;
54--438;
54--468;
54--512;
54--541;
54--637;
55--59;
55--81;
55--90;
55--109;
55--111;
55--141;
55--144;
55--208;
55--213;
55--236;
55--249;
55--328;
55--338;
55--377;
55--416;
55--420;
55--634;
55--682;
56--58;
56--79;
56--120;
56--169;
56--171;
56--210;
56--218;
56--305;
56--358;
56--470;
56--509;
56--528;
56--556;
56--692;
57--92;
57--102;
57--121;
57--139;
57--151;
57--207;
57--209;
57--211;
57--317;
57--326;
57--379;
57--382;
57--419;
57--474;
57--477;
57--482;
57--516;
57--529;
57--670;
58--120;
58--163;
58--164;
58--181;
58--194;
58--210;
58--218;
58--220;
58--330;
58--353;
58--407;
58--439;
58--445;
58--458;
58--505;
58--521;
58--547;
58--571;
58--578;
58--655;
58--663;
59--61;
59--81;
59--90;
59--109;
59--122;
59--141;
59--144;
59--213;
59--230;
59--236;
59--249;
59--262;
59--311;
59--338;
59--420;
59--471;
59--472;
59--682;
60--217;
60--239;
60--261;
60--369;
60--433;
60--469;
60--560;
60--565;
60--632;
61--81;
61--141;
61--144;
61--149;
61--230;
61--236;
61--262;
61--296;
61--311;
61--338;
61--402;
61--403;
61--420;
61--471;
61--472;
61--515;
61--520;
61--641;
61--682;
62--108;
62--126;
62--156;
62--158;
62--175;
62--214;
62--238;
62--251;
62--255;
62--259;
62--269;
62--273;
62--285;
62--308;
62--391;
62--415;
62--440;
62--457;
62--487;
62--633;
62--646;
62--667;
62--690;
63--128;
63--138;
63--173;
63--254;
63--267;
63--271;
63--362;
63--400;
63--423;
63--428;
63--508;
63--568;
64--78;
64--120;
64--164;
64--168;
64--216;
64--218;
64--279;
64--287;
64--345;
64--353;
64--355;
64--371;
64--435;
64--458;
64--464;
64--525;
64--526;
64--616;
64--617;
64--663;
64--666;
65--80;
65--106;
65--132;
65--183;
65--184;
65--234;
65--301;
65--354;
65--384;
65--396;
65--486;
65--503;
65--509;
65--659;
66--140;
66--159;
66--168;
66--219;
66--279;
66--371;
66--393;
66--525;
66--526;
66--563;
66--579;
66--607;
66--617;
66--684;
66--695;
67--113;
67--277;
67--304;
67--411;
67--493;
67--645;
68--84;
68--118;
68--133;
68--179;
68--197;
68--205;
68--347;
68--350;
68--357;
68--364;
68--374;
68--383;
68--461;
68--517;
68--586;
68--587;
69--83;
69--143;
69--150;
69--178;
69--250;
69--266;
69--270;
69--281;
69--294;
69--318;
69--323;
69--334;
69--397;
69--481;
69--543;
69--570;
69--583;
69--608;
69--648;
70--97;
70--131;
70--136;
70--167;
70--176;
70--264;
70--295;
70--299;
70--444;
70--495;
70--537;
70--575;
70--601;
70--635;
70--638;
70--651;
70--691;
71--119;
71--122;
71--161;
71--206;
71--236;
71--367;
71--368;
71--390;
71--471;
71--472;
71--533;
71--614;
71--620;
71--631;
71--632;
71--650;
71--682;
72--108;
72--156;
72--175;
72--177;
72--202;
72--251;
72--269;
72--276;
72--297;
72--308;
72--389;
72--391;
72--394;
72--415;
72--417;
72--548;
72--569;
72--615;
72--646;
72--672;
73--103;
73--117;
73--123;
73--124;
73--162;
73--188;
73--243;
73--298;
73--342;
73--378;
73--422;
73--426;
73--430;
73--492;
73--538;
73--562;
73--584;
73--605;
73--636;
73--649;
73--654;
73--688;
73--698;
74--107;
74--157;
74--264;
74--265;
74--288;
74--315;
74--337;
74--398;
74--453;
74--460;
74--465;
74--588;
74--589;
74--600;
74--611;
74--638;
74--683;
75--115;
75--125;
75--130;
75--134;
75--201;
75--224;
75--259;
75--282;
75--283;
75--336;
75--361;
75--380;
75--395;
75--431;
75--475;
75--502;
75--506;
75--531;
75--561;
75--564;
75--595;
75--609;
75--675;
75--678;
75--699;
76--101;
76--104;
76--139;
76--206;
76--250;
76--266;
76--294;
76--318;
76--325;
76--385;
76--397;
76--478;
76--481;
76--570;
76--592;
76--650;
76--652;
77--84;
77--127;
77--170;
77--179;
77--190;
77--195;
77--212;
77--228;
77--258;
77--306;
77--316;
77--322;
77--329;
77--352;
77--375;
77--401;
77--427;
77--434;
77--459;
77--495;
77--496;
77--540;
77--554;
77--572;
77--574;
77--577;
77--591;
77--625;
77--629;
77--681;
78--120;
78--164;
78--216;
78--218;
78--287;
78--320;
78--345;
78--353;
78--355;
78--435;
78--458;
78--464;
78--503;
78--525;
78--616;
78--644;
78--666;
79--96;
79--106;
79--120;
79--169;
79--183;
79--210;
79--287;
79--305;
79--353;
79--354;
79--355;
79--358;
79--470;
79--509;
79--556;
79--616;
79--692;
80--106;
80--132;
80--184;
80--234;
80--301;
80--354;
80--384;
80--396;
80--438;
80--486;
80--503;
80--512;
80--659;
81--109;
81--141;
81--144;
81--146;
81--213;
81--230;
81--236;
81--262;
81--311;
81--338;
81--420;
81--432;
81--450;
81--515;
81--627;
81--682;
81--697;
82--105;
82--187;
82--191;
82--202;
82--222;
82--242;
82--276;
82--297;
82--341;
82--366;
82--394;
82--417;
82--548;
82--569;
82--615;
82--623;
82--660;
83--89;
83--150;
83--178;
83--250;
83--281;
83--293;
83--294;
83--307;
83--318;
83--323;
83--334;
83--339;
83--397;
83--462;
83--488;
83--513;
83--534;
83--543;
84--179;
84--195;
84--197;
84--205;
84--212;
84--228;
84--306;
84--312;
84--347;
84--352;
84--374;
84--401;
84--427;
84--434;
84--459;
84--461;
84--476;
84--542;
84--554;
84--572;
84--574;
84--586;
84--625;
84--629;
85--86;
85--94;
85--129;
85--176;
85--186;
85--233;
85--244;
85--256;
85--291;
85--300;
85--437;
85--441;
85--466;
85--500;
85--501;
85--522;
85--555;
85--575;
85--580;
85--590;
85--635;
85--651;
85--685;
85--688;
86--116;
86--129;
86--152;
86--176;
86--233;
86--240;
86--295;
86--300;
86--373;
86--412;
86--466;
86--473;
86--492;
86--499;
86--500;
86--518;
86--575;
86--580;
86--590;
86--635;
87--93;
87--152;
87--165;
87--223;
87--265;
87--268;
87--288;
87--333;
87--348;
87--349;
87--398;
87--399;
87--408;
87--412;
87--418;
87--453;
87--460;
87--473;
87--518;
87--566;
87--582;
87--600;
87--611;
87--683;
87--696;
88--127;
88--174;
88--263;
88--284;
88--360;
88--388;
88--392;
88--441;
88--448;
88--514;
88--524;
88--540;
88--545;
88--567;
88--591;
88--665;
88--676;
88--681;
89--145;
89--166;
89--247;
89--307;
89--339;
89--488;
89--513;
89--534;
89--610;
90--109;
90--111;
90--144;
90--208;
90--213;
90--249;
90--377;
90--413;
90--414;
90--416;
90--420;
90--432;
90--450;
90--490;
90--622;
90--634;
90--697;
91--213;
91--239;
91--241;
91--249;
91--324;
91--328;
91--369;
91--410;
91--424;
91--469;
91--632;
91--634;
91--686;
92--102;
92--121;
92--151;
92--207;
92--209;
92--211;
92--317;
92--326;
92--379;
92--382;
92--419;
92--474;
92--477;
92--482;
92--516;
92--529;
92--551;
92--670;
93--116;
93--149;
93--152;
93--165;
93--188;
93--221;
93--223;
93--268;
93--340;
93--348;
93--349;
93--365;
93--373;
93--402;
93--408;
93--412;
93--418;
93--473;
93--492;
93--515;
93--518;
93--538;
93--582;
93--621;
93--639;
93--654;
94--147;
94--186;
94--244;
94--291;
94--392;
94--437;
94--441;
94--448;
94--501;
94--514;
94--545;
94--555;
94--567;
94--591;
94--647;
94--651;
94--665;
94--676;
94--685;
95--215;
95--227;
95--319;
95--332;
95--335;
95--336;
95--436;
95--451;
95--489;
95--502;
95--507;
95--530;
95--535;
95--557;
95--558;
95--585;
95--593;
95--653;
95--656;
95--671;
96--98;
96--169;
96--183;
96--193;
96--204;
96--246;
96--257;
96--290;
96--305;
96--354;
96--358;
96--404;
96--442;
96--447;
96--470;
96--509;
96--519;
96--668;
96--692;
96--694;
97--131;
97--136;
97--167;
97--196;
97--264;
97--295;
97--299;
97--383;
97--444;
97--495;
97--537;
97--588;
97--601;
97--638;
97--643;
97--691;
97--693;
98--183;
98--193;
98--272;
98--290;
98--305;
98--354;
98--404;
98--442;
98--447;
98--509;
98--519;
98--668;
98--669;
98--692;
98--694;
99--111;
99--199;
99--208;
99--237;
99--260;
99--377;
99--413;
99--414;
99--416;
99--425;
99--443;
99--450;
99--454;
99--490;
99--504;
99--618;
99--622;
99--640;
100--114;
100--153;
100--172;
100--199;
100--203;
100--248;
100--253;
100--260;
100--303;
100--314;
100--331;
100--425;
100--452;
100--532;
100--581;
100--658;
100--674;
101--104;
101--139;
101--143;
101--151;
101--209;
101--250;
101--266;
101--270;
101--294;
101--382;
101--385;
101--397;
101--481;
101--482;
101--485;
101--570;
101--583;
101--592;
101--608;
101--648;
101--652;
102--121;
102--326;
102--379;
102--406;
102--419;
102--455;
102--474;
102--551;
102--597;
102--626;
102--670;
103--117;
103--123;
103--162;
103--243;
103--298;
103--310;
103--342;
103--344;
103--351;
103--378;
103--422;
103--426;
103--456;
103--483;
103--489;
103--562;
103--584;
103--605;
103--649;
104--148;
104--250;
104--266;
104--294;
104--318;
104--325;
104--385;
104--397;
104--478;
104--481;
104--570;
104--592;
104--650;
104--652;
104--677;
105--187;
105--191;
105--202;
105--222;
105--276;
105--297;
105--341;
105--366;
105--394;
105--417;
105--548;
105--569;
105--615;
105--623;
105--660;
106--120;
106--169;
106--183;
106--234;
106--287;
106--301;
106--320;
106--354;
106--355;
106--384;
106--396;
106--435;
106--470;
106--503;
106--509;
106--556;
106--616;
106--644;
107--112;
107--157;
107--166;
107--247;
107--288;
107--313;
107--315;
107--321;
107--337;
107--376;
107--465;
107--553;
107--589;
107--598;
107--610;
107--683;
108--156;
108--175;
108--177;
108--251;
108--269;
108--276;
108--285;
108--297;
108--308;
108--389;
108--391;
108--394;
108--415;
108--417;
108--569;
108--646;
108--672;
108--690;
109--111;
109--141;
109--144;
109--208;
109--213;
109--236;
109--249;
109--328;
109--377;
109--416;
109--420;
109--432;
109--450;
109--634;
109--682;
110--180;
110--243;
110--244;
110--256;
110--298;
110--300;
110--363;
110--370;
110--378;
110--387;
110--409;
110--466;
110--501;
110--522;
110--580;
110--590;
110--612;
110--685;
110--688;
110--698;
111--144;
111--146;
111--208;
111--213;
111--377;
111--413;
111--414;
111--416;
111--432;
111--450;
111--454;
111--490;
111--622;
111--634;
111--697;
112--313;
112--315;
112--321;
112--376;
112--465;
112--480;
112--498;
112--523;
112--550;
112--553;
112--598;
113--155;
113--202;
113--277;
113--304;
113--411;
113--615;
114--153;
114--155;
114--172;
114--203;
114--303;
114--304;
114--331;
114--411;
114--493;
114--532;
114--546;
114--552;
114--581;
114--624;
114--642;
114--674;
115--125;
115--130;
115--158;
115--201;
115--214;
115--224;
115--259;
115--273;
115--282;
115--283;
115--336;
115--380;
115--451;
115--475;
115--487;
115--502;
115--506;
115--531;
115--564;
115--633;
115--678;
115--699;
116--129;
116--152;
116--176;
116--188;
116--233;
116--240;
116--268;
116--300;
116--349;
116--365;
116--373;
116--412;
116--466;
116--473;
116--492;
116--499;
116--518;
116--538;
116--575;
116--582;
116--621;
116--635;
116--639;
116--654;
117--162;
117--243;
117--298;
117--342;
117--378;
117--422;
117--483;
117--562;
117--584;
117--605;
117--688;
117--698;
118--128;
118--133;
118--142;
118--205;
118--271;
118--286;
118--343;
118--347;
118--350;
118--357;
118--364;
118--400;
118--423;
118--428;
118--463;
118--508;
118--517;
118--586;
118--587;
119--122;
119--161;
119--206;
119--209;
119--367;
119--368;
119--385;
119--390;
119--406;
119--533;
119--592;
119--614;
119--619;
119--620;
119--626;
119--631;
119--650;
120--169;
120--183;
120--210;
120--218;
120--287;
120--345;
120--353;
120--354;
120--355;
120--358;
120--384;
120--435;
120--458;
120--470;
120--503;
120--556;
120--616;
121--151;
121--161;
121--207;
121--209;
121--317;
121--326;
121--379;
121--382;
121--385;
121--406;
121--419;
121--474;
121--477;
121--482;
121--551;
121--592;
121--619;
121--626;
121--670;
122--206;
122--236;
122--249;
122--262;
122--296;
122--338;
122--367;
122--420;
122--471;
122--472;
122--533;
122--614;
122--620;
122--631;
122--650;
122--682;
123--124;
123--162;
123--245;
123--310;
123--342;
123--344;
123--351;
123--422;
123--426;
123--430;
123--443;
123--456;
123--504;
123--527;
123--562;
123--584;
123--605;
123--618;
123--622;
123--636;
123--649;
123--697;
124--162;
124--188;
124--245;
124--365;
124--426;
124--430;
124--492;
124--515;
124--538;
124--562;
124--605;
124--621;
124--627;
124--636;
124--649;
124--654;
125--224;
125--282;
125--283;
125--319;
125--332;
125--336;
125--380;
125--395;
125--429;
125--502;
125--531;
125--539;
125--564;
125--594;
125--656;
125--675;
125--678;
125--699;
126--158;
126--160;
126--182;
126--185;
126--214;
126--227;
126--251;
126--253;
126--255;
126--259;
126--273;
126--285;
126--308;
126--314;
126--391;
126--440;
126--451;
126--452;
126--457;
126--487;
126--633;
126--646;
126--658;
126--667;
126--690;
127--137;
127--174;
127--195;
127--228;
127--235;
127--258;
127--263;
127--284;
127--306;
127--322;
127--352;
127--360;
127--375;
127--388;
127--392;
127--448;
127--524;
127--540;
127--544;
127--554;
127--567;
127--591;
127--625;
127--665;
127--679;
127--681;
127--689;
128--138;
128--173;
128--267;
128--271;
128--286;
128--362;
128--364;
128--400;
128--423;
128--428;
128--508;
128--568;
128--587;
129--176;
129--233;
129--240;
129--256;
129--300;
129--466;
129--492;
129--500;
129--522;
129--575;
129--580;
129--590;
129--635;
129--685;
129--688;
129--698;
130--134;
130--201;
130--229;
130--361;
130--380;
130--431;
130--479;
130--506;
130--511;
130--561;
130--595;
130--609;
130--675;
131--136;
131--167;
131--196;
131--264;
131--295;
131--299;
131--313;
131--383;
131--398;
131--444;
131--465;
131--480;
131--523;
131--537;
131--588;
131--601;
131--638;
131--643;
131--693;
132--184;
132--234;
132--301;
132--309;
132--384;
132--396;
132--438;
132--486;
132--503;
132--512;
132--659;
133--142;
133--167;
133--179;
133--205;
133--299;
133--347;
133--350;
133--364;
133--383;
133--461;
133--508;
133--517;
133--586;
133--587;
134--229;
134--289;
134--361;
134--380;
134--395;
134--431;
134--449;
134--479;
134--511;
134--561;
134--595;
134--609;
134--675;
134--680;
135--154;
135--173;
135--254;
135--292;
135--343;
135--357;
135--359;
135--362;
135--428;
135--446;
135--463;
135--497;
135--603;
135--630;
136--167;
136--170;
136--179;
136--190;
136--299;
136--316;
136--329;
136--383;
136--444;
136--495;
136--496;
136--537;
136--574;
136--577;
136--601;
136--643;
136--691;
137--174;
137--235;
137--263;
137--284;
137--322;
137--360;
137--388;
137--544;
137--563;
137--628;
137--679;
137--684;
137--689;
138--267;
138--271;
138--286;
138--400;
138--423;
138--498;
138--568;
139--143;
139--151;
139--209;
139--270;
139--382;
139--385;
139--477;
139--482;
139--485;
139--570;
139--583;
139--592;
139--608;
139--648;
140--159;
140--168;
140--216;
140--279;
140--371;
140--393;
140--525;
140--526;
140--579;
140--607;
140--617;
140--666;
140--695;
141--144;
141--146;
141--149;
141--230;
141--236;
141--262;
141--311;
141--338;
141--340;
141--402;
141--420;
141--432;
141--472;
141--515;
141--520;
141--627;
141--641;
141--682;
142--196;
142--271;
142--286;
142--313;
142--364;
142--376;
142--383;
142--465;
142--480;
142--508;
142--523;
142--587;
142--598;
143--150;
143--250;
143--270;
143--294;
143--397;
143--481;
143--485;
143--543;
143--570;
143--583;
143--608;
143--648;
144--146;
144--208;
144--213;
144--230;
144--236;
144--249;
144--413;
144--416;
144--420;
144--432;
144--450;
144--627;
144--634;
144--682;
144--697;
145--157;
145--166;
145--247;
145--307;
145--321;
145--339;
145--453;
145--462;
145--488;
145--513;
145--534;
145--589;
145--610;
146--208;
146--245;
146--413;
146--416;
146--426;
146--430;
146--432;
146--450;
146--515;
146--622;
146--627;
146--636;
146--697;
147--163;
147--181;
147--200;
147--220;
147--244;
147--291;
147--330;
147--363;
147--370;
147--409;
147--441;
147--445;
147--501;
147--505;
147--514;
147--545;
147--547;
147--555;
147--571;
147--612;
147--673;
147--676;
148--266;
148--275;
148--281;
148--293;
148--318;
148--325;
148--333;
148--399;
148--403;
148--462;
148--478;
148--484;
148--513;
148--559;
148--566;
148--573;
148--576;
148--652;
148--661;
148--677;
148--696;
149--221;
149--223;
149--230;
149--262;
149--268;
149--311;
149--340;
149--348;
149--365;
149--402;
149--403;
149--408;
149--515;
149--520;
149--566;
149--576;
149--621;
149--639;
149--641;
150--178;
150--250;
150--266;
150--281;
150--294;
150--318;
150--323;
150--334;
150--397;
150--481;
150--513;
150--543;
150--570;
150--583;
150--648;
151--207;
151--209;
151--379;
151--382;
151--385;
151--419;
151--474;
151--477;
151--482;
151--485;
151--592;
152--165;
152--188;
152--223;
152--240;
152--264;
152--265;
152--268;
152--295;
152--348;
152--349;
152--373;
152--408;
152--412;
152--418;
152--460;
152--473;
152--499;
152--518;
152--582;
152--600;
152--611;
152--621;
152--635;
152--639;
153--155;
153--172;
153--203;
153--303;
153--304;
153--331;
153--411;
153--493;
153--532;
153--546;
153--624;
154--205;
154--292;
154--312;
154--343;
154--357;
154--359;
154--374;
154--446;
154--461;
154--463;
154--476;
154--497;
154--542;
154--549;
154--603;
154--630;
155--177;
155--202;
155--203;
155--276;
155--304;
155--394;
155--411;
155--417;
155--569;
156--175;
156--177;
156--238;
156--251;
156--269;
156--285;
156--297;
156--308;
156--389;
156--391;
156--394;
156--415;
156--457;
156--569;
156--646;
156--672;
156--690;
157--247;
157--288;
157--315;
157--333;
157--337;
157--398;
157--453;
157--460;
157--589;
157--600;
157--611;
157--683;
158--160;
158--182;
158--201;
158--214;
158--224;
158--227;
158--251;
158--255;
158--259;
158--273;
158--282;
158--283;
158--285;
158--440;
158--451;
158--457;
158--475;
158--487;
158--506;
158--507;
158--633;
158--667;
158--699;
159--219;
159--371;
159--393;
159--526;
159--563;
159--579;
159--607;
159--617;
159--684;
159--695;
160--182;
160--185;
160--227;
160--253;
160--255;
160--282;
160--283;
160--332;
160--335;
160--436;
160--440;
160--451;
160--452;
160--507;
160--557;
160--633;
160--656;
160--658;
160--667;
160--678;
160--699;
161--206;
161--209;
161--367;
161--368;
161--379;
161--385;
161--390;
161--406;
161--419;
161--592;
161--619;
161--620;
161--626;
161--631;
161--650;
162--245;
162--298;
162--310;
162--342;
162--344;
162--351;
162--422;
162--426;
162--430;
162--456;
162--562;
162--584;
162--605;
162--618;
162--636;
162--649;
163--180;
163--181;
163--194;
163--200;
163--210;
163--218;
163--220;
163--330;
163--363;
163--407;
163--409;
163--445;
163--505;
163--521;
163--547;
163--571;
163--578;
163--596;
163--612;
163--655;
163--673;
164--168;
164--181;
164--194;
164--218;
164--279;
164--345;
164--353;
164--371;
164--407;
164--439;
164--458;
164--525;
164--526;
164--571;
164--578;
164--617;
164--655;
164--663;
165--223;
165--264;
165--265;
165--268;
165--288;
165--337;
165--348;
165--349;
165--373;
165--398;
165--408;
165--412;
165--418;
165--460;
165--473;
165--499;
165--518;
165--566;
165--582;
165--600;
165--611;
166--247;
166--307;
166--321;
166--339;
166--488;
166--534;
166--550;
166--610;
167--196;
167--299;
167--383;
167--444;
167--465;
167--523;
167--537;
167--588;
167--601;
167--638;
167--643;
167--691;
167--693;
168--181;
168--194;
168--218;
168--219;
168--279;
168--345;
168--371;
168--393;
168--407;
168--439;
168--458;
168--525;
168--526;
168--571;
168--579;
168--617;
168--655;
168--663;
169--183;
169--210;
169--287;
169--305;
169--354;
169--355;
169--358;
169--384;
169--447;
169--470;
169--509;
169--556;
169--616;
169--692;
170--179;
170--186;
170--190;
170--195;
170--212;
170--228;
170--258;
170--306;
170--316;
170--329;
170--375;
170--401;
170--448;
170--495;
170--496;
170--554;
170--567;
170--574;
170--577;
170--591;
170--629;
170--647;
170--651;
170--665;
170--691;
171--180;
171--204;
171--215;
171--226;
171--246;
171--252;
171--257;
171--278;
171--302;
171--381;
171--521;
171--528;
171--530;
171--535;
171--558;
171--596;
171--602;
171--606;
172--203;
172--232;
172--248;
172--303;
172--331;
172--411;
172--425;
172--532;
172--546;
172--552;
172--581;
172--624;
172--642;
172--674;
173--254;
173--267;
173--343;
173--362;
173--400;
173--423;
173--428;
173--446;
173--463;
173--508;
173--630;
174--235;
174--258;
174--263;
174--284;
174--306;
174--360;
174--388;
174--392;
174--448;
174--524;
174--540;
174--544;
174--591;
174--665;
174--679;
174--681;
174--684;
174--689;
175--231;
175--238;
175--251;
175--269;
175--285;
175--297;
175--308;
175--327;
175--356;
175--372;
175--389;
175--421;
175--457;
175--491;
175--548;
175--613;
175--646;
175--672;
176--233;
176--240;
176--295;
176--300;
176--412;
176--444;
176--466;
176--473;
176--499;
176--500;
176--537;
176--575;
176--635;
176--651;
176--691;
177--202;
177--269;
177--276;
177--297;
177--308;
177--389;
177--391;
177--394;
177--415;
177--417;
177--569;
177--615;
177--646;
177--690;
178--250;
178--266;
178--281;
178--293;
178--294;
178--318;
178--323;
178--334;
178--397;
178--478;
178--481;
178--488;
178--513;
178--543;
178--570;
179--190;
179--197;
179--212;
179--228;
179--299;
179--316;
179--329;
179--347;
179--383;
179--401;
179--459;
179--461;
179--495;
179--517;
179--554;
179--574;
179--577;
179--586;
179--629;
180--252;
180--278;
180--302;
180--330;
180--363;
180--370;
180--387;
180--409;
180--483;
180--521;
180--547;
180--596;
180--612;
180--673;
181--194;
181--200;
181--210;
181--218;
181--220;
181--330;
181--407;
181--439;
181--445;
181--458;
181--505;
181--521;
181--545;
181--547;
181--571;
181--578;
181--612;
181--655;
181--663;
181--673;
182--185;
182--227;
182--253;
182--255;
182--280;
182--314;
182--391;
182--440;
182--451;
182--452;
182--633;
182--658;
182--667;
182--690;
183--287;
183--305;
183--354;
183--355;
183--358;
183--384;
183--447;
183--470;
183--503;
183--509;
183--556;
183--616;
183--692;
184--396;
184--486;
184--512;
184--659;
185--227;
185--253;
185--255;
185--260;
185--280;
185--314;
185--335;
185--425;
185--436;
185--440;
185--451;
185--452;
185--507;
185--557;
185--640;
185--653;
185--658;
185--662;
186--190;
186--258;
186--291;
186--316;
186--329;
186--375;
186--392;
186--437;
186--441;
186--448;
186--495;
186--496;
186--555;
186--567;
186--577;
186--591;
186--629;
186--647;
186--651;
186--665;
186--676;
186--685;
186--691;
187--191;
187--202;
187--222;
187--242;
187--276;
187--297;
187--341;
187--366;
187--417;
187--548;
187--615;
187--623;
187--660;
188--221;
188--233;
188--240;
188--268;
188--340;
188--365;
188--373;
188--408;
188--473;
188--492;
188--515;
188--538;
188--582;
188--621;
188--636;
188--639;
188--654;
189--192;
189--198;
189--324;
189--410;
189--424;
189--494;
189--536;
189--546;
189--604;
189--657;
189--664;
189--687;
190--195;
190--212;
190--228;
190--258;
190--306;
190--316;
190--329;
190--375;
190--401;
190--495;
190--496;
190--554;
190--574;
190--577;
190--591;
190--629;
190--647;
190--691;
191--222;
191--341;
191--366;
191--615;
191--623;
191--660;
192--198;
192--241;
192--324;
192--410;
192--424;
192--494;
192--536;
192--552;
192--604;
192--657;
192--664;
192--686;
192--687;
193--272;
193--289;
193--290;
193--305;
193--404;
193--442;
193--447;
193--467;
193--509;
193--519;
193--668;
193--669;
193--692;
193--694;
194--200;
194--210;
194--218;
194--220;
194--330;
194--345;
194--353;
194--407;
194--439;
194--445;
194--458;
194--505;
194--521;
194--571;
194--578;
194--655;
194--663;
195--212;
195--228;
195--258;
195--306;
195--316;
195--322;
195--329;
195--352;
195--360;
195--375;
195--401;
195--427;
195--434;
195--459;
195--496;
195--540;
195--554;
195--572;
195--574;
195--577;
195--591;
195--625;
195--629;
195--681;
196--264;
196--299;
196--313;
196--315;
196--376;
196--383;
196--465;
196--480;
196--523;
196--553;
196--588;
196--601;
196--638;
196--643;
196--693;
197--205;
197--312;
197--347;
197--350;
197--357;
197--374;
197--434;
197--459;
197--461;
197--476;
197--517;
197--542;
197--549;
197--572;
197--586;
197--603;
198--324;
198--410;
198--424;
198--494;
198--536;
198--560;
198--604;
198--657;
198--664;
198--687;
199--232;
199--237;
199--248;
199--260;
199--303;
199--414;
199--425;
199--454;
199--490;
199--532;
199--552;
199--581;
199--640;
199--674;
200--220;
200--291;
200--330;
200--363;
200--407;
200--409;
200--439;
200--445;
200--501;
200--505;
200--514;
200--521;
200--545;
200--547;
200--571;
200--578;
200--612;
200--655;
200--663;
200--673;
200--676;
201--214;
201--224;
201--259;
201--273;
201--283;
201--405;
201--431;
201--457;
201--475;
201--487;
201--506;
201--511;
201--599;
201--609;
201--699;
202--222;
202--276;
202--297;
202--341;
202--366;
202--389;
202--394;
202--417;
202--569;
202--615;
202--623;
202--660;
203--303;
203--314;
203--331;
203--425;
203--532;
203--581;
203--674;
203--690;
204--215;
204--226;
204--246;
204--252;
204--257;
204--278;
204--290;
204--302;
204--305;
204--319;
204--381;
204--404;
204--429;
204--528;
204--530;
204--535;
204--558;
204--594;
204--602;
204--606;
204--692;
205--292;
205--312;
205--343;
205--347;
205--350;
205--357;
205--359;
205--374;
205--428;
205--446;
205--461;
205--463;
205--476;
205--517;
205--542;
205--549;
205--586;
205--587;
205--603;
205--630;
206--209;
206--367;
206--368;
206--385;
206--390;
206--471;
206--592;
206--614;
206--619;
206--620;
206--626;
206--631;
206--650;
207--211;
207--317;
207--326;
207--379;
207--382;
207--419;
207--474;
207--477;
207--482;
207--516;
207--529;
207--670;
208--213;
208--377;
208--413;
208--414;
208--416;
208--432;
208--450;
208--454;
208--490;
208--504;
208--622;
208--634;
208--697;
209--367;
209--368;
209--379;
209--382;
209--385;
209--406;
209--419;
209--474;
209--477;
209--482;
209--551;
209--592;
209--619;
209--626;
210--218;
210--287;
210--330;
210--353;
210--358;
210--407;
210--445;
210--458;
210--470;
210--521;
210--547;
210--556;
210--578;
210--655;
210--663;
211--317;
211--326;
211--382;
211--474;
211--477;
211--482;
211--516;
211--529;
211--670;
212--228;
212--258;
212--306;
212--316;
212--329;
212--375;
212--401;
212--459;
212--495;
212--496;
212--554;
212--572;
212--574;
212--577;
212--591;
212--625;
212--629;
212--647;
213--236;
213--249;
213--328;
213--377;
213--416;
213--420;
213--634;
213--682;
214--224;
214--238;
214--251;
214--259;
214--273;
214--282;
214--283;
214--285;
214--372;
214--405;
214--457;
214--475;
214--487;
214--506;
214--599;
214--633;
214--667;
214--699;
215--226;
215--246;
215--252;
215--278;
215--302;
215--319;
215--381;
215--528;
215--530;
215--535;
215--558;
215--585;
215--593;
215--596;
215--602;
215--606;
216--274;
216--279;
216--345;
216--371;
216--435;
216--464;
216--510;
216--525;
216--526;
216--617;
216--666;
217--239;
217--261;
217--369;
217--433;
217--469;
217--565;
217--632;
218--287;
218--345;
218--353;
218--355;
218--407;
218--439;
218--458;
218--556;
218--571;
218--578;
218--655;
218--663;
219--263;
219--284;
219--388;
219--393;
219--524;
219--563;
219--579;
219--607;
219--617;
219--679;
219--684;
219--695;
220--330;
220--363;
220--407;
220--409;
220--439;
220--445;
220--501;
220--505;
220--514;
220--521;
220--545;
220--547;
220--571;
220--578;
220--612;
220--655;
220--663;
220--673;
221--223;
221--268;
221--311;
221--340;
221--348;
221--365;
221--373;
221--402;
221--408;
221--515;
221--538;
221--582;
221--621;
221--639;
221--654;
222--242;
222--276;
222--297;
222--341;
222--366;
222--394;
222--417;
222--548;
222--569;
222--615;
222--623;
222--660;
223--265;
223--268;
223--311;
223--340;
223--348;
223--349;
223--365;
223--373;
223--402;
223--408;
223--412;
223--418;
223--460;
223--473;
223--518;
223--566;
223--582;
223--600;
223--611;
223--621;
223--639;
224--259;
224--282;
224--283;
224--336;
224--380;
224--451;
224--475;
224--487;
224--502;
224--506;
224--531;
224--564;
224--656;
224--678;
224--699;
225--322;
225--352;
225--386;
225--427;
225--434;
225--459;
225--572;
225--625;
225--628;
225--689;
226--246;
226--252;
226--278;
226--302;
226--319;
226--381;
226--528;
226--530;
226--535;
226--558;
226--593;
226--596;
226--602;
226--606;
227--253;
227--255;
227--282;
227--283;
227--332;
227--335;
227--436;
227--440;
227--451;
227--452;
227--507;
227--557;
227--633;
227--653;
227--656;
227--678;
228--258;
228--306;
228--316;
228--322;
228--329;
228--352;
228--375;
228--401;
228--427;
228--434;
228--459;
228--496;
228--540;
228--554;
228--572;
228--574;
228--577;
228--591;
228--625;
228--629;
228--681;
229--289;
229--361;
229--395;
229--431;
229--449;
229--479;
229--511;
229--561;
229--595;
229--609;
229--675;
229--680;
230--236;
230--262;
230--296;
230--311;
230--338;
230--340;
230--402;
230--403;
230--420;
230--471;
230--472;
230--515;
230--520;
230--641;
230--682;
231--238;
231--269;
231--327;
231--356;
231--372;
231--405;
231--421;
231--491;
231--599;
231--613;
231--672;
232--248;
232--303;
232--331;
232--414;
232--490;
232--532;
232--552;
232--581;
232--642;
232--674;
232--686;
233--240;
233--256;
233--300;
233--373;
233--466;
233--492;
233--500;
233--522;
233--538;
233--575;
233--580;
233--590;
233--635;
233--688;
233--698;
234--301;
234--320;
234--346;
234--384;
234--396;
234--435;
234--438;
234--468;
234--503;
234--512;
234--616;
234--644;
235--263;
235--284;
235--306;
235--322;
235--352;
235--360;
235--388;
235--540;
235--544;
235--625;
235--628;
235--679;
235--681;
235--684;
235--689;
236--249;
236--262;
236--296;
236--338;
236--403;
236--420;
236--471;
236--472;
236--520;
236--614;
236--620;
236--641;
236--682;
237--260;
237--413;
237--414;
237--425;
237--443;
237--454;
237--490;
237--504;
237--527;
237--618;
237--622;
237--640;
237--662;
238--251;
238--259;
238--269;
238--273;
238--285;
238--327;
238--372;
238--405;
238--421;
238--457;
238--475;
238--487;
238--491;
238--599;
238--613;
238--646;
238--667;
238--672;
239--261;
239--369;
239--433;
239--469;
239--533;
239--565;
239--632;
240--300;
240--373;
240--466;
240--492;
240--500;
240--538;
240--575;
240--580;
240--590;
240--635;
240--688;
240--698;
241--324;
241--410;
241--424;
241--469;
241--536;
241--634;
241--686;
241--687;
242--297;
242--341;
242--356;
242--366;
242--548;
242--623;
242--660;
242--672;
243--256;
243--298;
243--342;
243--378;
243--387;
243--483;
243--522;
243--580;
243--584;
243--590;
243--605;
243--688;
243--698;
244--256;
244--291;
244--300;
244--363;
244--370;
244--409;
244--437;
244--441;
244--500;
244--501;
244--522;
244--555;
244--580;
244--590;
244--612;
244--651;
244--676;
244--685;
244--688;
244--698;
245--344;
245--413;
245--422;
245--426;
245--430;
245--432;
245--443;
245--450;
245--456;
245--504;
245--562;
245--618;
245--622;
245--627;
245--636;
245--649;
245--697;
246--257;
246--272;
246--290;
246--305;
246--319;
246--336;
246--381;
246--404;
246--429;
246--502;
246--519;
246--528;
246--530;
246--539;
246--558;
246--594;
246--602;
246--606;
246--692;
247--307;
247--321;
247--339;
247--453;
247--462;
247--488;
247--513;
247--534;
247--589;
247--610;
247--683;
248--303;
248--331;
248--414;
248--532;
248--552;
248--581;
248--624;
248--642;
248--674;
248--686;
249--328;
249--420;
249--533;
249--632;
249--634;
249--682;
250--266;
250--270;
250--281;
250--294;
250--318;
250--323;
250--334;
250--397;
250--478;
250--481;
250--485;
250--543;
250--570;
250--583;
250--608;
250--648;
250--652;
251--259;
251--269;
251--273;
251--285;
251--308;
251--391;
251--415;
251--440;
251--457;
251--487;
251--599;
251--613;
251--646;
251--667;
251--672;
251--690;
252--278;
252--302;
252--381;
252--387;
252--521;
252--528;
252--530;
252--535;
252--547;
252--558;
252--593;
252--596;
252--602;
253--255;
253--260;
253--280;
253--314;
253--425;
253--440;
253--452;
253--557;
253--658;
253--662;
254--267;
254--292;
254--343;
254--362;
254--400;
254--423;
254--428;
254--446;
254--463;
254--497;
254--630;
255--282;
255--283;
255--314;
255--335;
255--440;
255--451;
255--452;
255--487;
255--507;
255--557;
255--633;
255--658;
255--667;
255--690;
255--699;
256--298;
256--300;
256--363;
256--370;
256--378;
256--387;
256--409;
256--466;
256--500;
256--501;
256--522;
256--580;
256--590;
256--685;
256--688;
256--698;
257--272;
257--290;
257--305;
257--319;
257--381;
257--404;
257--429;
257--447;
257--519;
257--528;
257--530;
257--539;
257--558;
257--594;
257--602;
257--606;
257--692;
257--694;
258--306;
258--316;
258--329;
258--360;
258--375;
258--392;
258--401;
258--448;
258--459;
258--495;
258--496;
258--540;
258--554;
258--567;
258--574;
258--577;
258--591;
258--625;
258--629;
258--647;
258--665;
258--681;
259--273;
259--282;
259--283;
259--285;
259--405;
259--457;
259--475;
259--487;
259--506;
259--599;
259--633;
259--667;
259--699;
260--280;
260--414;
260--425;
260--454;
260--504;
260--527;
260--581;
260--618;
260--640;
260--658;
260--662;
261--369;
261--390;
261--433;
261--469;
261--533;
261--565;
261--632;
262--296;
262--311;
262--338;
262--402;
262--403;
262--420;
262--471;
262--472;
262--484;
262--520;
262--576;
262--641;
262--677;
262--682;
263--284;
263--360;
263--388;
263--392;
263--448;
263--524;
263--540;
263--544;
263--563;
263--665;
263--679;
263--681;
263--684;
263--689;
264--265;
264--288;
264--295;
264--315;
264--337;
264--349;
264--398;
264--412;
264--418;
264--444;
264--460;
264--473;
264--499;
264--518;
264--537;
264--588;
264--600;
264--601;
264--638;
264--643;
264--693;
265--288;
265--295;
265--337;
265--348;
265--349;
265--398;
265--408;
265--412;
265--418;
265--460;
265--473;
265--499;
265--518;
265--537;
265--582;
265--600;
265--611;
265--683;
266--281;
266--293;
266--294;
266--318;
266--323;
266--325;
266--334;
266--397;
266--478;
266--481;
266--543;
266--570;
266--583;
266--652;
267--271;
267--362;
267--400;
267--423;
267--428;
267--463;
267--508;
267--630;
268--311;
268--340;
268--348;
268--349;
268--365;
268--373;
268--402;
268--408;
268--473;
268--515;
268--518;
268--538;
268--582;
268--621;
268--639;
268--654;
269--285;
269--297;
269--308;
269--327;
269--356;
269--372;
269--389;
269--421;
269--457;
269--491;
269--548;
269--613;
269--646;
269--672;
270--294;
270--397;
270--481;
270--485;
270--543;
270--570;
270--583;
270--608;
270--648;
271--286;
271--364;
271--400;
271--423;
271--508;
271--568;
271--587;
272--289;
272--290;
272--319;
272--336;
272--361;
272--380;
272--395;
272--404;
272--429;
272--442;
272--479;
272--502;
272--519;
272--531;
272--539;
272--564;
272--594;
272--606;
272--668;
272--675;
272--680;
272--694;
273--282;
273--283;
273--285;
273--372;
273--405;
273--457;
273--475;
273--487;
273--506;
273--599;
273--613;
273--633;
273--667;
273--699;
274--320;
274--346;
274--464;
274--510;
274--637;
274--666;
275--281;
275--293;
275--325;
275--333;
275--399;
275--453;
275--462;
275--478;
275--484;
275--488;
275--513;
275--559;
275--566;
275--573;
275--576;
275--661;
275--677;
275--696;
276--297;
276--341;
276--366;
276--389;
276--394;
276--417;
276--548;
276--569;
276--615;
276--623;
276--660;
277--304;
277--411;
277--645;
278--302;
278--381;
278--387;
278--483;
278--528;
278--530;
278--535;
278--558;
278--593;
278--596;
278--602;
279--345;
279--353;
279--371;
279--393;
279--458;
279--525;
279--526;
279--579;
279--617;
279--663;
279--666;
280--310;
280--314;
280--335;
280--425;
280--452;
280--527;
280--557;
280--640;
280--653;
280--658;
280--662;
280--671;
281--293;
281--294;
281--318;
281--323;
281--325;
281--334;
281--397;
281--462;
281--478;
281--481;
281--488;
281--513;
281--534;
281--543;
282--283;
282--332;
282--335;
282--336;
282--380;
282--451;
282--475;
282--487;
282--502;
282--506;
282--507;
282--531;
282--564;
282--633;
282--656;
282--667;
282--678;
282--699;
283--332;
283--336;
283--380;
283--451;
283--475;
283--487;
283--502;
283--506;
283--507;
283--531;
283--564;
283--633;
283--656;
283--667;
283--678;
283--699;
284--322;
284--360;
284--388;
284--524;
284--540;
284--544;
284--563;
284--679;
284--681;
284--684;
284--689;
285--308;
285--327;
285--372;
285--391;
285--405;
285--415;
285--421;
285--440;
285--457;
285--487;
285--491;
285--599;
285--613;
285--646;
285--667;
285--672;
286--313;
286--364;
286--376;
286--400;
286--423;
286--480;
286--498;
286--508;
286--568;
286--587;
286--598;
287--320;
287--345;
287--353;
287--354;
287--355;
287--384;
287--435;
287--458;
287--470;
287--503;
287--556;
287--616;
287--644;
288--315;
288--337;
288--349;
288--398;
288--412;
288--418;
288--453;
288--460;
288--499;
288--588;
288--589;
288--600;
288--611;
288--638;
288--683;
289--361;
289--395;
289--442;
289--449;
289--467;
289--479;
289--519;
289--539;
289--561;
289--595;
289--668;
289--669;
289--675;
289--680;
290--305;
290--319;
290--358;
290--381;
290--404;
290--429;
290--442;
290--447;
290--509;
290--519;
290--528;
290--539;
290--594;
290--606;
290--692;
290--694;
291--370;
291--392;
291--409;
291--437;
291--441;
291--448;
291--501;
291--514;
291--545;
291--555;
291--567;
291--612;
291--647;
291--651;
291--665;
291--676;
291--685;
292--343;
292--350;
292--357;
292--359;
292--374;
292--428;
292--446;
292--461;
292--463;
292--497;
292--517;
292--549;
292--603;
292--630;
293--318;
293--323;
293--325;
293--333;
293--399;
293--462;
293--478;
293--484;
293--488;
293--513;
293--559;
293--573;
293--576;
293--661;
293--677;
293--696;
294--318;
294--323;
294--334;
294--397;
294--478;
294--481;
294--485;
294--543;
294--570;
294--583;
294--608;
294--648;
294--652;
295--412;
295--418;
295--444;
295--473;
295--499;
295--500;
295--518;
295--537;
295--575;
295--601;
295--635;
295--638;
295--691;
296--311;
296--338;
296--403;
296--471;
296--472;
296--484;
296--520;
296--576;
296--614;
296--641;
296--650;
296--677;
297--341;
297--356;
297--389;
297--394;
297--417;
297--548;
297--569;
297--615;
297--646;
297--660;
297--672;
298--342;
298--378;
298--387;
298--483;
298--580;
298--584;
298--605;
298--688;
298--698;
299--383;
299--444;
299--495;
299--523;
299--601;
299--638;
299--643;
299--691;
299--693;
300--466;
300--500;
300--522;
300--575;
300--580;
300--590;
300--635;
300--651;
300--685;
300--688;
300--698;
301--320;
301--384;
301--396;
301--438;
301--486;
301--503;
301--512;
301--644;
301--659;
302--381;
302--387;
302--483;
302--528;
302--530;
302--535;
302--558;
302--593;
302--596;
302--602;
302--606;
303--331;
303--411;
303--493;
303--532;
303--546;
303--552;
303--581;
303--624;
303--642;
303--674;
304--411;
304--493;
304--546;
304--624;
304--645;
305--354;
305--358;
305--381;
305--404;
305--447;
305--470;
305--509;
305--519;
305--528;
305--556;
305--692;
305--694;
306--322;
306--329;
306--352;
306--360;
306--375;
306--401;
306--427;
306--434;
306--459;
306--496;
306--540;
306--554;
306--572;
306--574;
306--577;
306--591;
306--625;
306--629;
306--681;
306--689;
307--339;
307--462;
307--488;
307--513;
307--534;
307--610;
308--314;
308--389;
308--391;
308--415;
308--440;
308--457;
308--646;
308--667;
308--690;
309--396;
309--438;
309--468;
309--512;
310--344;
310--351;
310--422;
310--443;
310--456;
310--489;
310--504;
310--527;
310--562;
310--618;
310--640;
310--653;
310--662;
310--671;
311--338;
311--340;
311--348;
311--365;
311--402;
311--403;
311--515;
311--520;
311--576;
311--621;
311--639;
311--641;
312--359;
312--374;
312--386;
312--427;
312--434;
312--461;
312--476;
312--497;
312--542;
312--549;
312--572;
312--603;
313--376;
313--465;
313--480;
313--523;
313--553;
313--588;
313--598;
313--643;
313--693;
314--331;
314--391;
314--415;
314--425;
314--440;
314--452;
314--532;
314--658;
314--690;
315--337;
315--398;
315--453;
315--460;
315--465;
315--523;
315--553;
315--588;
315--589;
315--600;
315--638;
315--683;
315--693;
316--329;
316--375;
316--401;
316--495;
316--496;
316--554;
316--567;
316--574;
316--577;
316--591;
316--629;
316--647;
316--651;
316--691;
317--326;
317--379;
317--382;
317--474;
317--477;
317--482;
317--516;
317--529;
317--670;
318--323;
318--325;
318--334;
318--397;
318--478;
318--481;
318--513;
318--543;
318--559;
318--570;
318--573;
318--652;
319--336;
319--381;
319--395;
319--429;
319--502;
319--530;
319--531;
319--539;
319--558;
319--564;
319--593;
319--594;
319--602;
319--606;
320--346;
320--355;
320--384;
320--435;
320--464;
320--503;
320--510;
320--616;
320--644;
320--666;
321--550;
321--553;
321--610;
322--352;
322--386;
322--388;
322--427;
322--434;
322--459;
322--540;
322--544;
322--554;
322--572;
322--625;
322--628;
322--679;
322--681;
322--689;
323--334;
323--397;
323--478;
323--481;
323--488;
323--513;
323--543;
323--570;
324--410;
324--424;
324--469;
324--494;
324--536;
324--560;
324--604;
324--657;
324--664;
324--686;
324--687;
325--397;
325--403;
325--478;
325--484;
325--559;
325--570;
325--573;
325--576;
325--652;
325--661;
325--677;
325--696;
326--379;
326--419;
326--474;
326--551;
326--670;
327--356;
327--372;
327--405;
327--421;
327--457;
327--491;
327--599;
327--613;
327--672;
328--420;
328--533;
328--632;
328--634;
328--682;
329--375;
329--401;
329--448;
329--495;
329--496;
329--554;
329--567;
329--574;
329--577;
329--591;
329--629;
329--647;
329--651;
329--665;
329--691;
330--363;
330--387;
330--407;
330--409;
330--445;
330--505;
330--521;
330--547;
330--571;
330--578;
330--596;
330--612;
330--655;
330--673;
331--425;
331--532;
331--546;
331--552;
331--581;
331--624;
331--642;
331--674;
332--335;
332--336;
332--436;
332--451;
332--502;
332--507;
332--531;
332--557;
332--585;
332--653;
332--656;
332--678;
333--399;
333--453;
333--460;
333--462;
333--484;
333--559;
333--566;
333--573;
333--576;
333--589;
333--611;
333--661;
333--683;
333--696;
334--397;
334--481;
334--513;
334--543;
335--436;
335--451;
335--489;
335--507;
335--557;
335--585;
335--653;
335--656;
335--671;
336--380;
336--395;
336--429;
336--502;
336--531;
336--539;
336--558;
336--564;
336--594;
336--606;
336--656;
336--678;
337--398;
337--418;
337--453;
337--460;
337--465;
337--588;
337--589;
337--600;
337--611;
337--638;
337--683;
338--403;
338--420;
338--471;
338--472;
338--520;
338--614;
338--620;
338--641;
338--650;
338--682;
339--488;
339--513;
339--534;
339--610;
340--348;
340--365;
340--373;
340--402;
340--408;
340--515;
340--538;
340--582;
340--621;
340--627;
340--636;
340--639;
340--654;
341--366;
341--389;
341--394;
341--417;
341--548;
341--569;
341--615;
341--623;
341--660;
342--378;
342--422;
342--426;
342--483;
342--562;
342--584;
342--605;
342--649;
342--688;
342--698;
343--350;
343--357;
343--359;
343--362;
343--374;
343--428;
343--446;
343--461;
343--463;
343--497;
343--508;
343--517;
343--603;
343--630;
344--351;
344--422;
344--426;
344--443;
344--456;
344--489;
344--504;
344--527;
344--562;
344--584;
344--605;
344--618;
344--622;
344--649;
344--662;
344--671;
345--353;
345--355;
345--435;
345--458;
345--525;
345--526;
345--616;
345--663;
345--666;
346--435;
346--464;
346--468;
346--510;
346--541;
346--637;
346--644;
346--666;
347--350;
347--357;
347--364;
347--374;
347--383;
347--461;
347--517;
347--586;
347--587;
347--603;
348--349;
348--365;
348--373;
348--399;
348--402;
348--408;
348--418;
348--460;
348--473;
348--515;
348--518;
348--566;
348--582;
348--600;
348--611;
348--621;
348--639;
349--373;
349--398;
349--408;
349--412;
349--418;
349--460;
349--473;
349--499;
349--518;
349--582;
349--600;
349--611;
350--357;
350--364;
350--374;
350--428;
350--446;
350--461;
350--463;
350--508;
350--517;
350--586;
350--587;
350--603;
350--630;
351--422;
351--443;
351--456;
351--489;
351--527;
351--562;
351--584;
351--605;
351--618;
351--649;
351--653;
351--662;
351--671;
352--386;
352--427;
352--434;
352--459;
352--540;
352--544;
352--554;
352--572;
352--625;
352--628;
352--681;
352--689;
353--355;
353--435;
353--458;
353--470;
353--556;
353--578;
353--616;
353--663;
354--355;
354--358;
354--384;
354--447;
354--470;
354--503;
354--509;
354--556;
354--616;
354--692;
355--384;
355--435;
355--470;
355--503;
355--556;
355--616;
355--644;
356--421;
356--491;
356--548;
356--613;
356--672;
357--359;
357--374;
357--428;
357--446;
357--461;
357--463;
357--497;
357--508;
357--517;
357--549;
357--586;
357--587;
357--603;
357--630;
358--447;
358--470;
358--509;
358--528;
358--556;
358--692;
359--374;
359--446;
359--461;
359--463;
359--476;
359--497;
359--542;
359--549;
359--603;
359--630;
360--388;
360--392;
360--448;
360--524;
360--540;
360--544;
360--567;
360--591;
360--625;
360--665;
360--679;
360--681;
360--689;
361--380;
361--395;
361--431;
361--449;
361--479;
361--539;
361--561;
361--595;
361--609;
361--675;
361--680;
362--400;
362--423;
362--428;
362--446;
362--463;
362--508;
362--630;
363--370;
363--387;
363--409;
363--445;
363--501;
363--505;
363--521;
363--522;
363--547;
363--596;
363--612;
363--673;
364--383;
364--480;
364--508;
364--517;
364--586;
364--587;
365--373;
365--402;
365--408;
365--430;
365--492;
365--515;
365--538;
365--582;
365--621;
365--627;
365--636;
365--639;
365--654;
366--548;
366--615;
366--623;
366--660;
367--368;
367--385;
367--390;
367--533;
367--592;
367--614;
367--619;
367--620;
367--626;
367--631;
367--650;
368--390;
368--406;
368--419;
368--433;
368--455;
368--551;
368--592;
368--619;
368--620;
368--626;
368--631;
369--424;
369--433;
369--469;
369--536;
369--560;
369--565;
369--632;
370--387;
370--409;
370--501;
370--505;
370--522;
370--547;
370--555;
370--580;
370--590;
370--612;
370--673;
370--685;
370--688;
370--698;
371--393;
371--525;
371--526;
371--579;
371--607;
371--617;
371--666;
371--695;
372--405;
372--421;
372--457;
372--491;
372--599;
372--613;
373--402;
373--408;
373--412;
373--418;
373--473;
373--492;
373--515;
373--518;
373--538;
373--582;
373--621;
373--639;
373--654;
374--446;
374--461;
374--463;
374--476;
374--497;
374--517;
374--542;
374--549;
374--586;
374--603;
374--630;
375--401;
375--448;
375--459;
375--495;
375--496;
375--540;
375--554;
375--567;
375--574;
375--577;
375--591;
375--625;
375--629;
375--647;
375--665;
375--681;
376--465;
376--480;
376--498;
376--523;
376--553;
376--598;
377--413;
377--414;
377--416;
377--450;
377--454;
377--490;
377--634;
377--686;
378--466;
378--483;
378--492;
378--522;
378--580;
378--584;
378--590;
378--605;
378--688;
378--698;
379--382;
379--385;
379--406;
379--419;
379--474;
379--477;
379--482;
379--551;
379--592;
379--619;
379--626;
379--670;
380--395;
380--429;
380--431;
380--479;
380--502;
380--531;
380--539;
380--561;
380--564;
380--594;
380--595;
380--675;
380--678;
381--528;
381--530;
381--535;
381--558;
381--594;
381--596;
381--602;
381--606;
381--692;
382--385;
382--419;
382--474;
382--477;
382--482;
382--516;
382--529;
382--670;
383--517;
383--523;
383--586;
383--587;
383--643;
383--693;
384--396;
384--435;
384--470;
384--486;
384--503;
384--509;
384--556;
384--616;
384--644;
385--570;
385--592;
385--626;
385--652;
386--427;
386--434;
386--459;
386--476;
386--542;
386--572;
386--625;
386--628;
386--689;
387--409;
387--483;
387--521;
387--547;
387--596;
387--612;
387--673;
388--524;
388--540;
388--544;
388--563;
388--628;
388--679;
388--681;
388--684;
388--689;
389--391;
389--394;
389--415;
389--417;
389--548;
389--569;
389--615;
389--646;
389--672;
390--406;
390--433;
390--533;
390--614;
390--619;
390--620;
390--626;
390--631;
390--632;
391--394;
391--415;
391--440;
391--646;
391--690;
392--437;
392--441;
392--448;
392--514;
392--524;
392--540;
392--545;
392--555;
392--567;
392--591;
392--647;
392--665;
392--676;
392--681;
393--525;
393--526;
393--563;
393--579;
393--607;
393--617;
393--684;
393--695;
394--415;
394--417;
394--569;
394--615;
394--660;
395--404;
395--429;
395--442;
395--479;
395--502;
395--519;
395--531;
395--539;
395--561;
395--564;
395--594;
395--668;
395--675;
395--680;
396--438;
396--486;
396--503;
396--512;
396--644;
396--659;
397--478;
397--481;
397--485;
397--543;
397--570;
397--583;
397--608;
397--648;
397--652;
398--412;
398--418;
398--453;
398--460;
398--473;
398--499;
398--518;
398--537;
398--588;
398--589;
398--600;
398--601;
398--611;
398--638;
398--683;
398--693;
399--453;
399--460;
399--462;
399--484;
399--559;
399--566;
399--573;
399--576;
399--611;
399--661;
399--677;
399--696;
400--423;
400--428;
400--463;
400--508;
400--568;
400--630;
401--459;
401--495;
401--496;
401--554;
401--572;
401--574;
401--577;
401--591;
401--625;
401--629;
401--647;
402--408;
402--515;
402--520;
402--582;
402--621;
402--639;
402--641;
402--654;
403--471;
403--472;
403--484;
403--520;
403--559;
403--566;
403--573;
403--576;
403--641;
403--661;
403--677;
403--696;
404--429;
404--442;
404--447;
404--519;
404--539;
404--594;
404--606;
404--668;
404--692;
404--694;
405--421;
405--457;
405--475;
405--487;
405--491;
405--506;
405--511;
405--599;
405--613;
406--419;
406--455;
406--474;
406--551;
406--597;
406--619;
406--626;
407--439;
407--445;
407--458;
407--505;
407--545;
407--571;
407--578;
407--655;
407--663;
408--412;
408--418;
408--460;
408--473;
408--518;
408--566;
408--582;
408--600;
408--611;
408--621;
408--639;
409--445;
409--501;
409--505;
409--521;
409--522;
409--545;
409--547;
409--555;
409--612;
409--673;
409--676;
409--685;
410--424;
410--536;
410--552;
410--604;
410--657;
410--664;
410--686;
410--687;
411--493;
411--546;
411--624;
411--645;
412--418;
412--460;
412--473;
412--499;
412--518;
412--537;
412--582;
412--600;
412--611;
412--635;
413--414;
413--416;
413--432;
413--443;
413--450;
413--454;
413--490;
413--504;
413--618;
413--622;
413--697;
414--416;
414--425;
414--450;
414--454;
414--490;
414--504;
414--581;
414--622;
414--640;
415--440;
415--569;
415--646;
415--690;
416--432;
416--450;
416--454;
416--490;
416--622;
416--634;
416--697;
417--548;
417--569;
417--615;
417--623;
417--660;
418--460;
418--473;
418--499;
418--518;
418--537;
418--582;
418--600;
418--611;
419--455;
419--474;
419--477;
419--482;
419--551;
419--619;
419--626;
419--670;
420--471;
420--472;
420--634;
420--682;
421--457;
421--491;
421--599;
421--613;
421--672;
422--426;
422--443;
422--456;
422--489;
422--527;
422--562;
422--584;
422--605;
422--618;
422--649;
422--671;
423--428;
423--463;
423--508;
423--568;
423--630;
424--469;
424--494;
424--536;
424--560;
424--565;
424--604;
424--664;
424--686;
424--687;
425--452;
425--454;
425--532;
425--581;
425--640;
425--658;
425--662;
426--430;
426--492;
426--538;
426--562;
426--605;
426--627;
426--636;
426--649;
426--654;
426--697;
427--434;
427--459;
427--476;
427--542;
427--554;
427--572;
427--625;
427--628;
427--689;
428--446;
428--463;
428--497;
428--508;
428--517;
428--587;
428--603;
428--630;
429--442;
429--502;
429--519;
429--531;
429--539;
429--558;
429--564;
429--594;
429--606;
430--432;
430--515;
430--538;
430--562;
430--622;
430--627;
430--636;
430--649;
430--654;
430--697;
431--479;
431--506;
431--511;
431--561;
431--595;
431--609;
431--675;
432--443;
432--450;
432--622;
432--627;
432--697;
433--533;
433--565;
433--619;
433--632;
434--459;
434--476;
434--542;
434--549;
434--554;
434--572;
434--625;
434--628;
435--464;
435--503;
435--616;
435--644;
435--666;
436--451;
436--489;
436--507;
436--557;
436--585;
436--593;
436--653;
436--656;
436--671;
437--441;
437--448;
437--496;
437--500;
437--501;
437--514;
437--555;
437--567;
437--577;
437--591;
437--647;
437--651;
437--665;
437--676;
437--685;
438--468;
438--486;
438--512;
438--659;
439--445;
439--458;
439--505;
439--514;
439--524;
439--545;
439--571;
439--578;
439--655;
439--663;
440--451;
440--452;
440--487;
440--633;
440--646;
440--658;
440--667;
440--690;
441--448;
441--501;
441--514;
441--524;
441--545;
441--555;
441--567;
441--591;
441--647;
441--651;
441--665;
441--676;
441--685;
442--447;
442--449;
442--467;
442--519;
442--539;
442--668;
442--669;
442--680;
442--694;
443--450;
443--454;
443--456;
443--490;
443--504;
443--527;
443--562;
443--618;
443--622;
443--640;
443--649;
443--662;
443--697;
444--495;
444--499;
444--537;
444--601;
444--638;
444--643;
444--691;
444--693;
445--501;
445--505;
445--521;
445--545;
445--547;
445--571;
445--578;
445--612;
445--655;
445--673;
446--463;
446--497;
446--603;
446--630;
447--470;
447--509;
447--519;
447--668;
447--692;
447--694;
448--496;
448--514;
448--524;
448--540;
448--545;
448--555;
448--567;
448--577;
448--591;
448--647;
448--665;
448--676;
448--681;
449--467;
449--479;
449--561;
449--595;
449--668;
449--669;
449--675;
449--680;
450--454;
450--490;
450--504;
450--622;
450--627;
450--697;
451--507;
451--557;
451--633;
451--656;
451--667;
451--678;
451--699;
452--633;
452--658;
452--690;
453--460;
453--462;
453--488;
453--566;
453--589;
453--600;
453--611;
453--683;
453--696;
454--490;
454--504;
454--618;
454--622;
454--640;
455--474;
455--551;
455--597;
455--619;
455--626;
456--489;
456--527;
456--562;
456--584;
456--605;
456--618;
456--649;
456--653;
456--662;
456--671;
457--475;
457--487;
457--491;
457--506;
457--599;
457--613;
457--633;
457--646;
457--667;
457--699;
458--525;
458--571;
458--578;
458--655;
458--663;
459--476;
459--540;
459--542;
459--554;
459--572;
459--574;
459--625;
459--628;
459--629;
460--473;
460--499;
460--518;
460--566;
460--582;
460--589;
460--600;
460--611;
460--683;
461--476;
461--517;
461--542;
461--549;
461--586;
461--603;
462--488;
462--513;
462--534;
462--559;
462--573;
462--661;
462--696;
463--497;
463--508;
463--603;
463--630;
464--510;
464--525;
464--526;
464--666;
465--480;
465--523;
465--553;
465--588;
465--598;
465--601;
465--638;
465--643;
465--693;
466--492;
466--500;
466--522;
466--575;
466--580;
466--590;
466--635;
466--685;
466--688;
466--698;
467--668;
467--669;
467--680;
468--512;
468--541;
468--637;
469--494;
469--536;
469--560;
469--565;
470--503;
470--509;
470--556;
470--616;
470--692;
471--472;
471--520;
471--614;
471--620;
471--631;
471--641;
471--650;
471--682;
472--520;
472--614;
472--620;
472--631;
472--641;
472--650;
472--682;
473--499;
473--518;
473--537;
473--582;
473--600;
473--611;
473--621;
473--635;
474--477;
474--482;
474--551;
474--626;
474--670;
475--487;
475--506;
475--511;
475--599;
475--633;
475--667;
475--699;
476--542;
476--549;
476--572;
476--603;
477--482;
477--516;
477--529;
477--670;
478--481;
478--484;
478--543;
478--559;
478--570;
478--573;
478--652;
478--677;
479--539;
479--561;
479--595;
479--609;
479--675;
479--680;
480--523;
480--553;
480--588;
480--598;
480--643;
480--693;
481--485;
481--543;
481--570;
481--583;
481--608;
481--648;
481--652;
482--485;
482--516;
482--529;
482--670;
483--535;
483--584;
483--605;
484--520;
484--559;
484--566;
484--573;
484--576;
484--641;
484--661;
484--677;
484--696;
485--570;
485--583;
485--608;
485--648;
486--512;
486--659;
487--506;
487--599;
487--633;
487--667;
487--699;
488--513;
488--534;
489--527;
489--557;
489--585;
489--593;
489--653;
489--662;
489--671;
490--504;
490--622;
491--599;
491--613;
491--672;
492--538;
492--580;
492--590;
492--621;
492--636;
492--654;
492--688;
492--698;
493--546;
493--624;
493--642;
493--645;
493--657;
493--674;
494--536;
494--560;
494--604;
494--664;
494--687;
495--496;
495--574;
495--577;
495--591;
495--629;
495--647;
495--651;
495--691;
496--554;
496--567;
496--574;
496--577;
496--591;
496--629;
496--647;
496--651;
496--665;
496--691;
497--549;
497--603;
497--630;
498--550;
498--553;
498--568;
498--598;
499--518;
499--537;
499--582;
499--600;
499--601;
499--611;
499--635;
499--638;
500--522;
500--575;
500--580;
500--590;
500--635;
500--651;
500--685;
500--688;
500--698;
501--505;
501--514;
501--522;
501--545;
501--555;
501--612;
501--676;
501--685;
502--531;
502--539;
502--558;
502--564;
502--594;
502--606;
502--656;
502--678;
503--509;
503--556;
503--616;
503--644;
504--527;
504--618;
504--622;
504--640;
504--662;
504--697;
505--514;
505--521;
505--545;
505--547;
505--571;
505--578;
505--612;
505--655;
505--673;
506--511;
506--599;
506--609;
506--699;
507--557;
507--585;
507--633;
507--653;
507--656;
507--678;
507--699;
508--517;
508--587;
508--630;
509--556;
509--692;
509--694;
510--541;
510--637;
510--666;
511--561;
511--595;
511--599;
511--609;
512--659;
513--534;
513--573;
514--524;
514--545;
514--555;
514--567;
514--665;
514--676;
515--538;
515--621;
515--627;
515--636;
515--639;
515--654;
516--529;
516--670;
517--586;
517--587;
517--603;
518--537;
518--582;
518--600;
518--611;
518--635;
519--539;
519--594;
519--606;
519--668;
519--692;
519--694;
520--566;
520--576;
520--641;
520--661;
520--677;
521--547;
521--578;
521--596;
521--612;
521--655;
521--673;
522--580;
522--590;
522--612;
522--685;
522--688;
522--698;
523--553;
523--588;
523--598;
523--601;
523--638;
523--643;
523--693;
524--540;
524--545;
524--567;
524--665;
524--676;
524--681;
525--526;
525--617;
525--666;
526--617;
526--666;
526--695;
527--562;
527--618;
527--640;
527--653;
527--662;
527--671;
528--530;
528--558;
528--596;
528--602;
528--606;
528--692;
529--670;
530--535;
530--558;
530--585;
530--593;
530--594;
530--602;
530--606;
531--539;
531--564;
531--594;
531--656;
531--675;
531--678;
532--552;
532--581;
532--624;
532--642;
532--674;
533--614;
533--620;
533--631;
533--632;
533--682;
534--610;
535--558;
535--585;
535--593;
535--602;
535--606;
536--560;
536--565;
536--604;
536--664;
536--686;
536--687;
537--601;
537--635;
537--638;
537--643;
537--691;
537--693;
538--621;
538--636;
538--639;
538--654;
539--564;
539--594;
539--606;
539--675;
540--544;
540--554;
540--567;
540--591;
540--625;
540--629;
540--665;
540--679;
540--681;
540--689;
541--637;
542--549;
542--572;
542--603;
543--570;
543--583;
543--608;
543--648;
544--628;
544--679;
544--681;
544--684;
544--689;
545--555;
545--567;
545--571;
545--612;
545--655;
545--665;
545--676;
546--552;
546--624;
546--642;
546--645;
546--657;
546--674;
547--578;
547--596;
547--612;
547--655;
547--673;
548--569;
548--615;
548--623;
548--660;
548--672;
549--603;
550--610;
551--597;
551--619;
551--626;
551--670;
552--581;
552--624;
552--642;
552--657;
552--674;
552--686;
553--588;
553--598;
554--572;
554--574;
554--577;
554--591;
554--625;
554--629;
554--681;
555--567;
555--591;
555--647;
555--651;
555--665;
555--676;
555--685;
556--616;
556--692;
557--585;
557--653;
557--656;
557--662;
557--671;
558--585;
558--593;
558--594;
558--602;
558--606;
559--566;
559--573;
559--576;
559--661;
559--677;
559--696;
560--565;
560--664;
561--595;
561--609;
561--675;
561--680;
562--584;
562--605;
562--618;
562--622;
562--636;
562--649;
563--579;
563--607;
563--679;
563--684;
563--695;
564--594;
564--656;
564--675;
564--678;
566--573;
566--576;
566--611;
566--641;
566--661;
566--677;
566--696;
567--577;
567--591;
567--647;
567--651;
567--665;
567--676;
567--681;
569--615;
569--646;
569--660;
569--672;
570--583;
570--608;
570--648;
570--652;
571--578;
571--655;
571--663;
572--625;
572--628;
573--576;
573--661;
573--677;
573--696;
574--577;
574--591;
574--625;
574--629;
574--647;
575--580;
575--590;
575--635;
575--651;
575--685;
576--641;
576--661;
576--677;
576--696;
577--591;
577--629;
577--647;
577--651;
577--665;
577--691;
578--655;
578--663;
578--673;
579--607;
579--617;
579--684;
579--695;
580--590;
580--685;
580--688;
580--698;
581--642;
581--674;
582--600;
582--611;
582--621;
582--639;
583--608;
583--648;
584--605;
584--649;
585--593;
585--602;
585--653;
585--656;
585--671;
586--587;
588--601;
588--638;
588--643;
588--693;
589--600;
589--611;
589--683;
590--635;
590--685;
590--688;
590--698;
591--629;
591--647;
591--665;
591--676;
591--681;
592--619;
592--626;
592--631;
592--650;
592--652;
593--602;
593--606;
594--602;
594--606;
595--609;
595--675;
595--680;
596--602;
596--673;
599--613;
599--699;
600--611;
600--683;
601--638;
601--643;
601--691;
601--693;
602--606;
603--630;
604--657;
604--664;
604--687;
605--649;
607--617;
607--684;
607--695;
608--648;
609--675;
611--683;
612--673;
613--672;
614--620;
614--631;
614--650;
614--682;
615--623;
615--660;
616--644;
617--695;
618--622;
618--640;
618--649;
618--662;
618--671;
619--626;
619--631;
620--631;
620--632;
620--650;
620--682;
621--636;
621--639;
621--654;
622--627;
622--649;
622--697;
623--660;
624--642;
624--645;
624--657;
624--674;
625--628;
625--629;
625--681;
625--689;
627--636;
627--649;
627--654;
627--697;
628--679;
628--689;
629--647;
631--650;
633--667;
633--699;
636--639;
636--649;
636--654;
636--697;
638--643;
638--693;
639--654;
640--662;
640--671;
641--661;
641--677;
642--657;
642--674;
643--693;
646--667;
646--672;
646--690;
647--651;
647--665;
647--676;
647--691;
649--697;
650--652;
651--676;
651--685;
651--691;
652--677;
653--656;
653--662;
653--671;
655--663;
655--673;
656--678;
657--664;
657--686;
657--687;
658--690;
661--677;
661--696;
662--671;
664--687;
665--676;
665--681;
667--690;
667--699;
668--669;
668--680;
668--694;
669--680;
669--694;
675--680;
676--685;
677--696;
678--699;
679--681;
679--684;
679--689;
681--689;
684--695;
686--687;
688--698;
692--694;
}
