Graph D {
overlap = false;
0 [ pos = "3.10221,8.12708!"]
1 [ pos = "8.84854,6.05731!"]
2 [ pos = "5.23026,1.41514!"]
3 [ pos = "5.86871,3.86242!"]
4 [ pos = "5.16739,1.93854!"]
5 [ pos = "4.23414,6.84317!"]
6 [ pos = "1.45604,2.76803!"]
7 [ pos = "6.27338,8.78964!"]
8 [ pos = "2.80099,4.97024!"]
9 [ pos = "3.94726,0.594501!"]
10 [ pos = "4.84481,1.76885!"]
11 [ pos = "7.14774,4.07208!"]
12 [ pos = "1.32817,9.87487!"]
13 [ pos = "2.16681,6.81814!"]
14 [ pos = "2.77718,6.03534!"]
15 [ pos = "7.74102,3.42143!"]
16 [ pos = "5.43016,8.18995!"]
17 [ pos = "8.19178,1.9303!"]
18 [ pos = "5.61571,3.06925!"]
19 [ pos = "5.17441,8.5754!"]
20 [ pos = "1.55461,1.85492!"]
21 [ pos = "7.59362,9.54192!"]
22 [ pos = "6.74123,8.89554!"]
23 [ pos = "9.66887,7.36229!"]
24 [ pos = "8.00409,1.70202!"]
25 [ pos = "6.12934,2.47597!"]
26 [ pos = "8.23572,9.76135!"]
27 [ pos = "7.37053,8.97519!"]
28 [ pos = "9.88403,1.35502!"]
29 [ pos = "2.34016,8.71639!"]
30 [ pos = "1.89734,7.84692!"]
31 [ pos = "9.21293,1.13651!"]
32 [ pos = "1.10355,9.97742!"]
33 [ pos = "9.78423,8.464!"]
34 [ pos = "0.273751,6.91031!"]
35 [ pos = "9.24924,8.84884!"]
36 [ pos = "0.617084,2.30537!"]
37 [ pos = "4.83047,4.49934!"]
38 [ pos = "7.40318,8.81741!"]
39 [ pos = "0.897855,9.41099!"]
40 [ pos = "5.08591,9.40489!"]
41 [ pos = "0.962249,3.03049!"]
42 [ pos = "3.9494,6.88314!"]
43 [ pos = "4.53322,3.39518!"]
44 [ pos = "5.15763,8.58455!"]
45 [ pos = "5.51622,7.21641!"]
46 [ pos = "6.42048,6.97043!"]
47 [ pos = "4.8616,6.26667!"]
48 [ pos = "7.54509,5.91174!"]
49 [ pos = "9.8059,0.554521!"]
50 [ pos = "5.15427,2.27729!"]
51 [ pos = "1.52165,0.334483!"]
52 [ pos = "0.0936918,9.76043!"]
53 [ pos = "8.55617,2.32063!"]
54 [ pos = "0.764183,2.75704!"]
55 [ pos = "1.34373,1.7246!"]
56 [ pos = "2.02429,8.83053!"]
57 [ pos = "9.59716,2.2425!"]
58 [ pos = "3.72662,5.10056!"]
59 [ pos = "5.70727,2.05634!"]
60 [ pos = "6.53859,3.08237!"]
61 [ pos = "9.74548,6.60482!"]
62 [ pos = "6.80227,4.22437!"]
63 [ pos = "1.43132,9.5172!"]
64 [ pos = "7.97662,1.01413!"]
65 [ pos = "7.81518,2.96335!"]
66 [ pos = "4.97543,2.20099!"]
67 [ pos = "8.64315,9.017!"]
68 [ pos = "0.711997,1.72521!"]
69 [ pos = "0.696738,5.66179!"]
70 [ pos = "2.60231,5.56688!"]
71 [ pos = "4.0492,6.11225!"]
72 [ pos = "1.97394,5.20524!"]
73 [ pos = "3.43852,9.33592!"]
74 [ pos = "2.45247,6.94662!"]
75 [ pos = "3.06101,4.38917!"]
76 [ pos = "5.7796,9.27915!"]
77 [ pos = "9.26939,2.59468!"]
78 [ pos = "6.33168,1.93213!"]
79 [ pos = "9.20225,0.987274!"]
80 [ pos = "0.170904,6.65242!"]
81 [ pos = "0.500809,9.064!"]
82 [ pos = "1.97638,7.15384!"]
83 [ pos = "4.2378,9.96063!"]
84 [ pos = "4.93698,0.491653!"]
85 [ pos = "6.24714,7.97937!"]
86 [ pos = "5.90381,0.477004!"]
87 [ pos = "7.46727,8.1521!"]
88 [ pos = "2.01392,1.97699!"]
89 [ pos = "7.89544,1.52196!"]
90 [ pos = "6.90634,9.26969!"]
91 [ pos = "7.61193,3.28135!"]
92 [ pos = "5.74664,8.2635!"]
93 [ pos = "8.27082,1.07395!"]
94 [ pos = "9.87884,7.67022!"]
95 [ pos = "5.73748,8.92209!"]
96 [ pos = "5.20249,4.29212!"]
97 [ pos = "5.42955,9.59288!"]
98 [ pos = "4.66475,8.7991!"]
99 [ pos = "2.65175,6.06342!"]
100 [ pos = "5.72283,6.88589!"]
101 [ pos = "7.01651,2.28126!"]
102 [ pos = "9.61058,2.84768!"]
103 [ pos = "9.2114,5.94195!"]
104 [ pos = "1.90008,4.56709!"]
105 [ pos = "6.12995,2.75094!"]
106 [ pos = "4.51186,6.98569!"]
107 [ pos = "2.97311,3.82824!"]
108 [ pos = "9.16868,1.536!"]
109 [ pos = "4.62477,6.85751!"]
110 [ pos = "2.64534,8.01843!"]
111 [ pos = "9.63713,8.46004!"]
112 [ pos = "6.19587,9.24711!"]
113 [ pos = "4.79659,1.40049!"]
114 [ pos = "6.56789,3.74126!"]
115 [ pos = "2.70486,6.80563!"]
116 [ pos = "5.26139,4.01837!"]
117 [ pos = "5.38133,9.87548!"]
118 [ pos = "7.37205,3.91766!"]
119 [ pos = "9.80438,8.84945!"]
120 [ pos = "2.81381,4.11847!"]
121 [ pos = "2.80831,2.4604!"]
122 [ pos = "2.08777,6.82608!"]
123 [ pos = "9.10733,2.08136!"]
124 [ pos = "7.38823,4.75692!"]
125 [ pos = "3.64635,2.43416!"]
126 [ pos = "8.9169,2.31178!"]
127 [ pos = "4.28571,0.383923!"]
128 [ pos = "7.07633,4.42763!"]
129 [ pos = "9.17722,6.20075!"]
130 [ pos = "4.98337,7.27744!"]
131 [ pos = "1.43864,6.9982!"]
132 [ pos = "3.73302,1.0361!"]
133 [ pos = "8.03461,9.12107!"]
134 [ pos = "6.29536,4.55428!"]
135 [ pos = "6.42994,6.26087!"]
136 [ pos = "6.11225,1.24729!"]
137 [ pos = "7.8518,4.32752!"]
138 [ pos = "4.59761,1.08982!"]
139 [ pos = "6.07349,3.80016!"]
140 [ pos = "9.1113,1.49571!"]
141 [ pos = "1.84362,6.72048!"]
142 [ pos = "0.808741,6.38874!"]
143 [ pos = "1.60344,9.87304!"]
144 [ pos = "1.31993,4.09345!"]
145 [ pos = "1.27415,9.32066!"]
146 [ pos = "9.72747,7.14499!"]
147 [ pos = "7.86798,5.53545!"]
148 [ pos = "8.05658,6.87094!"]
149 [ pos = "9.73571,4.17768!"]
150 [ pos = "5.69384,9.00449!"]
151 [ pos = "6.68233,6.33351!"]
152 [ pos = "2.0777,9.79308!"]
153 [ pos = "0.183416,5.01694!"]
154 [ pos = "3.89813,1.39103!"]
155 [ pos = "7.77917,3.20048!"]
156 [ pos = "9.15647,6.98386!"]
157 [ pos = "0.664693,3.80749!"]
158 [ pos = "7.02017,6.34083!"]
159 [ pos = "5.79516,5.24888!"]
160 [ pos = "0.704367,7.60033!"]
161 [ pos = "9.67071,8.44935!"]
162 [ pos = "1.88604,7.27287!"]
163 [ pos = "6.72994,4.14258!"]
164 [ pos = "0.638447,3.98877!"]
165 [ pos = "7.05985,3.75652!"]
166 [ pos = "5.8385,8.64315!"]
167 [ pos = "2.31452,4.74258!"]
168 [ pos = "8.67,0.565813!"]
169 [ pos = "1.48259,2.931!"]
170 [ pos = "7.49229,2.41096!"]
171 [ pos = "5.72863,1.70507!"]
172 [ pos = "7.20634,1.86102!"]
173 [ pos = "0.249947,1.7127!"]
174 [ pos = "1.58055,2.26478!"]
175 [ pos = "7.10074,6.72842!"]
176 [ pos = "4.05713,3.15226!"]
177 [ pos = "2.5779,2.39113!"]
178 [ pos = "2.56539,1.53203!"]
179 [ pos = "2.23426,6.12781!"]
180 [ pos = "8.12494,2.14179!"]
181 [ pos = "2.14881,9.86877!"]
182 [ pos = "6.70675,5.72466!"]
183 [ pos = "2.99142,3.43394!"]
184 [ pos = "0.27253,5.10147!"]
185 [ pos = "9.93072,6.96158!"]
186 [ pos = "7.27653,5.64745!"]
187 [ pos = "2.77505,6.69454!"]
188 [ pos = "6.5566,5.92853!"]
189 [ pos = "3.18094,1.12918!"]
190 [ pos = "2.60353,2.01025!"]
191 [ pos = "5.54613,5.1735!"]
192 [ pos = "6.00696,1.55156!"]
193 [ pos = "1.58574,9.81262!"]
194 [ pos = "1.64037,7.48405!"]
195 [ pos = "1.81402,5.13108!"]
196 [ pos = "0.148015,2.11737!"]
197 [ pos = "6.46229,6.57613!"]
198 [ pos = "6.7336,7.13279!"]
199 [ pos = "0.0366222,9.37254!"]
200 [ pos = "6.44612,9.4055!"]
201 [ pos = "3.96374,5.2382!"]
202 [ pos = "8.29157,3.16385!"]
203 [ pos = "6.86819,0.255135!"]
204 [ pos = "2.86569,1.89673!"]
205 [ pos = "8.23023,4.17585!"]
206 [ pos = "1.03305,4.93149!"]
207 [ pos = "4.69131,0.839869!"]
208 [ pos = "5.7329,9.9469!"]
209 [ pos = "5.41398,7.99341!"]
210 [ pos = "6.50563,0.13245!"]
211 [ pos = "9.87396,3.87371!"]
212 [ pos = "8.081,9.4879!"]
213 [ pos = "4.52376,8.74233!"]
214 [ pos = "1.56072,8.12952!"]
215 [ pos = "0.184637,3.29264!"]
216 [ pos = "0.67629,7.70775!"]
217 [ pos = "6.02161,3.8786!"]
218 [ pos = "7.47368,1.34068!"]
219 [ pos = "4.80575,7.93176!"]
220 [ pos = "2.90628,9.13724!"]
221 [ pos = "4.11206,3.14676!"]
222 [ pos = "9.39604,5.63646!"]
223 [ pos = "5.38194,2.12836!"]
224 [ pos = "5.7152,5.5855!"]
225 [ pos = "3.66039,1.57659!"]
226 [ pos = "0.82522,5.67217!"]
227 [ pos = "1.5421,2.91025!"]
228 [ pos = "3.78277,8.36024!"]
229 [ pos = "7.6751,0.780358!"]
230 [ pos = "2.78695,6.10553!"]
231 [ pos = "9.33012,8.44905!"]
232 [ pos = "9.12564,6.21021!"]
233 [ pos = "6.2981,5.7387!"]
234 [ pos = "2.40303,4.62477!"]
235 [ pos = "5.98346,7.4752!"]
236 [ pos = "3.31339,7.43095!"]
237 [ pos = "3.23252,9.26328!"]
238 [ pos = "0.550249,7.73644!"]
239 [ pos = "9.49919,4.33424!"]
240 [ pos = "0.484939,9.56206!"]
241 [ pos = "0.551469,1.31932!"]
242 [ pos = "3.28349,5.23911!"]
243 [ pos = "6.41896,9.3762!"]
244 [ pos = "8.352,5.1265!"]
245 [ pos = "7.82403,5.40544!"]
246 [ pos = "6.71804,4.33088!"]
247 [ pos = "6.27705,9.36491!"]
248 [ pos = "9.38108,6.83798!"]
249 [ pos = "6.49129,9.16349!"]
250 [ pos = "0.0540178,9.27946!"]
251 [ pos = "6.14399,7.59392!"]
252 [ pos = "9.33653,0.718711!"]
253 [ pos = "5.4384,1.42033!"]
254 [ pos = "6.43696,7.59728!"]
255 [ pos = "3.70861,8.39686!"]
256 [ pos = "5.374,0.568865!"]
257 [ pos = "8.69442,2.84127!"]
258 [ pos = "6.33351,8.66115!"]
259 [ pos = "2.32765,5.73962!"]
260 [ pos = "0.875576,2.21534!"]
261 [ pos = "1.19419,2.38258!"]
262 [ pos = "3.11686,5.70482!"]
263 [ pos = "6.49068,0.583209!"]
264 [ pos = "9.20621,0.987884!"]
265 [ pos = "3.55205,6.73544!"]
266 [ pos = "5.54674,7.1334!"]
267 [ pos = "1.12857,6.70278!"]
268 [ pos = "3.58623,0.852687!"]
269 [ pos = "1.76855,4.94095!"]
270 [ pos = "6.82882,8.08863!"]
271 [ pos = "3.21146,9.65026!"]
272 [ pos = "5.26444,8.6462!"]
273 [ pos = "2.82266,5.37523!"]
274 [ pos = "4.94797,8.20673!"]
275 [ pos = "9.0643,8.55037!"]
276 [ pos = "7.17826,1.83905!"]
277 [ pos = "2.07648,7.27836!"]
278 [ pos = "3.95367,6.50472!"]
279 [ pos = "5.84582,5.41704!"]
280 [ pos = "5.29008,3.28043!"]
281 [ pos = "3.43638,4.02509!"]
282 [ pos = "0.894192,9.33348!"]
283 [ pos = "0.625324,1.67425!"]
284 [ pos = "4.78927,1.34465!"]
285 [ pos = "8.20246,0.322275!"]
286 [ pos = "8.08039,2.33406!"]
287 [ pos = "5.49425,6.57308!"]
288 [ pos = "3.33995,8.93124!"]
289 [ pos = "3.55052,0.517594!"]
290 [ pos = "5.36912,2.3368!"]
291 [ pos = "2.14667,7.19077!"]
292 [ pos = "8.57295,9.74609!"]
293 [ pos = "6.57796,0.208441!"]
294 [ pos = "2.15491,0.137333!"]
295 [ pos = "4.37757,4.69832!"]
296 [ pos = "1.99774,5.30808!"]
297 [ pos = "4.85366,8.34223!"]
298 [ pos = "3.7553,0.0912503!"]
299 [ pos = "1.92083,6.58773!"]
300 [ pos = "6.5334,1.11606!"]
301 [ pos = "9.41191,1.98828!"]
302 [ pos = "1.87811,7.46086!"]
303 [ pos = "4.07788,9.53917!"]
304 [ pos = "9.83489,5.40941!"]
305 [ pos = "1.12064,0.978423!"]
306 [ pos = "3.85907,9.4528!"]
307 [ pos = "6.56697,2.62429!"]
308 [ pos = "0.611286,8.96878!"]
309 [ pos = "6.37104,4.59212!"]
310 [ pos = "0.354625,0.888394!"]
311 [ pos = "0.0311289,5.52904!"]
312 [ pos = "0.119938,9.38658!"]
313 [ pos = "3.01706,7.48436!"]
314 [ pos = "6.18274,0.43611!"]
315 [ pos = "3.64818,1.47923!"]
316 [ pos = "6.02069,8.24885!"]
317 [ pos = "2.50893,7.03818!"]
318 [ pos = "3.99121,8.35017!"]
319 [ pos = "2.26936,9.56572!"]
320 [ pos = "0.7828,4.66353!"]
321 [ pos = "9.15464,9.33042!"]
322 [ pos = "5.44908,1.648!"]
323 [ pos = "0.538041,6.14795!"]
324 [ pos = "1.83294,3.57585!"]
325 [ pos = "2.44606,5.89648!"]
326 [ pos = "9.64446,7.67266!"]
327 [ pos = "2.41249,0.0302133!"]
328 [ pos = "5.62304,2.30323!"]
329 [ pos = "3.39396,8.4872!"]
330 [ pos = "3.37413,1.96326!"]
331 [ pos = "9.53887,1.09226!"]
332 [ pos = "2.81594,3.73516!"]
333 [ pos = "0.798364,3.9967!"]
334 [ pos = "3.02011,1.38707!"]
335 [ pos = "6.91061,7.06503!"]
336 [ pos = "6.77084,9.62493!"]
337 [ pos = "8.40236,6.75954!"]
338 [ pos = "2.69051,8.45729!"]
339 [ pos = "9.24711,8.13929!"]
340 [ pos = "2.51625,2.42073!"]
341 [ pos = "8.85922,0.391247!"]
342 [ pos = "8.32179,7.78283!"]
343 [ pos = "6.53645,4.09284!"]
344 [ pos = "8.39961,9.0698!"]
345 [ pos = "5.45549,6.3744!"]
346 [ pos = "2.42134,0.583819!"]
347 [ pos = "2.172,3.62743!"]
348 [ pos = "7.59819,5.22752!"]
349 [ pos = "7.52586,1.56499!"]
350 [ pos = "9.14792,8.21131!"]
351 [ pos = "2.12775,0.59389!"]
352 [ pos = "1.68462,3.32072!"]
353 [ pos = "0.493484,1.81555!"]
354 [ pos = "4.40352,0.606098!"]
355 [ pos = "8.60286,6.80807!"]
356 [ pos = "3.42723,2.89224!"]
357 [ pos = "6.48244,3.8966!"]
358 [ pos = "0.641499,0.641194!"]
359 [ pos = "6.57888,6.12751!"]
360 [ pos = "1.01688,6.6686!"]
361 [ pos = "6.42659,2.90902!"]
362 [ pos = "1.06082,0.275887!"]
363 [ pos = "6.72475,9.49187!"]
364 [ pos = "0.908231,0.787988!"]
365 [ pos = "9.62767,7.36991!"]
366 [ pos = "2.88888,9.46532!"]
367 [ pos = "3.08329,5.60442!"]
368 [ pos = "1.46153,2.62764!"]
369 [ pos = "1.68676,9.16135!"]
370 [ pos = "4.42824,3.76263!"]
371 [ pos = "8.98709,6.94723!"]
372 [ pos = "4.57045,4.66414!"]
373 [ pos = "6.75497,0.533158!"]
374 [ pos = "5.56627,1.54973!"]
375 [ pos = "9.62615,5.81347!"]
376 [ pos = "7.46971,7.80602!"]
377 [ pos = "5.03616,5.34165!"]
378 [ pos = "6.42415,6.83401!"]
379 [ pos = "4.7206,0.0497452!"]
380 [ pos = "1.90222,2.63955!"]
381 [ pos = "1.48228,6.71316!"]
382 [ pos = "3.84045,8.54579!"]
383 [ pos = "9.72503,3.19163!"]
384 [ pos = "2.83944,2.0191!"]
385 [ pos = "6.61885,8.3227!"]
386 [ pos = "0.374157,2.28492!"]
387 [ pos = "9.00449,8.68038!"]
388 [ pos = "3.93872,3.44493!"]
389 [ pos = "5.43229,1.47252!"]
390 [ pos = "5.515,5.4384!"]
391 [ pos = "9.42381,2.85012!"]
392 [ pos = "1.92694,4.66048!"]
393 [ pos = "5.26719,5.16129!"]
394 [ pos = "3.78613,1.6184!"]
395 [ pos = "7.78222,6.37318!"]
396 [ pos = "7.09769,0.91464!"]
397 [ pos = "8.66024,1.32328!"]
398 [ pos = "9.43144,5.35417!"]
399 [ pos = "0.534074,8.8464!"]
400 [ pos = "2.1073,7.31651!"]
401 [ pos = "2.05542,2.43873!"]
402 [ pos = "2.37068,2.97372!"]
403 [ pos = "9.23154,6.21418!"]
404 [ pos = "6.26362,4.72884!"]
405 [ pos = "6.33595,3.68694!"]
406 [ pos = "5.11399,0.615558!"]
407 [ pos = "0.127873,5.70727!"]
408 [ pos = "7.48466,2.63375!"]
409 [ pos = "0.105899,6.84469!"]
410 [ pos = "5.31724,5.30686!"]
411 [ pos = "1.37883,7.99036!"]
412 [ pos = "9.12595,7.40654!"]
413 [ pos = "1.6718,8.10511!"]
414 [ pos = "3.67229,0.0448622!"]
415 [ pos = "6.27888,1.20334!"]
416 [ pos = "3.85449,9.43846!"]
417 [ pos = "0.642109,7.01285!"]
418 [ pos = "1.81585,8.82076!"]
419 [ pos = "5.9685,6.58681!"]
420 [ pos = "1.76366,7.5457!"]
421 [ pos = "5.10392,8.69991!"]
422 [ pos = "9.94629,2.51961!"]
423 [ pos = "0.0549333,0.372326!"]
424 [ pos = "4.91348,4.09955!"]
425 [ pos = "5.29405,6.60787!"]
426 [ pos = "8.83206,1.64281!"]
427 [ pos = "8.57845,1.6364!"]
428 [ pos = "5.48204,9.31791!"]
429 [ pos = "9.72015,7.8872!"]
430 [ pos = "5.90655,6.77694!"]
431 [ pos = "3.76171,0.792261!"]
432 [ pos = "9.72137,8.15119!"]
433 [ pos = "4.65285,8.66054!"]
434 [ pos = "0.128178,2.75826!"]
435 [ pos = "4.98795,8.41823!"]
436 [ pos = "4.89761,8.20917!"]
437 [ pos = "2.94076,1.33488!"]
438 [ pos = "5.30198,7.46757!"]
439 [ pos = "5.43199,9.10428!"]
440 [ pos = "1.41057,2.15461!"]
441 [ pos = "3.07535,1.1539!"]
442 [ pos = "6.53981,1.18625!"]
443 [ pos = "3.79528,0.00457778!"]
444 [ pos = "7.27439,3.01187!"]
445 [ pos = "4.44868,4.17554!"]
446 [ pos = "9.55901,7.46208!"]
447 [ pos = "9.57091,8.78719!"]
448 [ pos = "7.14896,5.81927!"]
449 [ pos = "9.73968,3.86059!"]
450 [ pos = "7.49565,1.41148!"]
451 [ pos = "5.28428,0.661031!"]
452 [ pos = "3.11075,4.06873!"]
453 [ pos = "0.367443,8.46675!"]
454 [ pos = "4.92843,6.40461!"]
455 [ pos = "4.14502,9.17997!"]
456 [ pos = "9.34874,4.36811!"]
457 [ pos = "5.94867,6.42598!"]
458 [ pos = "3.79406,5.06363!"]
459 [ pos = "6.54225,0.494095!"]
460 [ pos = "7.97418,7.76238!"]
461 [ pos = "3.69304,1.90161!"]
462 [ pos = "0.886258,5.51744!"]
463 [ pos = "3.82855,5.7561!"]
464 [ pos = "8.12922,1.15452!"]
465 [ pos = "8.68496,7.70623!"]
466 [ pos = "1.62481,8.8464!"]
467 [ pos = "2.82571,1.34983!"]
468 [ pos = "5.58733,7.25974!"]
469 [ pos = "0.971709,7.77093!"]
470 [ pos = "9.78027,8.65596!"]
471 [ pos = "9.49126,1.64617!"]
472 [ pos = "5.0264,6.53188!"]
473 [ pos = "0.415662,6.35365!"]
474 [ pos = "7.84326,8.71761!"]
475 [ pos = "5.1796,3.96191!"]
476 [ pos = "2.16559,9.50285!"]
477 [ pos = "5.23057,6.17267!"]
478 [ pos = "7.7282,9.61333!"]
479 [ pos = "3.9433,0.412305!"]
480 [ pos = "7.95495,2.9667!"]
481 [ pos = "5.14847,2.65267!"]
482 [ pos = "6.49281,0.319529!"]
483 [ pos = "4.3028,6.3509!"]
484 [ pos = "2.00049,8.4518!"]
485 [ pos = "5.15702,6.47389!"]
486 [ pos = "6.76809,5.67461!"]
487 [ pos = "3.92712,0.0704978!"]
488 [ pos = "7.41783,6.41041!"]
489 [ pos = "0.733665,1.60558!"]
490 [ pos = "6.57979,5.65752!"]
491 [ pos = "0.665304,3.47118!"]
492 [ pos = "4.29731,4.57625!"]
493 [ pos = "0.528581,1.02084!"]
494 [ pos = "8.25526,7.42332!"]
495 [ pos = "8.35902,8.36421!"]
496 [ pos = "3.96924,3.91278!"]
497 [ pos = "7.42088,7.2692!"]
498 [ pos = "1.09561,6.03015!"]
499 [ pos = "0.877712,8.11213!"]
0--29;
0--110;
0--228;
0--236;
0--255;
0--288;
0--313;
0--318;
0--329;
0--338;
0--382;
1--103;
1--129;
1--156;
1--222;
1--232;
1--248;
1--337;
1--355;
1--371;
1--375;
1--398;
1--403;
2--4;
2--10;
2--50;
2--59;
2--66;
2--84;
2--113;
2--136;
2--138;
2--171;
2--192;
2--207;
2--223;
2--253;
2--256;
2--284;
2--290;
2--322;
2--328;
2--374;
2--389;
2--406;
2--451;
3--18;
3--96;
3--114;
3--116;
3--134;
3--139;
3--163;
3--217;
3--246;
3--280;
3--309;
3--343;
3--357;
3--404;
3--405;
3--424;
3--475;
4--10;
4--50;
4--59;
4--66;
4--113;
4--171;
4--192;
4--223;
4--253;
4--284;
4--290;
4--322;
4--328;
4--374;
4--389;
4--481;
5--42;
5--47;
5--71;
5--106;
5--109;
5--130;
5--265;
5--278;
5--454;
5--472;
5--483;
5--485;
6--20;
6--36;
6--41;
6--54;
6--88;
6--169;
6--174;
6--227;
6--260;
6--261;
6--324;
6--352;
6--368;
6--380;
6--401;
6--402;
6--440;
7--22;
7--76;
7--85;
7--90;
7--92;
7--95;
7--112;
7--150;
7--166;
7--200;
7--243;
7--247;
7--249;
7--258;
7--270;
7--316;
7--336;
7--363;
7--385;
7--428;
7--439;
8--58;
8--70;
8--72;
8--75;
8--104;
8--120;
8--167;
8--195;
8--234;
8--242;
8--259;
8--262;
8--273;
8--296;
8--325;
8--367;
8--392;
8--452;
8--458;
9--84;
9--127;
9--132;
9--138;
9--154;
9--189;
9--207;
9--268;
9--289;
9--298;
9--315;
9--354;
9--379;
9--414;
9--431;
9--443;
9--479;
9--487;
10--50;
10--59;
10--66;
10--113;
10--138;
10--171;
10--207;
10--223;
10--253;
10--284;
10--290;
10--322;
10--328;
10--374;
10--389;
10--481;
11--15;
11--62;
11--91;
11--114;
11--118;
11--124;
11--128;
11--134;
11--137;
11--163;
11--165;
11--246;
11--309;
11--343;
11--357;
11--405;
12--32;
12--39;
12--63;
12--143;
12--145;
12--152;
12--181;
12--193;
12--240;
12--282;
12--319;
12--369;
12--476;
13--14;
13--74;
13--82;
13--99;
13--115;
13--122;
13--131;
13--141;
13--162;
13--179;
13--187;
13--194;
13--230;
13--277;
13--291;
13--299;
13--302;
13--317;
13--325;
13--381;
13--400;
13--420;
14--70;
14--74;
14--99;
14--115;
14--179;
14--187;
14--230;
14--242;
14--259;
14--262;
14--273;
14--325;
14--367;
15--65;
15--91;
15--118;
15--137;
15--155;
15--165;
15--202;
15--205;
15--408;
15--444;
15--480;
16--19;
16--44;
16--45;
16--85;
16--92;
16--95;
16--98;
16--150;
16--166;
16--209;
16--219;
16--235;
16--251;
16--272;
16--274;
16--297;
16--316;
16--421;
16--433;
16--435;
16--436;
16--438;
16--439;
16--468;
17--24;
17--53;
17--64;
17--89;
17--93;
17--123;
17--126;
17--170;
17--172;
17--180;
17--218;
17--286;
17--349;
17--397;
17--408;
17--426;
17--427;
17--450;
17--464;
18--25;
18--50;
18--60;
18--105;
18--139;
18--217;
18--223;
18--280;
18--290;
18--328;
18--361;
18--405;
18--475;
18--481;
19--40;
19--44;
19--76;
19--92;
19--95;
19--98;
19--150;
19--166;
19--209;
19--213;
19--219;
19--272;
19--274;
19--297;
19--316;
19--421;
19--428;
19--433;
19--435;
19--436;
19--439;
20--55;
20--68;
20--88;
20--174;
20--260;
20--261;
20--283;
20--305;
20--368;
20--380;
20--401;
20--440;
20--489;
21--26;
21--27;
21--38;
21--90;
21--133;
21--212;
21--336;
21--344;
21--363;
21--474;
21--478;
22--27;
22--38;
22--90;
22--112;
22--166;
22--200;
22--243;
22--247;
22--249;
22--258;
22--270;
22--316;
22--336;
22--363;
22--385;
23--61;
23--94;
23--146;
23--156;
23--185;
23--248;
23--326;
23--339;
23--350;
23--365;
23--371;
23--412;
23--429;
23--432;
23--446;
24--53;
24--64;
24--89;
24--93;
24--170;
24--172;
24--180;
24--218;
24--229;
24--276;
24--286;
24--349;
24--397;
24--426;
24--427;
24--450;
24--464;
25--50;
25--59;
25--60;
25--78;
25--101;
25--105;
25--171;
25--192;
25--223;
25--290;
25--307;
25--328;
25--361;
25--481;
26--67;
26--133;
26--212;
26--292;
26--344;
26--478;
27--38;
27--87;
27--90;
27--133;
27--212;
27--249;
27--336;
27--363;
27--385;
27--474;
27--478;
28--31;
28--49;
28--57;
28--79;
28--108;
28--140;
28--252;
28--264;
28--301;
28--331;
28--471;
29--30;
29--56;
29--110;
29--214;
29--220;
29--319;
29--338;
29--366;
29--369;
29--413;
29--418;
29--466;
29--476;
29--484;
30--56;
30--82;
30--110;
30--131;
30--162;
30--194;
30--214;
30--277;
30--291;
30--302;
30--400;
30--411;
30--413;
30--418;
30--420;
30--469;
30--484;
31--49;
31--79;
31--93;
31--108;
31--123;
31--140;
31--168;
31--252;
31--264;
31--301;
31--331;
31--341;
31--397;
31--426;
31--427;
31--471;
32--39;
32--63;
32--143;
32--145;
32--152;
32--193;
32--240;
32--282;
33--35;
33--94;
33--111;
33--119;
33--161;
33--231;
33--275;
33--326;
33--339;
33--350;
33--387;
33--429;
33--432;
33--447;
33--470;
34--80;
34--142;
34--160;
34--216;
34--238;
34--267;
34--323;
34--360;
34--409;
34--417;
34--473;
35--67;
35--111;
35--119;
35--161;
35--231;
35--275;
35--321;
35--339;
35--344;
35--350;
35--387;
35--432;
35--447;
35--470;
36--41;
36--54;
36--55;
36--68;
36--173;
36--174;
36--196;
36--241;
36--260;
36--261;
36--283;
36--353;
36--368;
36--386;
36--434;
36--440;
36--489;
37--96;
37--116;
37--191;
37--295;
37--370;
37--372;
37--377;
37--393;
37--410;
37--424;
37--445;
37--475;
37--492;
38--87;
38--90;
38--133;
38--212;
38--249;
38--270;
38--363;
38--385;
38--474;
38--478;
39--52;
39--63;
39--81;
39--143;
39--145;
39--193;
39--199;
39--240;
39--250;
39--282;
39--308;
39--312;
39--369;
39--399;
39--466;
40--44;
40--76;
40--95;
40--97;
40--98;
40--117;
40--150;
40--208;
40--213;
40--272;
40--421;
40--428;
40--433;
40--435;
40--439;
40--455;
41--54;
41--157;
41--169;
41--174;
41--215;
41--227;
41--260;
41--261;
41--333;
41--352;
41--368;
41--386;
41--434;
41--440;
41--491;
42--71;
42--106;
42--109;
42--236;
42--265;
42--278;
42--483;
43--116;
43--176;
43--221;
43--280;
43--370;
43--388;
43--424;
43--445;
43--475;
43--481;
43--496;
44--76;
44--92;
44--95;
44--98;
44--150;
44--166;
44--209;
44--213;
44--219;
44--272;
44--274;
44--297;
44--316;
44--421;
44--428;
44--433;
44--435;
44--436;
44--439;
45--46;
45--100;
45--109;
45--130;
45--209;
45--235;
45--251;
45--254;
45--266;
45--287;
45--345;
45--378;
45--419;
45--425;
45--430;
45--438;
45--457;
45--468;
45--472;
45--485;
46--100;
46--135;
46--151;
46--158;
46--175;
46--197;
46--198;
46--235;
46--251;
46--254;
46--266;
46--335;
46--359;
46--378;
46--419;
46--430;
46--457;
46--468;
47--71;
47--106;
47--109;
47--278;
47--287;
47--345;
47--377;
47--425;
47--454;
47--472;
47--477;
47--483;
47--485;
48--147;
48--151;
48--158;
48--175;
48--182;
48--186;
48--188;
48--245;
48--348;
48--359;
48--395;
48--448;
48--486;
48--488;
48--490;
49--79;
49--252;
49--264;
49--331;
49--341;
50--59;
50--66;
50--113;
50--171;
50--223;
50--253;
50--290;
50--322;
50--328;
50--374;
50--389;
50--481;
51--294;
51--305;
51--327;
51--346;
51--351;
51--358;
51--362;
51--364;
52--81;
52--199;
52--240;
52--250;
52--282;
52--308;
52--312;
53--65;
53--77;
53--108;
53--123;
53--126;
53--140;
53--180;
53--202;
53--257;
53--286;
53--301;
53--426;
53--427;
53--480;
54--169;
54--174;
54--196;
54--215;
54--227;
54--260;
54--261;
54--353;
54--368;
54--386;
54--434;
54--440;
54--491;
55--68;
55--88;
55--174;
55--241;
55--260;
55--261;
55--283;
55--305;
55--353;
55--368;
55--440;
55--489;
56--63;
56--145;
56--152;
56--214;
56--220;
56--319;
56--338;
56--369;
56--413;
56--418;
56--466;
56--476;
56--484;
57--77;
57--102;
57--108;
57--123;
57--126;
57--140;
57--301;
57--383;
57--391;
57--422;
57--426;
57--471;
58--75;
58--201;
58--242;
58--262;
58--273;
58--295;
58--367;
58--372;
58--458;
58--463;
58--492;
59--66;
59--78;
59--105;
59--136;
59--171;
59--192;
59--223;
59--253;
59--290;
59--322;
59--328;
59--374;
59--389;
59--481;
60--101;
60--105;
60--114;
60--139;
60--165;
60--217;
60--307;
60--357;
60--361;
60--405;
60--444;
61--103;
61--129;
61--146;
61--156;
61--185;
61--232;
61--248;
61--365;
61--371;
61--375;
61--403;
61--446;
62--114;
62--118;
62--124;
62--128;
62--134;
62--139;
62--163;
62--165;
62--217;
62--246;
62--309;
62--343;
62--357;
62--404;
62--405;
63--143;
63--145;
63--152;
63--181;
63--193;
63--240;
63--282;
63--308;
63--319;
63--369;
63--418;
63--466;
63--476;
64--89;
64--93;
64--168;
64--218;
64--229;
64--285;
64--349;
64--396;
64--397;
64--427;
64--450;
64--464;
65--91;
65--155;
65--170;
65--180;
65--202;
65--257;
65--286;
65--408;
65--444;
65--480;
66--113;
66--171;
66--223;
66--253;
66--284;
66--290;
66--322;
66--328;
66--374;
66--389;
66--481;
67--133;
67--212;
67--231;
67--275;
67--292;
67--321;
67--344;
67--350;
67--387;
67--447;
67--474;
67--495;
68--173;
68--196;
68--241;
68--260;
68--261;
68--283;
68--305;
68--310;
68--353;
68--364;
68--386;
68--440;
68--489;
68--493;
69--142;
69--153;
69--184;
69--206;
69--226;
69--311;
69--323;
69--407;
69--462;
69--473;
69--498;
70--72;
70--99;
70--167;
70--179;
70--195;
70--230;
70--234;
70--242;
70--259;
70--262;
70--273;
70--296;
70--325;
70--367;
71--106;
71--109;
71--201;
71--265;
71--278;
71--454;
71--463;
71--483;
72--104;
72--167;
72--179;
72--195;
72--206;
72--234;
72--259;
72--269;
72--273;
72--296;
72--325;
72--392;
73--220;
73--237;
73--255;
73--271;
73--288;
73--303;
73--306;
73--329;
73--366;
73--382;
73--416;
73--455;
74--82;
74--99;
74--115;
74--122;
74--141;
74--162;
74--179;
74--187;
74--194;
74--230;
74--236;
74--277;
74--291;
74--299;
74--302;
74--313;
74--317;
74--381;
74--400;
74--420;
75--107;
75--120;
75--167;
75--183;
75--234;
75--242;
75--281;
75--332;
75--452;
75--458;
76--95;
76--97;
76--112;
76--117;
76--150;
76--166;
76--200;
76--208;
76--243;
76--247;
76--249;
76--258;
76--272;
76--363;
76--421;
76--428;
76--439;
77--102;
77--123;
77--126;
77--257;
77--301;
77--383;
77--391;
77--422;
77--471;
78--101;
78--105;
78--136;
78--171;
78--172;
78--192;
78--223;
78--276;
78--300;
78--307;
78--322;
78--328;
78--361;
78--374;
78--415;
78--442;
79--93;
79--108;
79--140;
79--168;
79--252;
79--264;
79--331;
79--341;
79--397;
79--426;
79--427;
79--471;
80--142;
80--267;
80--323;
80--360;
80--407;
80--409;
80--417;
80--473;
81--145;
81--199;
81--240;
81--250;
81--282;
81--308;
81--312;
81--399;
81--453;
82--115;
82--122;
82--131;
82--141;
82--162;
82--187;
82--194;
82--267;
82--277;
82--291;
82--299;
82--302;
82--317;
82--381;
82--400;
82--413;
82--420;
83--303;
83--306;
83--416;
83--455;
84--86;
84--113;
84--127;
84--138;
84--207;
84--256;
84--284;
84--354;
84--379;
84--406;
84--451;
84--479;
85--92;
85--166;
85--198;
85--209;
85--235;
85--251;
85--254;
85--258;
85--270;
85--316;
85--385;
85--468;
86--136;
86--203;
86--210;
86--256;
86--263;
86--293;
86--300;
86--314;
86--373;
86--406;
86--415;
86--442;
86--451;
86--459;
86--482;
87--270;
87--342;
87--376;
87--385;
87--460;
87--474;
87--495;
87--497;
88--121;
88--174;
88--177;
88--178;
88--190;
88--204;
88--261;
88--340;
88--368;
88--380;
88--384;
88--401;
88--440;
89--93;
89--170;
89--172;
89--180;
89--218;
89--229;
89--276;
89--286;
89--349;
89--397;
89--426;
89--427;
89--450;
89--464;
90--112;
90--200;
90--243;
90--247;
90--249;
90--258;
90--336;
90--363;
90--385;
90--478;
91--118;
91--155;
91--165;
91--170;
91--202;
91--408;
91--444;
91--480;
92--95;
92--150;
92--166;
92--209;
92--219;
92--235;
92--251;
92--254;
92--258;
92--272;
92--274;
92--297;
92--316;
92--385;
92--421;
92--435;
92--436;
92--438;
92--439;
93--140;
93--168;
93--218;
93--229;
93--264;
93--285;
93--341;
93--349;
93--397;
93--426;
93--427;
93--450;
93--464;
94--111;
94--146;
94--156;
94--161;
94--185;
94--231;
94--248;
94--326;
94--339;
94--350;
94--365;
94--412;
94--429;
94--432;
94--446;
94--470;
95--97;
95--112;
95--150;
95--166;
95--200;
95--209;
95--243;
95--247;
95--249;
95--258;
95--272;
95--316;
95--421;
95--428;
95--435;
95--439;
96--116;
96--191;
96--217;
96--295;
96--370;
96--372;
96--393;
96--424;
96--445;
96--475;
96--492;
97--112;
97--117;
97--150;
97--208;
97--247;
97--272;
97--421;
97--428;
97--439;
98--213;
98--219;
98--228;
98--272;
98--274;
98--297;
98--303;
98--318;
98--382;
98--421;
98--428;
98--433;
98--435;
98--436;
98--439;
98--455;
99--115;
99--122;
99--179;
99--187;
99--230;
99--259;
99--262;
99--273;
99--296;
99--299;
99--317;
99--325;
99--367;
100--130;
100--135;
100--197;
100--235;
100--251;
100--266;
100--287;
100--345;
100--378;
100--419;
100--425;
100--430;
100--438;
100--454;
100--457;
100--468;
100--472;
100--477;
100--485;
101--170;
101--172;
101--276;
101--307;
101--349;
101--361;
101--408;
101--444;
101--450;
102--123;
102--126;
102--257;
102--301;
102--383;
102--391;
102--422;
103--129;
103--222;
103--232;
103--248;
103--304;
103--375;
103--398;
103--403;
104--144;
104--167;
104--195;
104--206;
104--234;
104--269;
104--296;
104--324;
104--347;
104--392;
105--223;
105--280;
105--290;
105--307;
105--328;
105--361;
105--405;
105--481;
106--109;
106--130;
106--219;
106--265;
106--278;
106--425;
106--438;
106--454;
106--472;
106--483;
106--485;
107--120;
107--183;
107--234;
107--281;
107--332;
107--347;
107--452;
107--496;
108--123;
108--126;
108--140;
108--252;
108--264;
108--301;
108--331;
108--397;
108--426;
108--427;
108--471;
109--130;
109--266;
109--278;
109--287;
109--345;
109--425;
109--438;
109--454;
109--472;
109--477;
109--483;
109--485;
110--236;
110--277;
110--291;
110--302;
110--313;
110--317;
110--329;
110--338;
110--400;
110--413;
110--484;
111--119;
111--161;
111--231;
111--275;
111--321;
111--326;
111--339;
111--350;
111--387;
111--429;
111--432;
111--447;
111--470;
112--150;
112--166;
112--200;
112--208;
112--243;
112--247;
112--249;
112--258;
112--336;
112--363;
112--428;
112--439;
113--138;
113--154;
113--171;
113--207;
113--223;
113--253;
113--284;
113--322;
113--354;
113--374;
113--389;
113--406;
113--451;
114--118;
114--128;
114--134;
114--139;
114--163;
114--165;
114--217;
114--246;
114--309;
114--343;
114--357;
114--361;
114--405;
115--122;
115--141;
115--162;
115--179;
115--187;
115--230;
115--236;
115--265;
115--277;
115--291;
115--299;
115--313;
115--317;
115--325;
115--400;
116--139;
116--217;
116--280;
116--370;
116--372;
116--424;
116--445;
116--475;
117--150;
117--208;
117--428;
117--439;
118--124;
118--128;
118--137;
118--155;
118--163;
118--165;
118--205;
118--246;
118--343;
118--357;
118--444;
119--161;
119--231;
119--275;
119--321;
119--339;
119--350;
119--387;
119--429;
119--432;
119--447;
119--470;
120--167;
120--183;
120--234;
120--281;
120--332;
120--347;
120--452;
121--125;
121--177;
121--178;
121--183;
121--190;
121--204;
121--330;
121--340;
121--356;
121--380;
121--384;
121--401;
121--402;
122--131;
122--141;
122--162;
122--179;
122--187;
122--194;
122--267;
122--277;
122--291;
122--299;
122--302;
122--317;
122--325;
122--381;
122--400;
122--420;
123--126;
123--140;
123--180;
123--257;
123--301;
123--391;
123--397;
123--422;
123--426;
123--427;
123--471;
124--128;
124--137;
124--147;
124--163;
124--186;
124--245;
124--246;
124--348;
125--176;
125--204;
125--221;
125--225;
125--315;
125--330;
125--356;
125--384;
125--394;
125--461;
126--140;
126--180;
126--257;
126--286;
126--301;
126--391;
126--426;
126--427;
126--471;
127--132;
127--138;
127--207;
127--268;
127--289;
127--298;
127--354;
127--379;
127--406;
127--414;
127--431;
127--443;
127--479;
127--487;
128--134;
128--137;
128--163;
128--165;
128--246;
128--309;
128--343;
128--348;
128--357;
128--404;
129--156;
129--222;
129--232;
129--248;
129--337;
129--355;
129--371;
129--375;
129--398;
129--403;
130--209;
130--219;
130--266;
130--274;
130--287;
130--425;
130--436;
130--438;
130--454;
130--468;
130--472;
130--485;
131--141;
131--142;
131--160;
131--162;
131--194;
131--267;
131--277;
131--291;
131--299;
131--302;
131--360;
131--381;
131--400;
131--411;
131--417;
131--420;
131--469;
132--138;
132--154;
132--189;
132--207;
132--225;
132--268;
132--289;
132--298;
132--315;
132--330;
132--334;
132--354;
132--394;
132--414;
132--431;
132--437;
132--441;
132--461;
132--467;
132--479;
132--487;
133--212;
133--292;
133--344;
133--474;
133--478;
133--495;
134--139;
134--159;
134--163;
134--191;
134--217;
134--246;
134--279;
134--309;
134--343;
134--357;
134--404;
134--405;
135--151;
135--158;
135--175;
135--182;
135--188;
135--197;
135--198;
135--224;
135--233;
135--287;
135--335;
135--345;
135--359;
135--378;
135--419;
135--430;
135--448;
135--457;
135--486;
135--488;
135--490;
136--171;
136--192;
136--253;
136--263;
136--300;
136--314;
136--322;
136--373;
136--374;
136--389;
136--415;
136--442;
136--459;
137--165;
137--205;
137--244;
137--348;
138--154;
138--207;
138--253;
138--256;
138--284;
138--354;
138--389;
138--394;
138--406;
138--431;
138--451;
138--479;
139--163;
139--165;
139--217;
139--246;
139--280;
139--309;
139--343;
139--357;
139--361;
139--404;
139--405;
139--475;
140--252;
140--264;
140--301;
140--331;
140--397;
140--426;
140--427;
140--471;
141--162;
141--179;
141--187;
141--194;
141--267;
141--277;
141--291;
141--299;
141--302;
141--317;
141--360;
141--381;
141--400;
141--420;
142--226;
142--267;
142--323;
142--360;
142--381;
142--407;
142--409;
142--417;
142--462;
142--473;
142--498;
143--145;
143--152;
143--181;
143--193;
143--282;
143--319;
143--369;
143--476;
144--157;
144--164;
144--206;
144--269;
144--320;
144--324;
144--333;
144--347;
144--352;
144--392;
144--491;
145--152;
145--193;
145--240;
145--282;
145--308;
145--369;
145--399;
145--418;
145--466;
145--476;
146--156;
146--185;
146--248;
146--326;
146--365;
146--371;
146--412;
146--429;
146--446;
147--186;
147--244;
147--245;
147--348;
147--395;
147--448;
147--488;
148--175;
148--337;
148--342;
148--355;
148--371;
148--395;
148--460;
148--488;
148--494;
148--497;
149--211;
149--239;
149--383;
149--449;
149--456;
150--166;
150--200;
150--208;
150--243;
150--247;
150--249;
150--258;
150--272;
150--316;
150--421;
150--428;
150--435;
150--439;
151--158;
151--175;
151--182;
151--186;
151--188;
151--197;
151--198;
151--233;
151--335;
151--359;
151--378;
151--419;
151--430;
151--448;
151--457;
151--486;
151--488;
151--490;
152--181;
152--193;
152--319;
152--366;
152--369;
152--476;
153--184;
153--206;
153--226;
153--311;
153--320;
153--407;
153--462;
154--189;
154--207;
154--225;
154--268;
154--284;
154--289;
154--315;
154--330;
154--334;
154--354;
154--394;
154--431;
154--437;
154--441;
154--461;
154--479;
155--165;
155--170;
155--202;
155--257;
155--286;
155--408;
155--444;
155--480;
156--185;
156--232;
156--248;
156--326;
156--337;
156--355;
156--365;
156--371;
156--403;
156--412;
156--446;
156--465;
157--164;
157--215;
157--320;
157--333;
157--491;
158--175;
158--182;
158--186;
158--188;
158--197;
158--198;
158--233;
158--335;
158--359;
158--378;
158--395;
158--448;
158--486;
158--488;
158--490;
159--191;
159--224;
159--233;
159--279;
159--309;
159--377;
159--390;
159--393;
159--404;
159--410;
159--490;
160--194;
160--216;
160--238;
160--267;
160--360;
160--409;
160--411;
160--417;
160--453;
160--469;
160--499;
161--231;
161--275;
161--326;
161--339;
161--350;
161--387;
161--429;
161--432;
161--446;
161--447;
161--470;
162--194;
162--214;
162--267;
162--277;
162--291;
162--299;
162--302;
162--317;
162--381;
162--400;
162--411;
162--413;
162--420;
163--165;
163--217;
163--246;
163--309;
163--343;
163--357;
163--404;
163--405;
164--215;
164--320;
164--333;
164--491;
165--246;
165--343;
165--357;
165--405;
165--444;
166--200;
166--209;
166--243;
166--247;
166--249;
166--258;
166--272;
166--274;
166--316;
166--385;
166--421;
166--428;
166--435;
166--439;
167--195;
167--234;
167--259;
167--269;
167--273;
167--296;
167--392;
168--252;
168--264;
168--285;
168--341;
168--397;
168--464;
169--174;
169--227;
169--260;
169--261;
169--324;
169--347;
169--352;
169--368;
169--380;
169--401;
169--402;
169--440;
169--491;
170--172;
170--180;
170--276;
170--286;
170--307;
170--349;
170--408;
170--444;
170--450;
170--480;
171--192;
171--223;
171--253;
171--290;
171--300;
171--322;
171--328;
171--374;
171--389;
171--415;
171--442;
172--180;
172--218;
172--276;
172--286;
172--307;
172--349;
172--396;
172--408;
172--442;
172--450;
173--196;
173--241;
173--260;
173--283;
173--310;
173--353;
173--386;
173--489;
173--493;
174--227;
174--260;
174--261;
174--340;
174--368;
174--380;
174--401;
174--440;
175--188;
175--197;
175--198;
175--335;
175--359;
175--378;
175--395;
175--448;
175--488;
175--497;
176--221;
176--356;
176--370;
176--388;
176--496;
177--178;
177--190;
177--204;
177--330;
177--340;
177--356;
177--380;
177--384;
177--401;
177--402;
178--189;
178--190;
178--204;
178--330;
178--334;
178--340;
178--346;
178--384;
178--437;
178--441;
178--467;
179--187;
179--230;
179--259;
179--262;
179--273;
179--296;
179--299;
179--317;
179--325;
179--367;
179--381;
180--257;
180--276;
180--286;
180--349;
180--397;
180--408;
180--426;
180--427;
180--450;
180--464;
180--480;
181--193;
181--319;
181--366;
181--369;
181--476;
182--186;
182--188;
182--197;
182--233;
182--279;
182--359;
182--448;
182--486;
182--488;
182--490;
183--281;
183--332;
183--347;
183--356;
183--388;
183--402;
183--452;
184--206;
184--226;
184--311;
184--320;
184--407;
184--462;
185--248;
185--326;
185--365;
185--371;
185--412;
185--429;
185--446;
186--188;
186--233;
186--245;
186--348;
186--359;
186--395;
186--448;
186--486;
186--488;
186--490;
187--230;
187--236;
187--265;
187--277;
187--291;
187--299;
187--313;
187--317;
187--325;
187--400;
188--197;
188--224;
188--233;
188--279;
188--359;
188--378;
188--419;
188--448;
188--457;
188--486;
188--488;
188--490;
189--204;
189--225;
189--268;
189--289;
189--315;
189--330;
189--334;
189--346;
189--384;
189--394;
189--431;
189--437;
189--441;
189--461;
189--467;
190--204;
190--330;
190--334;
190--340;
190--380;
190--384;
190--401;
190--402;
190--437;
190--441;
190--467;
191--224;
191--233;
191--279;
191--377;
191--390;
191--393;
191--404;
191--410;
192--223;
192--253;
192--300;
192--322;
192--328;
192--374;
192--389;
192--415;
192--442;
193--282;
193--319;
193--369;
193--466;
193--476;
194--214;
194--216;
194--267;
194--277;
194--291;
194--299;
194--302;
194--317;
194--381;
194--400;
194--411;
194--413;
194--420;
194--469;
194--499;
195--206;
195--234;
195--259;
195--269;
195--296;
195--325;
195--392;
196--241;
196--260;
196--283;
196--353;
196--386;
196--434;
196--489;
197--198;
197--233;
197--287;
197--335;
197--359;
197--378;
197--419;
197--430;
197--457;
197--486;
197--488;
197--490;
198--235;
198--251;
198--254;
198--270;
198--335;
198--376;
198--378;
198--419;
198--430;
198--488;
198--497;
199--240;
199--250;
199--282;
199--308;
199--312;
199--399;
199--453;
200--208;
200--243;
200--247;
200--249;
200--258;
200--336;
200--363;
200--428;
201--242;
201--262;
201--295;
201--367;
201--372;
201--458;
201--463;
201--492;
202--257;
202--286;
202--408;
202--480;
203--210;
203--229;
203--263;
203--293;
203--300;
203--314;
203--373;
203--396;
203--442;
203--459;
203--482;
204--225;
204--315;
204--330;
204--334;
204--340;
204--384;
204--394;
204--401;
204--437;
204--441;
204--461;
204--467;
205--244;
206--226;
206--269;
206--320;
206--333;
206--392;
206--462;
207--253;
207--256;
207--284;
207--354;
207--379;
207--389;
207--406;
207--431;
207--451;
207--479;
208--243;
208--247;
208--428;
208--439;
209--219;
209--235;
209--251;
209--266;
209--272;
209--274;
209--297;
209--316;
209--421;
209--435;
209--436;
209--438;
209--468;
210--263;
210--293;
210--300;
210--314;
210--373;
210--396;
210--459;
210--482;
211--239;
211--383;
211--449;
211--456;
212--292;
212--344;
212--474;
212--478;
213--219;
213--228;
213--255;
213--272;
213--274;
213--297;
213--303;
213--306;
213--318;
213--382;
213--416;
213--421;
213--433;
213--435;
213--436;
213--439;
213--455;
214--216;
214--277;
214--302;
214--400;
214--411;
214--413;
214--418;
214--420;
214--466;
214--469;
214--484;
214--499;
215--333;
215--434;
215--491;
216--238;
216--411;
216--417;
216--453;
216--469;
216--499;
217--246;
217--280;
217--309;
217--343;
217--357;
217--404;
217--405;
217--475;
218--229;
218--276;
218--300;
218--349;
218--396;
218--442;
218--450;
218--464;
219--272;
219--274;
219--297;
219--318;
219--421;
219--433;
219--435;
219--436;
219--438;
220--237;
220--271;
220--288;
220--319;
220--329;
220--338;
220--366;
220--416;
220--476;
221--356;
221--370;
221--388;
221--496;
222--232;
222--304;
222--375;
222--398;
222--403;
223--253;
223--284;
223--290;
223--322;
223--328;
223--374;
223--389;
223--481;
224--233;
224--279;
224--345;
224--377;
224--390;
224--393;
224--410;
224--457;
224--477;
224--490;
225--268;
225--315;
225--330;
225--334;
225--384;
225--394;
225--431;
225--437;
225--441;
225--461;
225--467;
226--311;
226--323;
226--407;
226--462;
226--473;
226--498;
227--260;
227--261;
227--324;
227--347;
227--352;
227--368;
227--380;
227--401;
227--402;
227--440;
228--255;
228--288;
228--318;
228--329;
228--382;
228--433;
228--455;
229--285;
229--349;
229--373;
229--396;
229--450;
229--464;
230--242;
230--259;
230--262;
230--265;
230--273;
230--299;
230--317;
230--325;
230--367;
231--275;
231--321;
231--326;
231--339;
231--350;
231--387;
231--429;
231--432;
231--447;
231--465;
231--470;
231--495;
232--248;
232--337;
232--355;
232--371;
232--375;
232--398;
232--403;
233--279;
233--359;
233--390;
233--419;
233--448;
233--457;
233--486;
233--490;
234--269;
234--273;
234--296;
234--332;
234--392;
234--452;
235--251;
235--254;
235--266;
235--316;
235--378;
235--419;
235--430;
235--438;
235--468;
236--265;
236--313;
236--317;
237--255;
237--271;
237--288;
237--303;
237--306;
237--329;
237--338;
237--366;
237--382;
237--416;
237--455;
238--409;
238--411;
238--417;
238--453;
238--469;
238--499;
239--449;
239--456;
240--250;
240--282;
240--308;
240--312;
240--399;
241--260;
241--283;
241--305;
241--310;
241--353;
241--358;
241--364;
241--386;
241--489;
241--493;
242--262;
242--273;
242--367;
242--458;
242--463;
243--247;
243--249;
243--258;
243--336;
243--363;
243--428;
244--245;
244--348;
245--348;
245--395;
245--448;
246--309;
246--343;
246--357;
246--404;
246--405;
247--249;
247--258;
247--336;
247--363;
247--428;
247--439;
248--326;
248--337;
248--355;
248--365;
248--371;
248--403;
248--412;
248--446;
249--258;
249--336;
249--363;
249--385;
250--282;
250--308;
250--312;
250--399;
250--453;
251--254;
251--266;
251--270;
251--316;
251--335;
251--378;
251--385;
251--430;
251--438;
251--468;
252--264;
252--331;
252--341;
252--397;
252--471;
253--256;
253--284;
253--290;
253--322;
253--328;
253--374;
253--389;
253--406;
253--415;
253--451;
254--270;
254--316;
254--335;
254--378;
254--385;
254--430;
254--468;
255--288;
255--318;
255--329;
255--382;
255--433;
255--455;
256--284;
256--314;
256--354;
256--374;
256--379;
256--389;
256--406;
256--451;
257--286;
257--391;
257--480;
258--270;
258--316;
258--363;
258--385;
259--262;
259--269;
259--273;
259--296;
259--299;
259--325;
259--367;
260--261;
260--283;
260--353;
260--368;
260--386;
260--434;
260--440;
260--489;
261--283;
261--353;
261--368;
261--380;
261--386;
261--401;
261--440;
261--489;
262--273;
262--325;
262--367;
262--458;
262--463;
263--293;
263--300;
263--314;
263--373;
263--396;
263--415;
263--442;
263--459;
263--482;
264--331;
264--341;
264--397;
264--426;
264--427;
264--471;
265--278;
265--313;
265--483;
266--287;
266--345;
266--378;
266--419;
266--425;
266--430;
266--438;
266--454;
266--457;
266--468;
266--472;
266--485;
267--299;
267--323;
267--360;
267--381;
267--417;
267--473;
267--498;
268--289;
268--298;
268--315;
268--334;
268--354;
268--394;
268--414;
268--431;
268--437;
268--441;
268--443;
268--467;
268--479;
268--487;
269--296;
269--392;
270--316;
270--376;
270--385;
271--288;
271--303;
271--306;
271--319;
271--366;
271--416;
272--274;
272--297;
272--316;
272--421;
272--428;
272--433;
272--435;
272--436;
272--439;
273--296;
273--325;
273--367;
274--297;
274--318;
274--421;
274--433;
274--435;
274--436;
274--438;
275--321;
275--339;
275--344;
275--350;
275--387;
275--429;
275--432;
275--447;
275--465;
275--470;
275--495;
276--300;
276--307;
276--349;
276--396;
276--408;
276--442;
276--450;
277--291;
277--299;
277--302;
277--313;
277--317;
277--381;
277--400;
277--411;
277--413;
277--420;
278--454;
278--463;
278--483;
279--309;
279--377;
279--390;
279--393;
279--404;
279--410;
279--477;
279--486;
279--490;
280--290;
280--370;
280--424;
280--475;
280--481;
281--332;
281--388;
281--452;
281--496;
282--308;
282--312;
282--369;
282--399;
282--466;
283--305;
283--310;
283--353;
283--364;
283--386;
283--440;
283--489;
283--493;
284--322;
284--354;
284--374;
284--389;
284--406;
284--451;
285--341;
285--464;
286--349;
286--408;
286--427;
286--480;
287--345;
287--378;
287--419;
287--425;
287--430;
287--438;
287--454;
287--457;
287--468;
287--472;
287--477;
287--485;
288--303;
288--306;
288--318;
288--329;
288--338;
288--366;
288--382;
288--416;
288--455;
289--298;
289--315;
289--354;
289--414;
289--431;
289--441;
289--443;
289--479;
289--487;
290--322;
290--328;
290--374;
290--389;
290--481;
291--299;
291--302;
291--313;
291--317;
291--381;
291--400;
291--420;
292--321;
292--344;
292--478;
293--300;
293--314;
293--373;
293--396;
293--442;
293--459;
293--482;
294--327;
294--346;
294--351;
295--370;
295--372;
295--377;
295--424;
295--445;
295--458;
295--492;
295--496;
296--325;
296--392;
297--318;
297--421;
297--433;
297--435;
297--436;
297--438;
297--439;
298--354;
298--379;
298--414;
298--431;
298--443;
298--479;
298--487;
299--302;
299--317;
299--325;
299--360;
299--381;
299--400;
299--420;
299--498;
300--314;
300--373;
300--396;
300--415;
300--442;
300--459;
300--482;
301--331;
301--391;
301--422;
301--426;
301--427;
301--471;
302--317;
302--381;
302--400;
302--411;
302--413;
302--420;
302--469;
302--484;
303--306;
303--416;
303--455;
304--375;
304--398;
305--310;
305--358;
305--362;
305--364;
305--489;
305--493;
306--366;
306--382;
306--416;
306--455;
307--328;
307--361;
307--408;
307--444;
308--312;
308--399;
308--453;
308--499;
309--343;
309--357;
309--404;
309--405;
310--353;
310--358;
310--362;
310--364;
310--423;
310--489;
310--493;
311--323;
311--407;
311--462;
311--473;
312--399;
312--453;
313--317;
313--400;
314--373;
314--415;
314--442;
314--451;
314--459;
314--482;
315--330;
315--334;
315--384;
315--394;
315--431;
315--437;
315--441;
315--461;
315--467;
316--385;
317--400;
317--420;
318--329;
318--382;
318--433;
318--435;
318--436;
318--455;
319--366;
319--369;
319--418;
319--466;
319--476;
320--333;
320--462;
321--344;
321--387;
321--447;
321--470;
322--328;
322--374;
322--389;
322--415;
323--360;
323--407;
323--409;
323--417;
323--462;
323--473;
323--498;
324--332;
324--347;
324--352;
324--380;
324--402;
325--367;
326--339;
326--350;
326--365;
326--371;
326--412;
326--429;
326--432;
326--446;
326--465;
326--470;
327--346;
327--351;
328--374;
328--389;
328--481;
329--338;
329--382;
330--334;
330--340;
330--356;
330--384;
330--394;
330--437;
330--441;
330--461;
330--467;
331--341;
331--397;
331--426;
331--471;
332--347;
332--402;
332--452;
333--491;
334--384;
334--394;
334--431;
334--437;
334--441;
334--461;
334--467;
335--359;
335--376;
335--378;
335--488;
335--497;
336--363;
336--478;
337--355;
337--371;
337--395;
337--403;
337--412;
337--465;
337--494;
338--418;
338--484;
339--342;
339--350;
339--365;
339--387;
339--412;
339--429;
339--432;
339--446;
339--447;
339--465;
339--470;
339--495;
340--380;
340--384;
340--401;
340--402;
341--397;
342--350;
342--376;
342--412;
342--460;
342--465;
342--494;
342--495;
343--357;
343--404;
343--405;
344--387;
344--474;
344--478;
344--495;
345--390;
345--419;
345--425;
345--430;
345--454;
345--457;
345--468;
345--472;
345--477;
345--485;
346--351;
346--437;
346--441;
346--467;
347--352;
347--402;
348--448;
348--486;
349--396;
349--450;
349--464;
350--365;
350--387;
350--412;
350--429;
350--432;
350--446;
350--447;
350--465;
350--470;
350--495;
352--368;
352--380;
352--401;
352--402;
353--386;
353--440;
353--489;
353--493;
354--379;
354--406;
354--414;
354--431;
354--443;
354--451;
354--479;
354--487;
355--371;
355--395;
355--403;
355--412;
355--465;
355--494;
356--388;
357--361;
357--404;
357--405;
358--362;
358--364;
358--423;
358--489;
358--493;
359--378;
359--419;
359--430;
359--448;
359--457;
359--486;
359--488;
359--490;
360--381;
360--409;
360--417;
360--473;
360--498;
361--405;
361--444;
362--364;
362--493;
364--423;
364--489;
364--493;
365--371;
365--412;
365--429;
365--432;
365--446;
366--416;
366--476;
367--458;
367--463;
368--380;
368--401;
368--402;
368--440;
369--418;
369--466;
369--476;
369--484;
370--372;
370--388;
370--424;
370--445;
370--475;
370--492;
370--496;
371--403;
371--412;
371--446;
371--465;
371--494;
372--377;
372--393;
372--410;
372--424;
372--445;
372--458;
372--475;
372--492;
372--496;
373--396;
373--415;
373--442;
373--459;
373--482;
374--389;
374--415;
374--451;
375--398;
375--403;
376--385;
376--460;
376--474;
376--494;
376--497;
377--390;
377--393;
377--410;
377--477;
378--419;
378--430;
378--457;
378--468;
379--406;
379--443;
379--451;
379--479;
379--487;
380--401;
380--402;
380--440;
381--400;
381--417;
381--420;
381--498;
382--416;
382--433;
382--455;
383--391;
383--422;
383--449;
384--401;
384--437;
384--441;
384--461;
384--467;
386--434;
386--489;
387--432;
387--447;
387--470;
387--495;
388--445;
388--496;
389--406;
389--415;
389--451;
390--393;
390--410;
390--477;
391--422;
393--410;
394--431;
394--437;
394--441;
394--461;
394--467;
395--448;
395--488;
395--497;
396--415;
396--442;
396--450;
396--459;
396--482;
397--426;
397--427;
397--464;
397--471;
398--403;
398--456;
399--453;
399--499;
400--411;
400--413;
400--420;
401--402;
401--440;
404--490;
406--451;
407--462;
407--473;
408--444;
408--480;
409--417;
409--473;
410--477;
411--413;
411--418;
411--420;
411--466;
411--469;
411--484;
411--499;
412--429;
412--432;
412--446;
412--465;
412--494;
413--418;
413--420;
413--466;
413--469;
413--484;
413--499;
414--431;
414--443;
414--479;
414--487;
415--442;
415--459;
415--482;
416--455;
417--469;
417--473;
418--466;
418--476;
418--484;
419--425;
419--430;
419--457;
419--468;
419--472;
419--477;
419--485;
420--469;
420--484;
421--428;
421--433;
421--435;
421--436;
421--439;
422--471;
423--493;
424--445;
424--475;
424--492;
424--496;
425--430;
425--438;
425--454;
425--457;
425--468;
425--472;
425--477;
425--485;
426--427;
426--464;
426--471;
427--464;
427--471;
428--439;
429--432;
429--446;
429--447;
429--470;
430--438;
430--457;
430--468;
430--472;
430--477;
430--485;
431--437;
431--441;
431--443;
431--479;
431--487;
432--446;
432--447;
432--470;
433--435;
433--436;
433--439;
433--455;
434--491;
435--436;
435--439;
436--438;
437--441;
437--461;
437--467;
438--468;
438--472;
440--489;
441--461;
441--467;
442--450;
442--459;
442--482;
443--479;
443--487;
444--480;
445--475;
445--492;
445--496;
446--465;
447--470;
448--486;
448--488;
448--490;
449--456;
450--464;
452--496;
453--469;
453--499;
454--472;
454--477;
454--483;
454--485;
457--468;
457--472;
457--477;
457--485;
457--490;
458--463;
458--492;
459--482;
460--465;
460--474;
460--494;
460--495;
460--497;
462--473;
462--498;
463--483;
465--494;
465--495;
466--476;
466--484;
468--472;
468--485;
469--499;
472--477;
472--483;
472--485;
473--498;
474--478;
474--495;
477--483;
477--485;
479--487;
483--485;
486--488;
486--490;
488--497;
489--493;
492--496;
494--495;
494--497;
}
